﻿ANAL,SRP&Ammonia.ANL,,,,,,,,,,,,,
RUN ,MesocosmExcretionDR1R1.RUN,,,,,,,,,,,,,
DATE,7/23/2021,,,,,,,,,,,,,
TIME,11:28:58 AM,,,,,,,,,,,,,
OPER,FMS-ALS,,,,,,,,,,,,,
COMM,Recalculate from RunMesocosmExcretionDR1.run,,,,,,,,,,,,,
TYPE,,,,,,,,Real,,,Real,,,Data
CHAN,,,,,,,,1,,,2,,,2
METH,,,,,,,,SRP,,,NH4,,,Dilution
UNIT,,,,,,,,µg/L,,,µg/L,,,
Base,,,,,,,,-6746,,,-4579,,,
Gain,,,,,,,,167,,,359,,,
FIT,,,,,,,,L,,,L,,,
COEFF,,,,,,,,0.9999,,,0.9998,,,
Sample ID,Peak Number,Cup Number,Cup Type,Cup Group,,,Calibrants 1,Results 1, mAU,Calibrants 2,Results 2, mAU,,Results 2
Primer,1,921,PRIM,0,0,0,,489.963,13.73,,492.983,10.77,,1
Drift,2,921,DRIF,0,0,0,,491.757,13.78,,490.045,10.71,,1
Cal,3,921,CALB,0,0,0,500,486.344,13.63,500,494.013,10.79,,1
Cal.,4,901,CALB,0,0,0,100,79.655,2.23,100,96.48,2.11,,1
Cal.,5,902,CALB,0,0,0,50,46.039,1.29,50,51.644,1.13,,1
Cal.,6,903,CALB,0,0,0,25,96.969,2.72,25,27.719,0.61,,1
Null-Cal.,7,0,NULLCALB,0,0,0,,85.166,2.39,,15.717,0.34,,1
Null-Cal.,8,0,NULLCALB,0,0,0,,0.489,0.01,,12.799,0.28,,1
Cal.,9,906,CALB,0,0,0,10,-0.88,-0.02,10,12.274,0.27,,1
Null-Cal.,10,0,NULLCALB,0,0,0,,-1.272,-0.04,,5.505,0.12,,1
Null-Cal.,11,0,NULLCALB,0,0,0,,-3.913,-0.11,,9.376,0.2,,1
Cal.,12,909,CALB,0,0,0,1,-7.108,-0.2,1,6.108,0.13,,1
High,13,921,HIGH,0,1,1,,490.322,13.74,,495.083,10.82,,1
Low,14,908,LOW ,0,1,2,,-4.597,-0.13,,10.309,0.23,,1
Low,15,908,LOW ,0,1,3,,-4.565,-0.13,,10.348,0.23,,1
Drift,16,921,DRIF,0,0,0,,491.757,13.78,,490.045,10.71,,1
Baseline,17,0,BASL,0,0,0,,0,0,,0,0,,1
210,18,1,SAMP,0,0,0,,2.706,0.08,,122.779,2.68,,1
150,19,2,SAMP,0,0,0,,0.163,0,,21.514,0.47,,1
437,20,3,SAMP,0,0,0,,-0.685,-0.02,,90.236,1.97,,1
101,21,4,SAMP,0,0,0,,-0.489,-0.01,,172.283,3.76,,1
136,22,5,SAMP,0,0,0,,0.13,0,,39.137,0.86,,1
451,23,6,SAMP,0,0,0,,9.977,0.28,,170.63,3.73,,1
354,24,7,SAMP,0,0,0,,3.098,0.09,,84.284,1.84,,1
438,25,8,SAMP,0,0,0,,2.739,0.08,,99.865,2.18,,1
406,26,9,SAMP,0,0,0,,1.141,0.03,,47.695,1.04,,1
315,27,10,SAMP,0,0,0,,13.662,0.38,,108.754,2.38,,1
416,28,11,SAMP,0,0,0,,1.467,0.04,,112.683,2.46,,1
422,29,12,SAMP,0,0,0,,3.065,0.09,,73.994,1.62,,1
149,30,13,SAMP,0,0,0,,3.065,0.09,,29.1,0.64,,1
18,31,14,SAMP,0,0,0,,1.369,0.04,,52.519,1.15,,1
134,32,15,SAMP,0,0,0,,0,0,,36.472,0.8,,1
302,33,16,SAMP,0,0,0,,12.423,0.35,,98.814,2.16,,1
481,34,17,SAMP,0,0,0,,15.096,0.42,,34.877,0.76,,1
332,35,18,SAMP,0,0,0,,11.282,0.32,,100.293,2.19,,1
417,36,19,SAMP,0,0,0,,6.815,0.19,,102.919,2.25,,1
467,37,20,SAMP,0,0,0,,19.466,0.55,,90.295,1.97,,1
Baseline,38,0,BASL,0,0,0,,0,0,,0,0,,1
Drift,39,921,DRIF,0,0,0,,491.757,13.78,,490.045,10.71,,1
Null,40,0,NULL,0,0,0,,-2.478,-0.07,,7.703,0.17,,1
229,41,21,SAMP,0,0,0,,11.836,0.33,,59.853,1.31,,1
313,42,22,SAMP,0,0,0,,19.172,0.54,,125.833,2.75,,1
203,43,23,SAMP,0,0,0,,9.879,0.28,,28.049,0.61,,1
428,44,24,SAMP,0,0,0,,9.195,0.26,,128.75,2.81,,1
411,45,25,SAMP,0,0,0,,5.706,0.16,,67.264,1.47,,1
308,46,26,SAMP,0,0,0,,17.281,0.48,,38.514,0.84,,1
419,47,27,SAMP,0,0,0,,5.739,0.16,,59.853,1.31,,1
423,48,28,SAMP,0,0,0,,8.706,0.24,,64.035,1.4,,1
17,49,29,SAMP,0,0,0,,6.456,0.18,,40.459,0.88,,1
398,50,30,SAMP,0,0,0,,5.771,0.16,,50.866,1.11,,1
232,51,31,SAMP,0,0,0,,8.054,0.23,,88.797,1.94,,1
303,52,32,SAMP,0,0,0,,15.292,0.43,,83.623,1.83,,1
472,53,33,SAMP,0,0,0,,22.107,0.62,,132.349,2.89,,1
228,54,34,SAMP,0,0,0,,0.685,0.02,,21.63,0.47,,1
385,55,35,SAMP,0,0,0,,8.999,0.25,,65.085,1.42,,1
468,56,36,SAMP,0,0,0,,21.715,0.61,,152.987,3.34,,1
466,57,37,SAMP,0,0,0,,6.521,0.18,,30.87,0.67,,1
357,58,38,SAMP,0,0,0,,9.521,0.27,,43.572,0.95,,1
493,59,39,SAMP,0,0,0,,25.237,0.71,,34.001,0.74,,1
204,60,40,SAMP,0,0,0,,0.685,0.02,,25.929,0.57,,1
Baseline,61,0,BASL,0,0,0,,0,0,,0,0,,1
Drift,62,921,DRIF,0,0,0,,491.757,13.78,,490.045,10.71,,1
Null,63,0,NULL,0,0,0,,0.359,0.01,,0.895,0.02,,1
415,64,41,SAMP,0,0,0,,8.999,0.25,,152.384,3.33,,1
162,65,42,SAMP,0,0,0,,6.097,0.17,,109.357,2.39,,1
135,66,43,SAMP,0,0,0,,8.314,0.23,,19.938,0.44,,1
426,67,44,SAMP,0,0,0,,10.955,0.31,,53.122,1.16,,1
491,68,45,SAMP,0,0,0,,32.279,0.9,,33.223,0.73,,1
497,69,46,SAMP,0,0,0,,63.027,1.77,,116.788,2.55,,1
207,70,47,SAMP,0,0,0,,6.489,0.18,,72.01,1.57,,1
160,71,48,SAMP,0,0,0,,15.618,0.44,,85.704,1.87,,1
484,72,49,SAMP,0,0,0,,15.846,0.44,,78.604,1.72,,1
338,73,50,SAMP,0,0,0,,49.43,1.39,,146.451,3.2,,1
486,74,51,SAMP,0,0,0,,21.128,0.59,,30.636,0.67,,1
209,75,52,SAMP,0,0,0,,9.879,0.28,,131.415,2.87,,1
349,76,53,SAMP,0,0,0,,23.28,0.65,,129.84,2.84,,1
269,77,54,SAMP,0,0,0,,2.511,0.07,,46.84,1.02,,1
142,78,55,SAMP,0,0,0,,5.576,0.16,,103.133,2.25,,1
147,79,56,SAMP,0,0,0,,6.456,0.18,,12.41,0.27,,1
138,80,57,SAMP,0,0,0,,6.88,0.19,,76.387,1.67,,1
248,81,58,SAMP,0,0,0,,6.717,0.19,,35.032,0.77,,1
260,82,59,SAMP,0,0,0,,6.162,0.17,,90.645,1.98,,1
432,83,60,SAMP,0,0,0,,9.032,0.25,,35.869,0.78,,1
Baseline,84,0,BASL,0,0,0,,0,0,,0,0,,1
Drift,85,921,DRIF,0,0,0,,491.757,13.78,,490.045,10.71,,1
Null,86,0,NULL,0,0,0,,-2.217,-0.06,,-6.711,-0.15,,1
262,87,61,SAMP,0,0,0,,7.891,0.22,,55.243,1.21,,1
485,88,62,SAMP,0,0,0,,49.463,1.39,,160.768,3.51,,1
421,89,63,SAMP,0,0,0,,6.815,0.19,,59.58,1.3,,1
158,90,64,SAMP,0,0,0,,9.13,0.26,,133.691,2.92,,1
10,91,65,SAMP,0,0,0,,7.728,0.22,,99.923,2.18,,1
498,92,66,SAMP,0,0,0,,18.748,0.53,,27.485,0.6,,1
500,93,67,SAMP,0,0,0,,78.971,2.21,,56.449,1.23,,1
156,94,68,SAMP,0,0,0,,9.032,0.25,,24.995,0.55,,1
392,95,69,SAMP,0,0,0,,11.249,0.32,,99.106,2.17,,1
376,96,70,SAMP,0,0,0,,11.021,0.31,,49.29,1.08,,1
482,97,71,SAMP,0,0,0,,30.323,0.85,,124.899,2.73,,1
471,98,72,SAMP,0,0,0,,29.182,0.82,,139.527,3.05,,1
391,99,73,SAMP,0,0,0,,12.684,0.36,,111.38,2.43,,1
456,100,74,SAMP,0,0,0,,21.324,0.6,,196.695,4.3,,1
473,101,75,SAMP,0,0,0,,17.183,0.48,,141.044,3.08,,1
325,102,76,SAMP,0,0,0,,17.444,0.49,,95.974,2.1,,1
329,103,77,SAMP,0,0,0,,19.042,0.53,,53.55,1.17,,1
265,104,78,SAMP,0,0,0,,6.032,0.17,,63.801,1.39,,1
154,105,79,SAMP,0,0,0,,4.989,0.14,,32.601,0.71,,1
495,106,80,SAMP,0,0,0,,33.453,0.94,,74.733,1.63,,1
Baseline,107,0,BASL,0,0,0,,0,0,,0,0,,1
Drift,108,921,DRIF,0,0,0,,491.757,13.78,,490.045,10.71,,1
Null,109,0,NULL,0,0,0,,-2.38,-0.07,,1.362,0.03,,1
242,110,81,SAMP,0,0,0,,6.293,0.18,,57.81,1.26,,1
369,111,82,SAMP,0,0,0,,12.912,0.36,,68.178,1.49,,1
352,112,83,SAMP,0,0,0,,21.389,0.6,,51.099,1.12,,1
333,113,84,SAMP,0,0,0,,3.945,0.11,,34.896,0.76,,1
380,114,85,SAMP,0,0,0,,8.021,0.22,,87.921,1.92,,1
324,115,86,SAMP,0,0,0,,17.737,0.5,,79.421,1.74,,1
148,116,87,SAMP,0,0,0,,4.826,0.14,,54.795,1.2,,1
240,117,88,SAMP,0,0,0,,11.542,0.32,,124.043,2.71,,1
109,118,89,SAMP,0,0,0,,5.282,0.15,,99.515,2.17,,1
365,119,90,SAMP,0,0,0,,12.651,0.35,,167.265,3.65,,1
335,120,91,SAMP,0,0,0,,11.738,0.33,,39.895,0.87,,1
267,121,92,SAMP,0,0,0,,4.793,0.13,,31.337,0.68,,1
328,122,93,SAMP,0,0,0,,15.814,0.44,,115.387,2.52,,1
410,123,94,SAMP,0,0,0,,8.086,0.23,,97.803,2.14,,1
492,124,95,SAMP,0,0,0,,89.73,2.51,,48.765,1.07,,1
459,125,96,SAMP,0,0,0,,11.282,0.32,,58.413,1.28,,1
465,126,97,SAMP,0,0,0,,19.009,0.53,,48.532,1.06,,1
164,127,98,SAMP,0,0,0,,6.684,0.19,,80.51,1.76,,1
226,128,99,SAMP,0,0,0,,4.141,0.12,,84.226,1.84,,1
316,129,100,SAMP,0,0,0,,14.542,0.41,,134.119,2.93,,1
Baseline,130,0,BASL,0,0,0,,0,0,,0,0,,1
Drift,131,921,DRIF,0,0,0,,491.757,13.78,,490.045,10.71,,1
Null,132,0,NULL,0,0,0,,-3.456,-0.1,,-17.098,-0.37,,1
330,133,101,SAMP,0,0,0,,21.259,0.6,,70.162,1.53,,1
431,134,102,SAMP,0,0,0,,10.303,0.29,,79.071,1.73,,1
387,135,103,SAMP,0,0,0,,5.869,0.16,,48.687,1.06,,1
102,136,104,SAMP,0,0,0,,5.836,0.16,,169.541,3.7,,1
311,137,105,SAMP,0,0,0,,36.127,1.01,,79.246,1.73,,1
230,138,106,SAMP,0,0,0,,13.042,0.37,,80.938,1.77,,1
318,139,107,SAMP,0,0,0,,15.879,0.44,,44.739,0.98,,1
379,140,108,SAMP,0,0,0,,5.315,0.15,,144.604,3.16,,1
225,141,109,SAMP,0,0,0,,5.054,0.14,,92.629,2.02,,1
237,142,110,SAMP,0,0,0,,3.554,0.1,,172.069,3.76,,1
464,143,111,SAMP,0,0,0,,11.836,0.33,,47.987,1.05,,1
334,144,112,SAMP,0,0,0,,3.032,0.08,,73.449,1.6,,1
326,145,113,SAMP,0,0,0,,38.572,1.08,,132.699,2.9,,1
110,146,114,SAMP,0,0,0,,7.467,0.21,,117.702,2.57,,1
359,147,115,SAMP,0,0,0,,15.259,0.43,,102.102,2.23,,1
257,148,116,SAMP,0,0,0,,0.717,0.02,,153.357,3.35,,1
132,149,117,SAMP,0,0,0,,6.13,0.17,,103.074,2.25,,1
Drift,150,921,DRIF,0,0,0,,491.757,13.78,,558.282,12.2,,1
End,151,0,END ,0,0,0,,0,0,,0,0,,1