﻿ANAL,SRP&Ammonia.ANL,,,,,,,,,,,,,
RUN ,MescosmExcretionCR1.RUN,,,,,,,,,,,,,
DATE,7/22/2021,,,,,,,,,,,,,
TIME,6:28:05 PM,,,,,,,,,,,,,
OPER,ALS-FMS,,,,,,,,,,,,,
COMM,Recalculate from RunMescosmExcretionC.run,,,,,,,,,,,,,
TYPE,,,,,,,,Real,,,Real,,,Data
CHAN,,,,,,,,1,,,2,,,2
METH,,,,,,,,SRP,,,NH4,,,Dilution
UNIT,,,,,,,,µg/L,,,µg/L,,,
Base,,,,,,,,-6774,,,-4536,,,
Gain,,,,,,,,186,,,532,,,
FIT,,,,,,,,L,,,L,,,
COEFF,,,,,,,,0.9996,,,0.9859,,,
Sample ID,Peak Number,Cup Number,Cup Type,Cup Group,,,Calibrants 1,Results 1, mAU,Calibrants 2,Results 2, mAU,,Results 2
Primer,1,921,PRIM,0,0,0,,496.728,45.21,,474.688,10.34,,1
Drift,2,921,DRIF,0,0,0,,496.539,45.2,,464.412,10.12,,1
Cal,3,921,CALB,0,0,0,500,496.503,45.19,500,467.47,10.19,,1
Cal.,4,901,CALB,0,0,0,100,111.067,10.14,100,149.402,3.56,,1
Cal.,5,902,CALB,0,0,0,50,50.843,4.66,50,81.849,2.16,,1
Cal.,6,903,CALB,0,0,0,25,26.875,2.48,25,31.763,1.12,,1
Null-Cal.,7,0,NULLCALB,0,0,0,,11.269,1.06,,16.045,0.79,,1
Null-Cal.,8,0,NULLCALB,0,0,0,,6.496,0.63,,-17.649,0.09,,1
Cal.,9,906,CALB,0,0,0,10,8.553,0.82,10,4.35,0.54,,1
Null-Cal.,10,0,NULLCALB,0,0,0,,6.938,0.67,,0.989,0.47,,1
Null-Cal.,11,0,NULLCALB,0,0,0,,4.286,0.43,,7.849,0.62,,1
Cal.,12,909,CALB,0,0,0,1,2.221,0.24,1,-8.323,0.28,,1
High,13,921,HIGH,0,1,1,,496.467,45.19,,473.862,10.32,,1
Low,14,908,LOW ,0,1,2,,3.871,0.39,,-4.976,0.35,,1
Low,15,908,LOW ,0,1,3,,3.871,0.39,,-5.045,0.35,,1
Drift,16,921,DRIF,0,0,0,,496.539,45.2,,464.412,10.12,,1
Baseline,17,0,BASL,0,0,0,,-0.432,0,,-21.795,0,,1
213,18,1,SAMP,0,0,0,,4.124,0.41,,20.797,0.89,,1
424,19,2,SAMP,0,0,0,,12.342,1.16,,57.577,1.65,,1
414,20,3,SAMP,0,0,0,,7.317,0.7,,77.468,2.07,,1
216,21,4,SAMP,0,0,0,,1.589,0.18,,14.516,0.76,,1
474,22,5,SAMP,0,0,0,,28.805,2.66,,207.492,4.77,,1
151,23,6,SAMP,0,0,0,,10.375,0.98,,115.529,2.86,,1
458,24,7,SAMP,0,0,0,,13.659,1.28,,37.452,1.23,,1
418,25,8,SAMP,0,0,0,,16.916,1.58,,271.326,6.1,,1
400,26,9,SAMP,0,0,0,,15.481,1.45,,63.321,1.77,,1
143,27,10,SAMP,0,0,0,,7.444,0.72,,28.25,1.04,,1
144,28,11,SAMP,0,0,0,,5.107,0.5,,-0.031,0.45,,1
7,29,12,SAMP,0,0,0,,6.722,0.65,,40.358,1.29,,1
218,30,13,SAMP,0,0,0,,6.496,0.63,,153.645,3.65,,1
452,31,14,SAMP,0,0,0,,14.399,1.35,,230.868,5.26,,1
202,32,15,SAMP,0,0,0,,8.039,0.77,,179.639,4.19,,1
348,33,16,SAMP,0,0,0,,18.9,1.76,,36.336,1.21,,1
108,34,17,SAMP,0,0,0,,7.642,0.73,,59.878,1.7,,1
361,35,18,SAMP,0,0,0,,6.298,0.61,,50.869,1.51,,1
344,36,19,SAMP,0,0,0,,18.188,1.69,,240.249,5.46,,1
425,37,20,SAMP,0,0,0,,11.296,1.07,,66.545,1.84,,1
Baseline,38,0,BASL,0,0,0,,-0.432,0,,-21.795,0,,1
Drift,39,921,DRIF,0,0,0,,496.539,45.2,,464.412,10.12,,1
Null,40,0,NULL,0,0,0,,-0.414,0,,-13.764,0.17,,1
319,41,21,SAMP,0,0,0,,22.157,2.05,,119.675,2.95,,1
453,42,22,SAMP,0,0,0,,18.296,1.7,,254.396,5.75,,1
340,43,23,SAMP,0,0,0,,22.896,2.12,,259.273,5.85,,1
93,44,24,SAMP,0,0,0,,1.535,0.18,,47.191,1.44,,1
479,45,25,SAMP,0,0,0,,19.947,1.85,,267.166,6.02,,1
152,46,26,SAMP,0,0,0,,4.304,0.43,,161.414,3.81,,1
239,47,27,SAMP,0,0,0,,14.372,1.35,,176.663,4.13,,1
314,48,28,SAMP,0,0,0,,17.89,1.67,,148.397,3.54,,1
159,49,29,SAMP,0,0,0,,9.997,0.95,,223.03,5.1,,1
366,50,30,SAMP,0,0,0,,13.578,1.27,,190.962,4.43,,1
103,51,31,SAMP,0,0,0,,17.782,1.66,,238.789,5.43,,1
107,52,32,SAMP,0,0,0,,11.016,1.04,,62.261,1.75,,1
304,53,33,SAMP,0,0,0,,15.148,1.42,,101.961,2.58,,1
477,54,34,SAMP,0,0,0,,18.278,1.7,,56.833,1.64,,1
235,55,35,SAMP,0,0,0,,1.968,0.22,,70.567,1.92,,1
427,56,36,SAMP,0,0,0,,6.533,0.63,,192.339,4.46,,1
211,57,37,SAMP,0,0,0,,3.835,0.39,,157.171,3.73,,1
470,58,38,SAMP,0,0,0,,9.627,0.91,,26.115,1,,1
301,59,39,SAMP,0,0,0,,18.792,1.75,,42.975,1.35,,1
339,60,40,SAMP,0,0,0,,16.708,1.56,,165.643,3.9,,1
Baseline,61,0,BASL,0,0,0,,-0.432,0,,-21.795,0,,1
Drift,62,921,DRIF,0,0,0,,496.539,45.2,,464.412,10.12,,1
Null,63,0,NULL,0,0,0,,0.687,0.1,,-24.082,-0.05,,1
496,64,41,SAMP,0,0,0,,28.742,2.65,,93.448,2.4,,1
360,65,42,SAMP,0,0,0,,20.091,1.87,,70.54,1.92,,1
337,66,43,SAMP,0,0,0,,17.908,1.67,,233.926,5.32,,1
84,67,44,SAMP,0,0,0,,3.402,0.35,,27.437,1.03,,1
309,68,45,SAMP,0,0,0,,22.418,2.08,,24.338,0.96,,1
250,69,46,SAMP,0,0,0,,11.927,1.12,,213.815,4.91,,1
222,70,47,SAMP,0,0,0,,3.583,0.37,,4.226,0.54,,1
266,71,48,SAMP,0,0,0,,3.79,0.38,,43.072,1.35,,1
350,72,49,SAMP,0,0,0,,15.581,1.46,,195.618,4.53,,1
430,73,50,SAMP,0,0,0,,12.495,1.18,,210.123,4.83,,1
341,74,51,SAMP,0,0,0,,30.456,2.81,,291.176,6.52,,1
327,75,52,SAMP,0,0,0,,16.871,1.57,,135.724,3.28,,1
408,76,53,SAMP,0,0,0,,6.668,0.65,,69.933,1.91,,1
145,77,54,SAMP,0,0,0,,1.03,0.13,,17.395,0.82,,1
377,78,55,SAMP,0,0,0,,14.895,1.39,,251.035,5.68,,1
346,79,56,SAMP,0,0,0,,1.138,0.14,,50.4,1.5,,1
247,80,57,SAMP,0,0,0,,2.419,0.26,,169.238,3.98,,1
336,81,58,SAMP,0,0,0,,14.029,1.32,,12.16,0.71,,1
356,82,59,SAMP,0,0,0,,8.887,0.85,,55.828,1.62,,1
396,83,60,SAMP,0,0,0,,10.294,0.98,,284.578,6.38,,1
420,84,61,SAMP,0,0,0,,7.723,0.74,,90.39,2.34,,1
Drift,85,921,DRIF,0,0,0,,496.539,45.2,,464.412,10.12,,1
End,86,0,END ,0,0,0,,-0.432,0,,-21.795,0,,1