Round,Date,Day,Mesocosm,sample,Block,cichlid,treatment,M_Pop,F_Pop,Bag ,Total
2,8/9/21,0,HL,HL,,,,,,6.18,8.04
2,8/9/21,0,HL,HL,,,,,,6.14,7.92
2,8/9/21,0,HL,HL,,,,,,6.13,8.05
2,8/9/21,0,HL,HL,,,,,,6.19,8.1
2,8/9/21,0,HL,HL,,,,,,6.17,7.92
2,8/9/21,0,HL,HL,,,,,,6.15,8.02
2,8/9/21,0,HL,HL,,,,,,6.23,8.05
2,8/9/21,0,HL,HL,,,,,,6.18,8.02
2,8/9/21,0,HL,HL,,,,,,6.2,8.22
2,8/9/21,0,HL,HL,,,,,,6.12,7.94
2,8/12/21,3,A1,1,1,N,fishless,,,6.14,8.02
2,8/12/21,3,A1,2,1,N,fishless,,,6.1,7.74
2,8/12/21,3,A2,1,1,N,ALP+ALP,ALP,ALP,6.15,8.08
2,8/12/21,3,A2,2,1,N,ALP+ALP,ALP,ALP,6.18,7.77
2,8/12/21,3,A3,1,2,Y,GHP+GHP,GHP,GHP,6.22,7.95
2,8/12/21,3,A3,2,2,Y,GHP+GHP,GHP,GHP,6.2,7.78
2,8/12/21,3,A4,1,2,Y,fishless,,,6.21,8.07
2,8/12/21,3,A4,2,2,Y,fishless,,,6.12,8.03
2,8/12/21,3,A5,1,3,N,ALP+AHP,ALP,AHP,6.16,8.06
2,8/12/21,3,A5,2,3,N,ALP+AHP,ALP,AHP,6.14,7.8
2,8/12/21,3,A6,1,3,N,ALP+ALP,ALP,ALP,6.15,7.75
2,8/12/21,3,A6,2,3,N,ALP+ALP,ALP,ALP,6.17,7.76
2,8/12/21,3,A7,1,4,N,AHP+ALP,AHP,ALP,6.13,7.8
2,8/12/21,3,A7,2,4,N,AHP+ALP,AHP,ALP,6.13,8.05
2,8/12/21,3,A8,1,4,N,AHP+AHP,AHP,AHP,6.13,7.85
2,8/12/21,3,A8,2,4,N,AHP+AHP,AHP,AHP,6.14,7.79
2,8/12/21,3,B1,1,1,N,AHP+ALP,AHP,ALP,6.07,8.02
2,8/12/21,3,B1,2,1,N,AHP+ALP,AHP,ALP,6.28,7.89
2,8/12/21,3,B2,1,1,N,AHP+AHP,AHP,AHP,6.12,7.93
2,8/12/21,3,B2,2,1,N,AHP+AHP,AHP,AHP,6.27,7.98
2,8/12/21,3,B3,1,2,Y,LoL+LoL,LoL,LoL,6.11,7.93
2,8/12/21,3,B3,2,2,Y,LoL+LoL,LoL,LoL,6.15,7.83
2,8/12/21,3,B4,1,2,Y,GHP+GHP,GHP,GHP,6.08,7.86
2,8/12/21,3,B4,2,2,Y,GHP+GHP,GHP,GHP,6.18,7.95
2,8/12/21,3,B5,1,3,N,fishless,,,6.16,8.17
2,8/12/21,3,B5,2,3,N,fishless,,,6.17,8.15
2,8/12/21,3,B6,1,3,N,AHP+ALP,AHP,ALP,6.01,7.77
2,8/12/21,3,B6,2,3,N,AHP+ALP,AHP,ALP,6.15,7.72
2,8/12/21,3,B7,1,4,N,AHP+AHP,AHP,AHP,6.22,8
2,8/12/21,3,B7,2,4,N,AHP+AHP,AHP,AHP,6.19,7.96
2,8/12/21,3,B8,1,4,N,ALP+AHP,ALP,AHP,6.15,7.88
2,8/12/21,3,B8,2,4,N,ALP+AHP,ALP,AHP,6.13,7.82
2,8/12/21,3,C1,1,1,N,ALP+ALP,ALP,ALP,6.1,7.81
2,8/12/21,3,C1,2,1,N,ALP+ALP,ALP,ALP,6.13,7.85
2,8/12/21,3,C2,1,1,N,fishless,,,6.16,8.76
2,8/12/21,3,C2,2,1,N,fishless,,,6.16,7.95
2,8/12/21,3,C3,1,2,Y,fishless,,,6.11,7.96
2,8/12/21,3,C3,2,2,Y,fishless,,,6.11,7.93
2,8/12/21,3,C4,1,2,Y,LoL+LoL,LoL,LoL,6.1,7.79
2,8/12/21,3,C4,2,2,Y,LoL+LoL,LoL,LoL,6.18,7.88
2,8/12/21,3,C5,1,3,N,AHP+AHP,AHP,AHP,6.21,8.09
2,8/12/21,3,C5,2,3,N,AHP+AHP,AHP,AHP,6.23,8.1
2,8/12/21,3,C6,1,3,N,ALP+AHP,ALP,AHP,6.07,8.78
2,8/12/21,3,C6,2,3,N,ALP+AHP,ALP,AHP,6.18,7.84
2,8/12/21,3,C7,1,4,N,ALP+ALP,ALP,ALP,6.19,7.93
2,8/12/21,3,C7,2,4,N,ALP+ALP,ALP,ALP,6.21,8
2,8/12/21,3,C8,1,4,N,fishless,,,6.1,7.81
2,8/12/21,3,C8,2,4,N,fishless,,,6.14,7.9
2,8/12/21,3,D1,1,1,N,AHP+AHP,AHP,AHP,6.27,8.42
2,8/12/21,3,D1,2,1,N,AHP+AHP,AHP,AHP,6.3,8.36
2,8/12/21,3,D2,1,1,N,ALP+AHP,ALP,AHP,6.13,7.95
2,8/12/21,3,D2,2,1,N,ALP+AHP,ALP,AHP,6.24,8.01
2,8/12/21,3,D3,1,2,Y,GHP+GHP,GHP,GHP,6.11,7.8
2,8/12/21,3,D3,2,2,Y,GHP+GHP,GHP,GHP,6.12,7.89
2,8/12/21,3,D4,1,2,Y,LoL+LoL,LoL,LoL,6.07,7.9
2,8/12/21,3,D4,2,2,Y,LoL+LoL,LoL,LoL,6.06,7.86
2,8/12/21,3,D5,1,3,N,AHP+ALP,AHP,ALP,6.17,7.75
2,8/12/21,3,D5,2,3,N,AHP+ALP,AHP,ALP,6.09,7.83
2,8/12/21,3,D6,1,3,N,ALP+ALP,ALP,ALP,6.17,7.94
2,8/12/21,3,D6,2,3,N,ALP+ALP,ALP,ALP,6.19,7.93
2,8/12/21,3,D7,1,4,N,ALP+AHP,ALP,AHP,6.29,7.98
2,8/12/21,3,D7,2,4,N,ALP+AHP,ALP,AHP,6.22,8.38
2,8/12/21,3,D8,1,4,N,AHP+ALP,AHP,ALP,6.15,7.99
2,8/12/21,3,D8,2,4,N,AHP+ALP,AHP,ALP,6.17,8
2,8/16/21,7,A1,1,1,N,fishless,,,6.19,7.7
2,8/16/21,7,A1,2,1,N,fishless,,,6.27,7.66
2,8/16/21,7,A2,1,1,N,ALP+ALP,ALP,ALP,6.16,8.01
2,8/16/21,7,A2,2,1,N,ALP+ALP,ALP,ALP,6.08,7.87
2,8/16/21,7,A3,1,2,Y,GHP+GHP,GHP,GHP,6.16,7.62
2,8/16/21,7,A3,2,2,Y,GHP+GHP,GHP,GHP,6.23,8.08
2,8/16/21,7,A4,1,2,Y,fishless,NA,NA,6.18,7.73
2,8/16/21,7,A4,2,2,Y,fishless,NA,NA,6.13,7.77
2,8/16/21,7,A5,1,3,N,ALP+AHP,ALP,AHP,6.17,7.59
2,8/16/21,7,A5,2,3,N,ALP+AHP,ALP,AHP,6.18,7.77
2,8/16/21,7,A6,1,3,N,ALP+ALP,ALP,ALP,6.24,7.65
2,8/16/21,7,A6,2,3,N,ALP+ALP,ALP,ALP,6.26,7.64
2,8/16/21,7,A7,1,4,N,AHP+ALP,AHP,ALP,6.18,7.67
2,8/16/21,7,A7,2,4,N,AHP+ALP,AHP,ALP,6.15,7.65
2,8/16/21,7,A8,1,4,N,AHP+AHP,AHP,AHP,6.14,7.76
2,8/16/21,7,A8,2,4,N,AHP+AHP,AHP,AHP,6.21,7.66
2,8/16/21,7,B1,1,1,N,AHP+ALP,AHP,ALP,6.22,7.71
2,8/16/21,7,B1,2,1,N,AHP+ALP,AHP,ALP,6.21,7.7
2,8/16/21,7,B2,1,1,N,AHP+AHP,AHP,AHP,6.22,7.64
2,8/16/21,7,B2,2,1,N,AHP+AHP,AHP,AHP,6.22,7.69
2,8/16/21,7,B3,1,2,Y,LoL+LoL,LoL,LoL,6.08,7.53
2,8/16/21,7,B3,2,2,Y,LoL+LoL,LoL,LoL,6.17,7.65
2,8/16/21,7,B4,1,2,Y,GHP+GHP,GHP,GHP,6.14,7.66
2,8/16/21,7,B4,2,2,Y,GHP+GHP,GHP,GHP,6.15,7.66
2,8/16/21,7,B5,1,3,N,fishless,,,6.16,7.88
2,8/16/21,7,B5,2,3,N,fishless,,,6.14,7.59
2,8/16/21,7,B6,1,3,N,AHP+ALP,AHP,ALP,6.14,7.66
2,8/16/21,7,B6,2,3,N,AHP+ALP,AHP,ALP,6.17,7.59
2,8/16/21,7,B7,1,4,N,AHP+AHP,AHP,AHP,6.18,7.83
2,8/16/21,7,B7,2,4,N,AHP+AHP,AHP,AHP,6.23,7.61
2,8/16/21,7,B8,1,4,N,ALP+AHP,ALP,AHP,6.17,7.63
2,8/16/21,7,B8,2,4,N,ALP+AHP,ALP,AHP,6.16,7.67
2,8/16/21,7,C1,1,1,N,ALP+ALP,ALP,ALP,6.15,7.67
2,8/16/21,7,C1,2,1,N,ALP+ALP,ALP,ALP,6.15,7.73
2,8/16/21,7,C2,1,1,N,fishless,,,6.19,7.69
2,8/16/21,7,C2,2,1,N,fishless,,,6.21,7.67
2,8/16/21,7,C3,1,2,Y,fishless,,,6.21,7.74
2,8/16/21,7,C3,2,2,Y,fishless,,,6.26,7.66
2,8/16/21,7,C4,1,2,Y,LoL+LoL,LoL,LoL,6.23,7.75
2,8/16/21,7,C4,2,2,Y,LoL+LoL,LoL,LoL,6.23,7.71
2,8/16/21,7,C5,1,3,N,AHP+AHP,AHP,AHP,6.16,7.68
2,8/16/21,7,C5,2,3,N,AHP+AHP,AHP,AHP,6.15,7.87
2,8/16/21,7,C6,1,3,N,ALP+AHP,ALP,AHP,6.27,7.73
2,8/16/21,7,C6,2,3,N,ALP+AHP,ALP,AHP,6.25,7.82
2,8/16/21,7,C7,1,4,N,ALP+ALP,ALP,ALP,6.19,7.98
2,8/16/21,7,C7,2,4,N,ALP+ALP,ALP,ALP,6.07,7.55
2,8/16/21,7,C8,1,4,N,fishless,,,6.25,7.75
2,8/16/21,7,C8,2,4,N,fishless,,,6.28,7.84
2,8/16/21,7,D1,1,1,N,AHP+AHP,AHP,AHP,6.19,7.87
2,8/16/21,7,D1,2,1,N,AHP+AHP,AHP,AHP,6.18,7.76
2,8/16/21,7,D2,1,1,N,ALP+AHP,ALP,AHP,6.16,7.3
2,8/16/21,7,D2,2,1,N,ALP+AHP,ALP,AHP,6.15,7.59
2,8/16/21,7,D3,1,2,Y,GHP+GHP,GHP,GHP,6.12,7.59
2,8/16/21,7,D3,2,2,Y,GHP+GHP,GHP,GHP,6.21,7.66
2,8/16/21,7,D4,1,2,Y,LoL+LoL,LoL,LoL,6.12,7.71
2,8/16/21,7,D4,2,2,Y,LoL+LoL,LoL,LoL,6.23,7.76
2,8/16/21,7,D5,1,3,N,AHP+ALP,AHP,ALP,6.16,7.77
2,8/16/21,7,D5,2,3,N,AHP+ALP,AHP,ALP,6.17,7.61
2,8/16/21,7,D6,1,3,N,ALP+ALP,ALP,ALP,6.28,7.72
2,8/16/21,7,D6,2,3,N,ALP+ALP,ALP,ALP,6.14,7.48
2,8/16/21,7,D7,1,4,N,ALP+AHP,ALP,AHP,6.12,7.7
2,8/16/21,7,D7,2,4,N,ALP+AHP,ALP,AHP,6.12,7.51
2,8/16/21,7,D8,1,4,N,AHP+ALP,AHP,ALP,6.12,7.77
2,8/16/21,7,D8,2,4,N,AHP+ALP,AHP,ALP,6.2,7.82
2,8/23/21,14,A1,1,1,N,fishless,NA,NA,6.24,7.8
2,8/23/21,14,A1,2,1,N,fishless,NA,NA,6.21,7.44
2,8/23/21,14,A2,1,1,N,ALP+ALP,ALP,ALP,6.24,7.62
2,8/23/21,14,A2,2,1,N,ALP+ALP,ALP,ALP,6.22,7.34
2,8/23/21,14,A3,1,2,Y,GHP+GHP,GHP,GHP,6.17,7.51
2,8/23/21,14,A3,2,2,Y,GHP+GHP,GHP,GHP,6.18,7.63
2,8/23/21,14,A4,1,2,Y,fishless,,,6.24,8.39
2,8/23/21,14,A4,2,2,Y,fishless,,,6.15,7.59
2,8/23/21,14,A5,1,3,N,ALP+AHP,ALP,AHP,6.25,7.37
2,8/23/21,14,A5,2,3,N,ALP+AHP,ALP,AHP,6.2,7.3
2,8/23/21,14,A6,1,3,N,ALP+ALP,ALP,ALP,6.26,7.56
2,8/23/21,14,A6,2,3,N,ALP+ALP,ALP,ALP,6.19,7.19
2,8/23/21,14,A7,1,4,N,AHP+ALP,AHP,ALP,6.19,7.29
2,8/23/21,14,A7,2,4,N,AHP+ALP,AHP,ALP,6.18,7.57
2,8/23/21,14,A8,1,4,N,AHP+AHP,AHP,AHP,6.24,7.76
2,8/23/21,14,A8,2,4,N,AHP+AHP,AHP,AHP,6.24,7.42
2,8/23/21,14,B1,1,1,N,AHP+ALP,AHP,ALP,6.23,7.32
2,8/23/21,14,B1,2,1,N,AHP+ALP,AHP,ALP,6.15,7.27
2,8/23/21,14,B2,1,1,N,AHP+AHP,AHP,AHP,6.13,7.32
2,8/23/21,14,B2,2,1,N,AHP+AHP,AHP,AHP,6.21,7.4
2,8/23/21,14,B3,1,2,Y,LoL+LoL,LoL,LoL,6.2,7.54
2,8/23/21,14,B3,2,2,Y,LoL+LoL,LoL,LoL,6.21,7.51
2,8/23/21,14,B4,1,2,Y,GHP+GHP,GHP,GHP,6.27,7.47
2,8/23/21,14,B4,2,2,Y,GHP+GHP,GHP,GHP,6.2,7.7
2,8/23/21,14,B5,1,3,N,fishless,,,6.2,7.51
2,8/23/21,14,B5,2,3,N,fishless,,,6.16,7.24
2,8/23/21,14,B6,1,3,N,AHP+ALP,AHP,ALP,6.25,7.31
2,8/23/21,14,B6,2,3,N,AHP+ALP,AHP,ALP,6.2,7.25
2,8/23/21,14,B7,1,4,N,AHP+AHP,AHP,AHP,6.2,7.12
2,8/23/21,14,B7,2,4,N,AHP+AHP,AHP,AHP,6.24,7.56
2,8/23/21,14,B8,1,4,N,ALP+AHP,ALP,AHP,6.16,7.45
2,8/23/21,14,B8,2,4,N,ALP+AHP,ALP,AHP,6.17,7.55
2,8/23/21,14,C1,1,1,N,ALP+ALP,ALP,ALP,6.22,7.67
2,8/23/21,14,C1,2,1,N,ALP+ALP,ALP,ALP,6.19,7.44
2,8/23/21,14,C2,1,1,N,fishless,,,6.2,7.44
2,8/23/21,14,C2,2,1,N,fishless,,,6.24,7.51
2,8/23/21,14,C3,1,2,Y,fishless,,,6.25,7.51
2,8/23/21,14,C3,2,2,Y,fishless,,,6.2,7.41
2,8/23/21,14,C4,1,2,Y,LoL+LoL,LoL,LoL,6.19,7.57
2,8/23/21,14,C4,2,2,Y,LoL+LoL,LoL,LoL,6.18,7.47
2,8/23/21,14,C5,1,3,N,AHP+AHP,AHP,AHP,6.23,7.38
2,8/23/21,14,C5,2,3,N,AHP+AHP,AHP,AHP,6.17,7.51
2,8/23/21,14,C6,1,3,N,ALP+AHP,ALP,AHP,6.19,7.18
2,8/23/21,14,C6,2,3,N,ALP+AHP,ALP,AHP,6.2,7.53
2,8/23/21,14,C7,1,4,N,ALP+ALP,ALP,ALP,6.19,7.31
2,8/23/21,14,C7,2,4,N,ALP+ALP,ALP,ALP,6.22,7.47
2,8/23/21,14,C8,1,4,N,fishless,NA,NA,6.19,7.15
2,8/23/21,14,C8,2,4,N,fishless,NA,NA,6.18,7.31
2,8/23/21,14,D1,1,1,N,AHP+AHP,AHP,AHP,6.19,7.57
2,8/23/21,14,D1,2,1,N,AHP+AHP,AHP,AHP,6.18,7.45
2,8/23/21,14,D2,1,1,N,ALP+AHP,ALP,AHP,6.16,7.55
2,8/23/21,14,D2,2,1,N,ALP+AHP,ALP,AHP,6.18,7.41
2,8/23/21,14,D3,1,2,Y,GHP+GHP,GHP,GHP,6.22,7.59
2,8/23/21,14,D3,2,2,Y,GHP+GHP,GHP,GHP,6.21,7.35
2,8/23/21,14,D4,1,2,Y,LoL+LoL,LoL,LoL,6.2,7.44
2,8/23/21,14,D4,2,2,Y,LoL+LoL,LoL,LoL,6.24,7.59
2,8/23/21,14,D5,1,3,N,AHP+ALP,AHP,ALP,6.24,7.62
2,8/23/21,14,D5,2,3,N,AHP+ALP,AHP,ALP,6.18,7.81
2,8/23/21,14,D6,1,3,N,ALP+ALP,ALP,ALP,6.21,7.68
2,8/23/21,14,D6,2,3,N,ALP+ALP,ALP,ALP,6.17,7.51
2,8/23/21,14,D7,1,4,N,ALP+AHP,ALP,AHP,6.16,7.28
2,8/23/21,14,D7,2,4,N,ALP+AHP,ALP,AHP,6.19,7.31
2,8/23/21,14,D8,1,4,N,AHP+ALP,AHP,ALP,6.22,7.4
2,8/23/21,14,D8,2,4,N,AHP+ALP,AHP,ALP,6.17,7.42
1,6/14/21,0,NA,HL,,,,,,6.29,8.04
1,6/14/21,0,NA,HL,,,,,,6.35,7.98
1,6/14/21,0,NA,HL,,,,,,6.43,8.16
1,6/14/21,0,NA,HL,,,,,,6.4,7.97
1,6/14/21,0,NA,HL,,,,,,6.29,8.06
1,6/14/21,0,NA,HL,,,,,,6.29,8.07
1,6/14/21,0,NA,HL,,,,,,6.34,7.99
1,6/14/21,0,NA,HL,,,,,,6.42,8.01
1,6/14/21,0,NA,HL,,,,,,6.3,8.08
1,6/18/21,3,A1,1,1,N,GHP+GHP,GHP,GHP,6.19,7.7
1,6/18/21,3,A1,2,1,N,GHP+GHP,GHP,GHP,6.27,7.76
1,6/18/21,3,A2,1,1,N,GHP+LoL,GHP,LoL,6.4,8.02
1,6/18/21,3,A2,2,1,N,GHP+LoL,GHP,LoL,6.23,7.87
1,6/18/21,3,A3,1,2,N,LoL+LoL,LoL,LoL,6.32,7.79
1,6/18/21,3,A3,2,2,N,LoL+LoL,LoL,LoL,6.37,7.86
1,6/18/21,3,A4,1,2,N,LoL+GHP,LoL,GHP,6.2,7.79
1,6/18/21,3,A4,2,2,N,LoL+GHP,LoL,GHP,6.38,7.74
1,6/18/21,3,A5,1,3,Y,GHP+GHP,GHP,GHP,6.17,7.81
1,6/18/21,3,A5,2,3,Y,GHP+GHP,GHP,GHP,6.21,8.08
1,6/18/21,3,A6,1,3,Y,GHP+GHP,GHP,GHP,6.26,7.79
1,6/18/21,3,A6,2,3,Y,GHP+GHP,GHP,GHP,6.2,7.95
1,6/18/21,3,A7,1,4,N,fishless,,,6.26,7.9
1,6/18/21,3,A7,2,4,N,fishless,,,6.25,7.88
1,6/18/21,3,A8,1,4,N,fishless,,,6.34,7.92
1,6/18/21,3,A8,2,4,N,fishless,,,6.3,7.93
1,6/18/21,3,B1,1,1,N,GHP+LoL,GHP,LoL,6.26,7.91
1,6/18/21,3,B1,2,1,N,GHP+LoL,GHP,LoL,6.22,7.76
1,6/18/21,3,B2,1,1,N,LoL+GHP,LoL,GHP,6.24,7.75
1,6/18/21,3,B2,2,1,N,LoL+GHP,LoL,GHP,6.27,7.81
1,6/18/21,3,B3,1,2,N,GHP+LoL,GHP,LoL,6.33,7.82
1,6/18/21,3,B3,2,2,N,GHP+LoL,GHP,LoL,6.26,8.13
1,6/18/21,3,B4,1,2,N,LoL+GHP,LoL,GHP,6.3,8.03
1,6/18/21,3,B4,2,2,N,LoL+GHP,LoL,GHP,6.24,7.9
1,6/18/21,3,B5,1,3,Y,GHP+GHP,GHP,GHP,6.22,7.94
1,6/18/21,3,B5,2,3,Y,GHP+GHP,GHP,GHP,6.2,7.72
1,6/18/21,3,B6,1,3,Y,fishless,,,6.29,7.8
1,6/18/21,3,B6,2,3,Y,fishless,,,6.42,7.87
1,6/18/21,3,B7,1,4,N,LoL+LoL,LoL,LoL,6.21,8.08
1,6/18/21,3,B7,2,4,N,LoL+LoL,LoL,LoL,6.21,7.8
1,6/18/21,3,B8,1,4,N,GHP+GHP,GHP,GHP,6.21,7.81
1,6/18/21,3,B8,2,4,N,GHP+GHP,GHP,GHP,6.29,7.76
1,6/18/21,3,C1,1,1,N,LoL+GHP,LoL,GHP,6.21,7.84
1,6/18/21,3,C1,2,1,N,LoL+GHP,LoL,GHP,6.22,7.94
1,6/18/21,3,C2,1,1,N,LoL+LoL,LoL,LoL,6.3,8.57
1,6/18/21,3,C2,2,1,N,LoL+LoL,LoL,LoL,6.3,7.92
1,6/18/21,3,C3,1,2,N,GHP+GHP,GHP,GHP,6.19,8.24
1,6/18/21,3,C3,2,2,N,GHP+GHP,GHP,GHP,6.26,7.75
1,6/18/21,3,C4,1,2,N,fishless,,,6.19,7.86
1,6/18/21,3,C4,2,2,N,fishless,,,6.19,7.82
1,6/18/21,3,C5,1,3,Y,LoL+LoL,LoL,LoL,6.17,7.83
1,6/18/21,3,C5,2,3,Y,LoL+LoL,LoL,LoL,6.32,7.8
1,6/18/21,3,C6,1,3,Y,LoL+LoL,LoL,LoL,6.25,7.96
1,6/18/21,3,C6,2,3,Y,LoL+LoL,LoL,LoL,6.36,7.78
1,6/18/21,3,C7,1,4,N,GHP+GHP,GHP,GHP,6.44,7.87
1,6/18/21,3,C7,2,4,N,GHP+GHP,GHP,GHP,6.18,8
1,6/18/21,3,C8,1,4,N,LoL+LoL,LoL,LoL,6.23,7.98
1,6/18/21,3,C8,2,4,N,LoL+LoL,LoL,LoL,6.2,7.89
1,6/18/21,3,D1,1,1,N,fishless,,,6.19,7.7
1,6/18/21,3,D1,2,1,N,fishless,,,6.16,7.68
1,6/18/21,3,D2,1,1,N,GHP+GHP,GHP,GHP,6.25,7.98
1,6/18/21,3,D2,2,1,N,GHP+GHP,GHP,GHP,6.28,7.77
1,6/18/21,3,D3,1,2,N,LoL+LoL,LoL,LoL,6.28,7.95
1,6/18/21,3,D3,2,2,N,LoL+LoL,LoL,LoL,6.25,7.64
1,6/18/21,3,D4,1,2,N,GHP+LoL,GHP,LoL,6.3,7.89
1,6/18/21,3,D4,2,2,N,GHP+LoL,GHP,LoL,6.18,7.78
1,6/18/21,3,D5,1,3,Y,LoL+LoL,LoL,LoL,6.33,7.88
1,6/18/21,3,D5,2,3,Y,LoL+LoL,LoL,LoL,6.38,7.83
1,6/18/21,3,D6,1,3,Y,fishless,,,6.25,7.86
1,6/18/21,3,D6,2,3,Y,fishless,,,6.21,7.76
1,6/18/21,3,D7,1,4,N,LoL+GHP,LoL,GHP,6.18,7.81
1,6/18/21,3,D7,2,4,N,LoL+GHP,LoL,GHP,6.17,7.85
1,6/18/21,3,D8,1,4,N,GHP+LoL,GHP,LoL,6.24,7.87
1,6/18/21,3,D8,2,4,N,GHP+LoL,GHP,LoL,6.24,7.91
1,6/22/21,7,A1,1,1,N,GHP+GHP,GHP,GHP,6.26,8.06
1,6/22/21,7,A1,2,1,N,GHP+GHP,GHP,GHP,6.3,7.84
1,6/22/21,7,A2,1,1,N,GHP+LoL,GHP,LoL,6.24,7.8
1,6/22/21,7,A2,2,1,N,GHP+LoL,GHP,LoL,6.23,7.65
1,6/22/21,7,A3,1,2,N,LoL+LoL,LoL,LoL,6.24,7.71
1,6/22/21,7,A3,2,2,N,LoL+LoL,LoL,LoL,6.26,7.92
1,6/22/21,7,A4,1,2,N,LoL+GHP,LoL,GHP,6.21,7.65
1,6/22/21,7,A4,2,2,N,LoL+GHP,LoL,GHP,6.3,8.05
1,6/22/21,7,A5,1,3,Y,GHP+GHP,GHP,GHP,6.26,8.07
1,6/22/21,7,A5,2,3,Y,GHP+GHP,GHP,GHP,6.35,7.88
1,6/22/21,7,A6,1,3,Y,GHP+GHP,GHP,GHP,6.24,7.71
1,6/22/21,7,A6,2,3,Y,GHP+GHP,GHP,GHP,6.3,7.78
1,6/22/21,7,A7,1,4,N,fishless,,,6.25,7.98
1,6/22/21,7,A7,2,4,N,fishless,,,6.23,7.91
1,6/22/21,7,A8,1,4,N,fishless,,,6.17,7.58
1,6/22/21,7,A8,2,4,N,fishless,,,6.22,7.8
1,6/22/21,7,B1,1,1,N,GHP+LoL,GHP,LoL,6.3,7.89
1,6/22/21,7,B1,2,1,N,GHP+LoL,GHP,LoL,6.25,8.12
1,6/22/21,7,B2,1,1,N,LoL+GHP,LoL,GHP,6.22,7.75
1,6/22/21,7,B2,2,1,N,LoL+GHP,LoL,GHP,6.23,7.78
1,6/22/21,7,B3,1,2,N,GHP+LoL,GHP,LoL,6.24,7.61
1,6/22/21,7,B3,2,2,N,GHP+LoL,GHP,LoL,6.16,7.56
1,6/22/21,7,B4,1,2,N,LoL+GHP,LoL,GHP,6.17,7.64
1,6/22/21,7,B4,2,2,N,LoL+GHP,LoL,GHP,6.2,7.58
1,6/22/21,7,B5,1,3,Y,GHP+GHP,GHP,GHP,6.3,7.65
1,6/22/21,7,B5,2,3,Y,GHP+GHP,GHP,GHP,6.23,7.77
1,6/22/21,7,B6,1,3,Y,fishless,,,6.48,7.76
1,6/22/21,7,B6,2,3,Y,fishless,,,6.25,7.83
1,6/22/21,7,B7,1,4,N,LoL+LoL,LoL,LoL,6.12,7.89
1,6/22/21,7,B7,2,4,N,LoL+LoL,LoL,LoL,6.18,7.86
1,6/22/21,7,B8,1,4,N,GHP+GHP,GHP,GHP,6.21,7.86
1,6/22/21,7,B8,2,4,N,GHP+GHP,GHP,GHP,6.27,7.87
1,6/22/21,7,C1,1,1,N,LoL+GHP,LoL,GHP,6.25,7.75
1,6/22/21,7,C1,2,1,N,LoL+GHP,LoL,GHP,6.3,7.67
1,6/22/21,7,C2,1,1,N,LoL+LoL,LoL,LoL,6.23,7.95
1,6/22/21,7,C2,2,1,N,LoL+LoL,LoL,LoL,6.25,7.81
1,6/22/21,7,C3,1,2,N,GHP+GHP,GHP,GHP,6.3,7.72
1,6/22/21,7,C3,2,2,N,GHP+GHP,GHP,GHP,6.28,7.78
1,6/22/21,7,C4,1,2,N,fishless,,,6.17,7.9
1,6/22/21,7,C4,2,2,N,fishless,,,6.18,7.81
1,6/22/21,7,C5,1,3,Y,LoL+LoL,LoL,LoL,6.22,7.73
1,6/22/21,7,C5,2,3,Y,LoL+LoL,LoL,LoL,6.27,7.83
1,6/22/21,7,C6,1,3,Y,LoL+LoL,LoL,LoL,6.26,7.64
1,6/22/21,7,C6,2,3,Y,LoL+LoL,LoL,LoL,6.24,7.7
1,6/22/21,7,C7,1,4,N,GHP+GHP,GHP,GHP,6.33,7.85
1,6/22/21,7,C7,2,4,N,GHP+GHP,GHP,GHP,6.26,8.12
1,6/22/21,7,C8,1,4,N,LoL+LoL,LoL,LoL,6.36,7.9
1,6/22/21,7,C8,2,4,N,LoL+LoL,LoL,LoL,6.26,7.88
1,6/22/21,7,D1,1,1,N,fishless,,,6.26,7.92
1,6/22/21,7,D1,2,1,N,fishless,,,6.33,7.87
1,6/22/21,7,D2,1,1,N,GHP+GHP,GHP,GHP,6.26,7.94
1,6/22/21,7,D2,2,1,N,GHP+GHP,GHP,GHP,6.25,7.9
1,6/22/21,7,D3,1,2,N,LoL+LoL,LoL,LoL,6.26,7.78
1,6/22/21,7,D3,2,2,N,LoL+LoL,LoL,LoL,6.28,7.82
1,6/22/21,7,D4,1,2,N,GHP+LoL,GHP,LoL,6.23,7.7
1,6/22/21,7,D4,2,2,N,GHP+LoL,GHP,LoL,6.26,7.72
1,6/22/21,7,D5,1,3,Y,LoL+LoL,LoL,LoL,6.24,7.79
1,6/22/21,7,D5,2,3,Y,LoL+LoL,LoL,LoL,6.46,7.75
1,6/22/21,7,D6,1,3,Y,fishless,,,6.21,7.88
1,6/22/21,7,D6,2,3,Y,fishless,,,6.24,8.08
1,6/22/21,7,D7,1,4,N,LoL+GHP,LoL,GHP,6.23,7.93
1,6/22/21,7,D7,2,4,N,LoL+GHP,LoL,GHP,6.24,8.1
1,6/22/21,7,D8,1,4,N,GHP+LoL,GHP,LoL,6.2,7.95
1,6/22/21,7,D8,2,4,N,GHP+LoL,GHP,LoL,6.29,7.9
1,6/29/21,14,A1,1,1,N,GHP+GHP,GHP,GHP,6.18,7.41
1,6/29/21,14,A1,2,1,N,GHP+GHP,GHP,GHP,6.3,7.61
1,6/29/21,14,A2,1,1,N,GHP+LoL,GHP,LoL,6.25,7.59
1,6/29/21,14,A2,2,1,N,GHP+LoL,GHP,LoL,6.21,7.39
1,6/29/21,14,A3,1,2,N,LoL+LoL,LoL,LoL,6.26,7.65
1,6/29/21,14,A3,2,2,N,LoL+LoL,LoL,LoL,6.35,7.79
1,6/29/21,14,A4,1,2,N,LoL+GHP,LoL,GHP,6.36,7.55
1,6/29/21,14,A4,2,2,N,LoL+GHP,LoL,GHP,6.21,7.79
1,6/29/21,14,A5,1,3,Y,GHP+GHP,GHP,GHP,6.32,7.59
1,6/29/21,14,A5,2,3,Y,GHP+GHP,GHP,GHP,6.25,7.6
1,6/29/21,14,A6,1,3,Y,GHP+GHP,GHP,GHP,6.33,7.55
1,6/29/21,14,A6,2,3,Y,GHP+GHP,GHP,GHP,6.25,7.67
1,6/29/21,14,A7,1,4,N,fishless,,,6.2,7.71
1,6/29/21,14,A7,2,4,N,fishless,,,6.28,7.55
1,6/29/21,14,A8,1,4,N,fishless,,,6.26,7.59
1,6/29/21,14,A8,2,4,N,fishless,,,6.17,7.6
1,6/29/21,14,B1,1,1,N,GHP+LoL,GHP,LoL,6.23,7.66
1,6/29/21,14,B1,2,1,N,GHP+LoL,GHP,LoL,6.17,7.45
1,6/29/21,14,B2,1,1,N,LoL+GHP,LoL,GHP,6.27,7.31
1,6/29/21,14,B2,2,1,N,LoL+GHP,LoL,GHP,6.22,7.55
1,6/29/21,14,B3,1,2,N,GHP+LoL,GHP,LoL,6.16,7.51
1,6/29/21,14,B3,2,2,N,GHP+LoL,GHP,LoL,6.26,7.44
1,6/29/21,14,B4,1,2,N,LoL+GHP,LoL,GHP,6.25,7.8
1,6/29/21,14,B4,2,2,N,LoL+GHP,LoL,GHP,6.17,7.41
1,6/29/21,14,B5,1,3,Y,GHP+GHP,GHP,GHP,6.2,7.59
1,6/29/21,14,B5,2,3,Y,GHP+GHP,GHP,GHP,6.28,7.42
1,6/29/21,14,B6,1,3,Y,fishless,,,6.22,7.52
1,6/29/21,14,B6,2,3,Y,fishless,,,6.18,8.17
1,6/29/21,14,B7,1,4,N,LoL+LoL,LoL,LoL,6.2,7.81
1,6/29/21,14,B7,1,4,N,LoL+LoL,LoL,LoL,6.19,7.65
1,6/29/21,14,B8,1,4,N,GHP+GHP,GHP,GHP,6.28,7.62
1,6/29/21,14,B8,2,4,N,GHP+GHP,GHP,GHP,6.23,8.3
1,6/29/21,14,C1,1,1,N,LoL+GHP,LoL,GHP,6.23,7.37
1,6/29/21,14,C1,2,1,N,LoL+GHP,LoL,GHP,6.14,7.33
1,6/29/21,14,C2,1,1,N,LoL+LoL,LoL,LoL,6.21,7.69
1,6/29/21,14,C2,2,1,N,LoL+LoL,LoL,LoL,6.28,7.66
1,6/29/21,14,C3,1,2,N,GHP+GHP,GHP,GHP,6.29,7.39
1,6/29/21,14,C3,2,2,N,GHP+GHP,GHP,GHP,6.24,7.6
1,6/29/21,14,C4,1,2,N,fishless,,,6.2,8.11
1,6/29/21,14,C4,2,2,N,fishless,,,6.25,7.77
1,6/29/21,14,C5,1,3,Y,LoL+LoL,LoL,LoL,6.27,7.78
1,6/29/21,14,C5,2,3,Y,LoL+LoL,LoL,LoL,6.3,7.89
1,6/29/21,14,C6,1,3,Y,LoL+LoL,LoL,LoL,6.28,7.51
1,6/29/21,14,C6,2,3,Y,LoL+LoL,LoL,LoL,6.18,7.59
1,6/29/21,14,C7,1,4,N,GHP+GHP,GHP,GHP,6.16,7.49
1,6/29/21,14,C7,2,4,N,GHP+GHP,GHP,GHP,6.18,7.48
1,6/29/21,14,C8,1,4,N,LoL+LoL,LoL,LoL,6.27,7.61
1,6/29/21,14,C8,2,4,N,LoL+LoL,LoL,LoL,6.26,7.67
1,6/29/21,14,D1,1,1,N,fishless,,,6.23,8.14
1,6/29/21,14,D1,2,1,N,fishless,,,6.26,7.55
1,6/29/21,14,D2,1,1,N,GHP+GHP,GHP,GHP,6.3,7.53
1,6/29/21,14,D2,2,1,N,GHP+GHP,GHP,GHP,6.2,8.3
1,6/29/21,14,D3,1,2,N,LoL+LoL,LoL,LoL,6.38,7.46
1,6/29/21,14,D3,2,2,N,LoL+LoL,LoL,LoL,6.13,7.33
1,6/29/21,14,D4,1,2,N,GHP+LoL,GHP,LoL,6.26,7.75
1,6/29/21,14,D4,2,2,N,GHP+LoL,GHP,LoL,6.2,7.39
1,6/29/21,14,D5,1,3,Y,LoL+LoL,LoL,LoL,6.21,7.55
1,6/29/21,14,D5,2,3,Y,LoL+LoL,LoL,LoL,6.24,7.67
1,6/29/21,14,D6,1,3,Y,fishless,,,6.21,7.39
1,6/29/21,14,D6,2,3,Y,fishless,,,6.25,7.78
1,6/29/21,14,D7,1,4,N,LoL+GHP,LoL,GHP,6.22,7.63
1,6/29/21,14,D7,2,4,N,LoL+GHP,LoL,GHP,6.35,8.06
1,6/29/21,14,D8,1,4,N,GHP+LoL,GHP,LoL,6.24,7.66
1,6/29/21,14,D8,2,4,N,GHP+LoL,GHP,LoL,6.29,7.89
1,7/6/21,21,A1,1,1,N,GHP+GHP,GHP,GHP,6.38,7.04
1,7/6/21,21,A1,2,1,N,GHP+GHP,GHP,GHP,6.17,6.98
1,7/6/21,21,A2,1,1,N,GHP+LoL,GHP,LoL,6.29,6.96
1,7/6/21,21,A2,2,1,N,GHP+LoL,GHP,LoL,6.26,7.48
1,7/6/21,21,A3,2,2,N,LoL+LoL,LoL,LoL,6.19,6.84
1,7/6/21,21,A3,2,2,N,LoL+LoL,LoL,LoL,6.17,7.14
1,7/6/21,21,A4,1,2,N,LoL+GHP,LoL,GHP,6.2,7.56
1,7/6/21,21,A4,2,2,N,LoL+GHP,LoL,GHP,6.24,7.08
1,7/6/21,21,A5,1,3,Y,GHP+GHP,GHP,GHP,6.27,7.02
1,7/6/21,21,A5,2,3,Y,GHP+GHP,GHP,GHP,6.36,7.15
1,7/6/21,21,A6,1,3,Y,GHP+GHP,GHP,GHP,6.21,6.92
1,7/6/21,21,A6,2,3,Y,GHP+GHP,GHP,GHP,6.26,7.32
1,7/6/21,21,A7,1,4,N,fishless,,,6.23,7.35
1,7/6/21,21,A7,2,4,N,fishless,,,6.46,7.52
1,7/6/21,21,A8,1,4,N,fishless,,,6.26,7.2
1,7/6/21,21,A8,2,4,N,fishless,,,6.23,7.28
1,7/6/21,21,B1,1,1,N,GHP+LoL,GHP,LoL,6.17,7.21
1,7/6/21,21,B1,2,1,N,GHP+LoL,GHP,LoL,6.11,7.06
1,7/6/21,21,B2,1,1,N,LoL+GHP,LoL,GHP,6.18,6.89
1,7/6/21,21,B2,2,1,N,LoL+GHP,LoL,GHP,6.24,6.91
1,7/6/21,21,B3,1,2,N,GHP+LoL,GHP,LoL,6.15,7.05
1,7/6/21,21,B3,2,2,N,GHP+LoL,GHP,LoL,6.21,7.21
1,7/6/21,21,B4,1,2,N,LoL+GHP,LoL,GHP,6.2,7.12
1,7/6/21,21,B4,2,2,N,LoL+GHP,LoL,GHP,6.2,7.08
1,7/6/21,21,B5,1,3,Y,GHP+GHP,GHP,GHP,6.28,7.17
1,7/6/21,21,B5,2,3,Y,GHP+GHP,GHP,GHP,6.28,7.09
1,7/6/21,21,B6,1,3,Y,fishless,,,6.21,6.93
1,7/6/21,21,B6,2,3,Y,fishless,,,6.28,7.06
1,7/6/21,21,B7,1,4,N,LoL+LoL,LoL,LoL,6.19,7.52
1,7/6/21,21,B7,2,4,N,LoL+LoL,LoL,LoL,6.2,7.77
1,7/6/21,21,B8,1,4,N,GHP+GHP,GHP,GHP,6.23,7.37
1,7/6/21,21,B8,2,4,N,GHP+GHP,GHP,GHP,6.29,7.59
1,7/6/21,21,C1,1,1,N,LoL+GHP,LoL,GHP,6.22,7.25
1,7/6/21,21,C1,2,1,N,LoL+GHP,LoL,GHP,6.22,6.98
1,7/6/21,21,C2,1,1,N,LoL+LoL,LoL,LoL,6.28,6.82
1,7/6/21,21,C2,2,1,N,LoL+LoL,LoL,LoL,6.17,6.9
1,7/6/21,21,C3,1,2,N,GHP+GHP,GHP,GHP,6.23,7.07
1,7/6/21,21,C3,2,2,N,GHP+GHP,GHP,GHP,6.27,7.35
1,7/6/21,21,C4,1,2,N,fishless,,,6.28,7.57
1,7/6/21,21,C4,2,2,N,fishless,,,6.22,7.28
1,7/6/21,21,C5,1,3,Y,LoL+LoL,LoL,LoL,6.18,7.5
1,7/6/21,21,C5,2,3,Y,LoL+LoL,LoL,LoL,6.25,7.23
1,7/6/21,21,C6,1,3,Y,LoL+LoL,LoL,LoL,6.21,7.29
1,7/6/21,21,C6,2,3,Y,LoL+LoL,LoL,LoL,6.2,7.32
1,7/6/21,21,C7,1,4,N,GHP+GHP,GHP,GHP,6.14,7.51
1,7/6/21,21,C7,2,4,N,GHP+GHP,GHP,GHP,6.26,7.8
1,7/6/21,21,C8,1,4,N,LoL+LoL,LoL,LoL,6.26,7.13
1,7/6/21,21,C8,2,4,N,LoL+LoL,LoL,LoL,6.23,7.27
1,7/6/21,21,D1,1,1,N,fishless,,,6.24,7.11
1,7/6/21,21,D1,2,1,N,fishless,,,6.27,6.98
1,7/6/21,21,D2,1,1,N,GHP+GHP,GHP,GHP,6.23,7.26
1,7/6/21,21,D2,2,1,N,GHP+GHP,GHP,GHP,6.18,7.06
1,7/6/21,21,D3,1,2,N,LoL+LoL,LoL,LoL,6.23,7.05
1,7/6/21,21,D3,2,2,N,LoL+LoL,LoL,LoL,6.33,7.23
1,7/6/21,21,D4,1,2,N,GHP+LoL,GHP,LoL,6.2,7.24
1,7/6/21,21,D4,2,2,N,GHP+LoL,GHP,LoL,6.23,7.18
1,7/6/21,21,D5,1,3,Y,LoL+LoL,LoL,LoL,6.28,7.23
1,7/6/21,21,D5,2,3,Y,LoL+LoL,LoL,LoL,6.18,7.2
1,7/6/21,21,D6,1,3,Y,fishless,,,6.28,7.32
1,7/6/21,21,D6,2,3,Y,fishless,,,6.32,7.14
1,7/6/21,21,D7,1,4,N,LoL+GHP,LoL,GHP,6.2,7.16
1,7/6/21,21,D7,2,4,N,LoL+GHP,LoL,GHP,6.22,7.1
1,7/6/21,21,D8,1,4,N,GHP+LoL,GHP,LoL,6.22,7.46
1,7/6/21,21,D8,2,4,N,GHP+LoL,GHP,LoL,6.23,7.42
1,7/13/21,28,A1,1,1,N,GHP+GHP,GHP,GHP,6.24,6.99
1,7/13/21,28,A1,2,1,N,GHP+GHP,GHP,GHP,6.26,6.87
1,7/13/21,28,A2,1,1,N,GHP+LoL,GHP,LoL,6.28,6.83
1,7/13/21,28,A2,2,1,N,GHP+LoL,GHP,LoL,6.28,6.73
1,7/13/21,28,A3,1,2,N,LoL+LoL,LoL,LoL,6.23,6.95
1,7/13/21,28,A3,2,2,N,LoL+LoL,LoL,LoL,6.2,6.86
1,7/13/21,28,A4,1,2,N,LoL+GHP,LoL,GHP,6.43,7
1,7/13/21,28,A4,2,2,N,LoL+GHP,LoL,GHP,6.18,7.47
1,7/13/21,28,A5,1,3,Y,GHP+GHP,GHP,GHP,6.4,6.91
1,7/13/21,28,A5,2,3,Y,GHP+GHP,GHP,GHP,6.35,6.92
1,7/13/21,28,A6,1,3,Y,GHP+GHP,GHP,GHP,6.41,6.98
1,7/13/21,28,A6,2,3,Y,GHP+GHP,GHP,GHP,6.22,6.8
1,7/13/21,28,A7,1,4,N,fishless,,,6.45,7.35
1,7/13/21,28,A7,2,4,N,fishless,,,6.57,7.24
1,7/13/21,28,A8,1,4,N,fishless,,,6.3,7.03
1,7/13/21,28,A8,2,4,N,fishless,,,6.28,7.06
1,7/13/21,28,B1,1,1,N,GHP+LoL,GHP,LoL,6.23,6.9
1,7/13/21,28,B1,2,1,N,GHP+LoL,GHP,LoL,6.24,7.03
1,7/13/21,28,B2,1,1,N,LoL+GHP,LoL,GHP,6.25,6.77
1,7/13/21,28,B2,2,1,N,LoL+GHP,LoL,GHP,6.36,6.84
1,7/13/21,28,B3,1,2,N,GHP+LoL,GHP,LoL,6.49,6.99
1,7/13/21,28,B3,2,2,N,GHP+LoL,GHP,LoL,6.44,6.91
1,7/13/21,28,B4,1,2,N,LoL+GHP,LoL,GHP,6.4,6.75
1,7/13/21,28,B4,2,2,N,LoL+GHP,LoL,GHP,6.18,6.89
1,7/13/21,28,B5,1,3,Y,GHP+GHP,GHP,GHP,6.34,6.69
1,7/13/21,28,B5,2,3,Y,GHP+GHP,GHP,GHP,6.35,7.02
1,7/13/21,28,B6,1,3,Y,fishless,,,6.43,6.92
1,7/13/21,28,B6,2,3,Y,fishless,,,6.41,7.27
1,7/13/21,28,B7,1,4,N,LoL+LoL,LoL,LoL,6.19,6.89
1,7/13/21,28,B7,2,4,N,LoL+LoL,LoL,LoL,6.2,6.84
1,7/13/21,28,B8,1,4,N,GHP+GHP,GHP,GHP,6.25,7.18
1,7/13/21,28,B8,2,4,N,GHP+GHP,GHP,GHP,6.34,7
1,7/13/21,28,C1,1,1,N,LoL+GHP,LoL,GHP,6.52,7.96
1,7/13/21,28,C1,2,1,N,LoL+GHP,LoL,GHP,6.51,7.07
1,7/13/21,28,C2,1,1,N,LoL+LoL,LoL,LoL,6.4,6.91
1,7/13/21,28,C2,2,1,N,LoL+LoL,LoL,LoL,6.32,6.88
1,7/13/21,28,C3,1,2,N,GHP+GHP,GHP,GHP,6.33,6.81
1,7/13/21,28,C3,2,2,N,GHP+GHP,GHP,GHP,6.37,6.65
1,7/13/21,28,C4,1,2,N,fishless,,,6.32,7.16
1,7/13/21,28,C4,2,2,N,fishless,,,6.28,7.3
1,7/13/21,28,C5,1,3,Y,LoL+LoL,LoL,LoL,6.32,6.73
1,7/13/21,28,C5,2,3,Y,LoL+LoL,LoL,LoL,6.33,7.05
1,7/13/21,28,C6,1,3,Y,LoL+LoL,LoL,LoL,6.44,7.18
1,7/13/21,28,C6,2,3,Y,LoL+LoL,LoL,LoL,6.4,7.05
1,7/13/21,28,C7,1,4,N,GHP+GHP,GHP,GHP,6.21,6.88
1,7/13/21,28,C7,2,4,N,GHP+GHP,GHP,GHP,6.22,6.89
1,7/13/21,28,C8,1,4,N,LoL+LoL,LoL,LoL,6.3,6.94
1,7/13/21,28,C8,2,4,N,LoL+LoL,LoL,LoL,6.25,7.06
1,7/13/21,28,D1,1,1,N,fishless,,,6.43,6.9
1,7/13/21,28,D1,2,1,N,fishless,,,6.27,6.94
1,7/13/21,28,D2,1,1,N,GHP+GHP,GHP,GHP,6.42,6.9
1,7/13/21,28,D2,2,1,N,GHP+GHP,GHP,GHP,6.45,6.87
1,7/13/21,28,D3,1,2,N,LoL+LoL,LoL,LoL,6.31,6.84
1,7/13/21,28,D3,2,2,N,LoL+LoL,LoL,LoL,6.31,6.79
1,7/13/21,28,D4,1,2,N,GHP+LoL,GHP,LoL,6.22,6.87
1,7/13/21,28,D4,2,2,N,GHP+LoL,GHP,LoL,6.47,6.98
1,7/13/21,28,D5,1,3,Y,LoL+LoL,LoL,LoL,6.47,6.89
1,7/13/21,28,D5,2,3,Y,LoL+LoL,LoL,LoL,6.41,6.79
1,7/13/21,28,D6,1,3,Y,fishless,,,6.46,6.71
1,7/13/21,28,D6,2,3,Y,fishless,,,6.4,6.91
1,7/13/21,28,D7,1,4,N,LoL+GHP,LoL,GHP,6.18,7.15
1,7/13/21,28,D7,2,4,N,LoL+GHP,LoL,GHP,6.61,6.93
1,7/13/21,28,D8,1,4,N,GHP+LoL,GHP,LoL,6.35,6.94
1,7/13/21,28,D8,2,4,N,GHP+LoL,GHP,LoL,6.29,7.05