Round,Day,Mesocosm,Block,Cichlid,Treatment,Males,Females
2,3,A1,1,N,fishless,,
2,3,A2,1,N,ALP+ALP,ALP,ALP
2,3,A3,2,Y,GHP+GHP,GHP,GHP
2,3,A4,2,Y,fishless,,
2,3,A5,3,N,ALP+AHP,ALP,AHP
2,3,A6,3,N,ALP+ALP,ALP,ALP
2,3,A7,4,N,AHP+ALP,AHP,ALP
2,3,A8,4,N,AHP+AHP,AHP,AHP
2,3,B1,1,N,AHP+ALP,AHP,ALP
2,3,B2,1,N,AHP+AHP,AHP,AHP
2,3,B3,2,Y,LoL+LoL,LoL,LoL
2,3,B4,2,Y,GHP+GHP,GHP,GHP
2,3,B5,3,N,fishless,,
2,3,B6,3,N,AHP+ALP,AHP,ALP
2,3,B7,4,N,AHP+AHP,AHP,AHP
2,3,B8,4,N,ALP+AHP,ALP,AHP
2,3,C1,1,N,ALP+ALP,ALP,ALP
2,3,C2,1,N,fishless,,
2,3,C3,2,Y,fishless,,
2,3,C4,2,Y,LoL+LoL,LoL,LoL
2,3,C5,3,N,AHP+AHP,AHP,AHP
2,3,C6,3,N,ALP+AHP,ALP,AHP
2,3,C7,4,N,ALP+ALP,ALP,ALP
2,3,C8,4,N,fishless,,
2,3,D1,1,N,AHP+AHP,AHP,AHP
2,3,D2,1,N,ALP+AHP,ALP,AHP
2,3,D3,2,Y,GHP+GHP,GHP,GHP
2,3,D4,2,Y,LoL+LoL,LoL,LoL
2,3,D5,3,N,AHP+ALP,AHP,ALP
2,3,D6,3,N,ALP+ALP,ALP,ALP
2,3,D7,4,N,ALP+AHP,ALP,AHP
2,3,D8,4,N,AHP+ALP,AHP,ALP
1,3,A1,1,N,GHP+GHP,GHP,GHP
1,3,A2,1,N,GHP+LoL,GHP,LoL
1,3,A3,2,N,LoL+LoL,LoL,LoL
1,3,A4,2,N,LoL+GHP,LoL,GHP
1,3,A5,3,Y,GHP+GHP,GHP,GHP
1,3,A6,3,Y,GHP+GHP,GHP,GHP
1,3,A7,4,N,fishless,,
1,3,A8,4,N,fishless,,
1,3,B1,1,N,GHP+LoL,GHP,LoL
1,3,B2,1,N,LoL+GHP,LoL,GHP
1,3,B3,2,N,GHP+LoL,GHP,LoL
1,3,B4,2,N,LoL+GHP,LoL,GHP
1,3,B5,3,Y,GHP+GHP,GHP,GHP
1,3,B6,3,Y,fishless,,
1,3,B7,4,N,LoL+LoL,LoL,LoL
1,3,B8,4,N,GHP+GHP,GHP,GHP
1,3,C1,1,N,LoL+GHP,LoL,GHP
1,3,C2,1,N,LoL+LoL,LoL,LoL
1,3,C3,2,N,GHP+GHP,GHP,GHP
1,3,C4,2,N,fishless,,
1,3,C5,3,Y,LoL+LoL,LoL,LoL
1,3,C6,3,Y,LoL+LoL,LoL,LoL
1,3,C7,4,N,GHP+GHP,GHP,GHP
1,3,C8,4,N,LoL+LoL,LoL,LoL
1,3,D1,1,N,fishless,,
1,3,D2,1,N,GHP+GHP,GHP,GHP
1,3,D3,2,N,LoL+LoL,LoL,LoL
1,3,D4,2,N,GHP+LoL,GHP,LoL
1,3,D5,3,Y,LoL+LoL,LoL,LoL
1,3,D6,3,Y,fishless,,
1,3,D7,4,N,LoL+GHP,LoL,GHP
1,3,D8,4,N,GHP+LoL,GHP,LoL