%!PS-Adobe-3.0 EPSF-3.0
%%DocumentNeededResources: font Helvetica
%%+ font Helvetica-Bold
%%+ font Helvetica-Oblique
%%+ font Helvetica-BoldOblique
%%+ font Symbol
%%Title: R Graphics Output
%%Creator: R Software
%%Pages: (atend)
%%BoundingBox: 0 0 792 274
%%EndComments
%%BeginProlog
/bp  { gs sRGB gs } def
% begin .ps.prolog
/gs  { gsave } bind def
/gr  { grestore } bind def
/ep  { showpage gr gr } bind def
/m   { moveto } bind def
/l  { rlineto } bind def
/np  { newpath } bind def
/cp  { closepath } bind def
/f   { fill } bind def
/o   { stroke } bind def
/c   { newpath 0 360 arc } bind def
/r   { 4 2 roll moveto 1 copy 3 -1 roll exch 0 exch rlineto 0 rlineto -1 mul 0 exch rlineto closepath } bind def
/p1  { stroke } bind def
/p2  { gsave bg fill grestore newpath } bind def
/p3  { gsave bg fill grestore stroke } bind def
/p6  { gsave bg eofill grestore newpath } bind def
/p7  { gsave bg eofill grestore stroke } bind def
/t   { 5 -2 roll moveto gsave rotate
       1 index stringwidth pop
       mul neg 0 rmoveto show grestore } bind def
/ta  { 4 -2 roll moveto gsave rotate show } bind def
/tb  { 2 -1 roll 0 rmoveto show } bind def
/cl  { grestore gsave newpath 3 index 3 index moveto 1 index
       4 -1 roll lineto  exch 1 index lineto lineto
       closepath clip newpath } bind def
/rgb { setrgbcolor } bind def
/s   { scalefont setfont } bind def
% end   .ps.prolog
/sRGB { [ /CIEBasedABC
          << /DecodeLMN
               [ { dup 0.03928 le
                        {12.92321 div}
                        {0.055 add 1.055 div 2.4 exp }
                     ifelse
                 } bind dup dup
               ]
             /MatrixLMN [0.412457 0.212673 0.019334
                         0.357576 0.715152 0.119192
                         0.180437 0.072175 0.950301]
             /WhitePoint [0.9505 1.0 1.0890]
           >>
         ] setcolorspace } bind def
/srgb { setcolor } bind def
%%IncludeResource: font Helvetica
/Helvetica findfont
dup length dict begin
  {1 index /FID ne {def} {pop pop} ifelse} forall
  /Encoding ISOLatin1Encoding def
  currentdict
  end
/Font1 exch definefont pop
%%IncludeResource: font Helvetica-Bold
/Helvetica-Bold findfont
dup length dict begin
  {1 index /FID ne {def} {pop pop} ifelse} forall
  /Encoding ISOLatin1Encoding def
  currentdict
  end
/Font2 exch definefont pop
%%IncludeResource: font Helvetica-Oblique
/Helvetica-Oblique findfont
dup length dict begin
  {1 index /FID ne {def} {pop pop} ifelse} forall
  /Encoding ISOLatin1Encoding def
  currentdict
  end
/Font3 exch definefont pop
%%IncludeResource: font Helvetica-BoldOblique
/Helvetica-BoldOblique findfont
dup length dict begin
  {1 index /FID ne {def} {pop pop} ifelse} forall
  /Encoding ISOLatin1Encoding def
  currentdict
  end
/Font4 exch definefont pop
%%IncludeResource: font Symbol
/Symbol findfont
dup length dict begin
  {1 index /FID ne {def} {pop pop} ifelse} forall
  currentdict
  end
/Font5 exch definefont pop
%%EndProlog
%%Page: 1 1
bp
/bg { 1 1 1 srgb } def
0.00 0.00 792.00 273.60 r p2
0.00 0.00 792.00 273.60 cl
0.00 0.00 792.00 273.60 cl
0.00 0.00 792.00 273.60 cl
0.00 0.00 792.00 273.60 cl
0.00 0.00 792.00 273.60 cl
0.00 0.00 792.00 273.60 cl
0.00 0.00 792.00 273.60 cl
0.00 0.00 792.00 273.60 cl
0.00 0.00 792.00 273.60 cl
0.00 266.13 28.87 273.60 cl
0.00 0.00 792.00 273.60 cl
264.00 266.13 292.87 273.60 cl
0.00 0.00 792.00 273.60 cl
528.00 266.13 556.87 273.60 cl
0.00 0.00 792.00 273.60 cl
0.00 43.00 28.87 266.13 cl
0.00 43.00 28.87 266.13 cl
0.00 43.00 28.87 266.13 cl
0.00 0.00 792.00 273.60 cl
0.00 0.00 792.00 273.60 cl
0.00 0.00 792.00 273.60 cl
0.00 0.00 792.00 273.60 cl
0.2000 0.2000 0.2000 srgb
1.45 setlinewidth
[] 0 setdash
0 setlinecap
1 setlinejoin
10.00 setmiterlimit
np
25.13 53.14 m
3.74 0 l
o
np
25.13 103.85 m
3.74 0 l
o
np
25.13 154.56 m
3.74 0 l
o
np
25.13 205.28 m
3.74 0 l
o
np
25.13 255.99 m
3.74 0 l
o
0.00 0.00 792.00 273.60 cl
0.00 0.00 792.00 273.60 cl
0.00 0.00 792.00 273.60 cl
0.00 43.00 28.87 266.13 cl
0.00 0.00 792.00 273.60 cl
/Font1 findfont 15 s
0 0 0 srgb
18.24 89.53 (Propor) 90 ta
0.600 (tion of sneak) tb gr
0.00 0.00 792.00 273.60 cl
0.00 43.00 28.87 266.13 cl
0.00 43.00 -0.00 266.13 cl
0.00 43.00 28.87 266.13 cl
0.00 43.00 28.87 266.13 cl
0.00 0.00 792.00 273.60 cl
264.00 43.00 292.87 266.13 cl
264.00 43.00 292.87 266.13 cl
264.00 43.00 292.87 266.13 cl
0.00 0.00 792.00 273.60 cl
0.00 0.00 792.00 273.60 cl
0.00 0.00 792.00 273.60 cl
0.00 0.00 792.00 273.60 cl
0.00 0.00 792.00 273.60 cl
0.00 0.00 792.00 273.60 cl
0.00 0.00 792.00 273.60 cl
264.00 43.00 292.87 266.13 cl
0.00 0.00 792.00 273.60 cl
/Font1 findfont 15 s
0 0 0 srgb
282.24 99.96 (F) 90 ta
-0.450 (or) tb
-0.150 (aging activity) tb gr
0.00 0.00 792.00 273.60 cl
264.00 43.00 292.87 266.13 cl
264.00 43.00 264.00 266.13 cl
264.00 43.00 292.87 266.13 cl
264.00 43.00 292.87 266.13 cl
0.00 0.00 792.00 273.60 cl
528.00 43.00 556.87 266.13 cl
528.00 43.00 556.87 266.13 cl
528.00 43.00 556.87 266.13 cl
0.00 0.00 792.00 273.60 cl
0.00 0.00 792.00 273.60 cl
0.00 0.00 792.00 273.60 cl
0.00 0.00 792.00 273.60 cl
0.00 0.00 792.00 273.60 cl
0.00 0.00 792.00 273.60 cl
0.00 0.00 792.00 273.60 cl
528.00 43.00 556.87 266.13 cl
0.00 0.00 792.00 273.60 cl
/Font1 findfont 15 s
0 0 0 srgb
546.24 99.96 (F) 90 ta
-0.450 (or) tb
-0.150 (aging activity) tb gr
0.00 0.00 792.00 273.60 cl
528.00 43.00 556.87 266.13 cl
528.00 43.00 528.00 266.13 cl
528.00 43.00 556.87 266.13 cl
528.00 43.00 556.87 266.13 cl
0.00 0.00 792.00 273.60 cl
0.00 0.00 28.87 43.00 cl
0.00 0.00 792.00 273.60 cl
264.00 0.00 292.87 43.00 cl
0.00 0.00 792.00 273.60 cl
528.00 0.00 556.87 43.00 cl
0.00 0.00 792.00 273.60 cl
28.87 266.13 256.53 273.60 cl
0.00 0.00 792.00 273.60 cl
28.87 266.13 256.53 273.60 cl
0.00 0.00 792.00 273.60 cl
28.87 266.13 256.53 273.60 cl
0.00 0.00 792.00 273.60 cl
28.87 266.13 256.53 273.60 cl
0.00 0.00 792.00 273.60 cl
28.87 266.13 256.53 273.60 cl
28.87 273.60 256.53 273.60 cl
28.87 266.13 256.53 273.60 cl
28.87 266.13 256.53 273.60 cl
0.00 0.00 792.00 273.60 cl
292.87 266.13 520.53 273.60 cl
0.00 0.00 792.00 273.60 cl
292.87 266.13 520.53 273.60 cl
0.00 0.00 792.00 273.60 cl
292.87 266.13 520.53 273.60 cl
0.00 0.00 792.00 273.60 cl
292.87 266.13 520.53 273.60 cl
0.00 0.00 792.00 273.60 cl
292.87 266.13 520.53 273.60 cl
292.87 273.60 520.53 273.60 cl
292.87 266.13 520.53 273.60 cl
292.87 266.13 520.53 273.60 cl
0.00 0.00 792.00 273.60 cl
556.87 266.13 784.53 273.60 cl
0.00 0.00 792.00 273.60 cl
556.87 266.13 784.53 273.60 cl
0.00 0.00 792.00 273.60 cl
556.87 266.13 784.53 273.60 cl
0.00 0.00 792.00 273.60 cl
556.87 266.13 784.53 273.60 cl
0.00 0.00 792.00 273.60 cl
556.87 266.13 784.53 273.60 cl
556.87 273.60 784.53 273.60 cl
556.87 266.13 784.53 273.60 cl
556.87 266.13 784.53 273.60 cl
0.00 0.00 792.00 273.60 cl
28.87 43.00 256.53 266.13 cl
28.87 43.00 256.53 266.13 cl
/bg { 1 1 1 srgb } def
28.87 43.00 227.66 223.13 r p2
0 0 0 srgb
1.07 setlinewidth
[] 0 setdash
0 setlinecap
1 setlinejoin
10.00 setmiterlimit
np
67.68 255.99 m
10.34 0 l
o
np
72.85 255.99 m
0 -101.43 l
o
np
67.68 154.56 m
10.34 0 l
o
np
103.89 255.99 m
10.35 0 l
o
np
109.07 255.99 m
0 -101.43 l
o
np
103.89 154.56 m
10.35 0 l
o
np
171.16 154.56 m
10.34 0 l
o
np
176.33 154.56 m
0 -101.42 l
o
np
171.16 53.14 m
10.34 0 l
o
np
207.37 154.56 m
10.35 0 l
o
np
212.55 154.56 m
0 -101.42 l
o
np
207.37 53.14 m
10.35 0 l
o
np
72.85 235.70 m
0 20.29 l
o
np
72.85 174.85 m
0 -20.29 l
o
/bg { 0.7020 0.7020 0.7020 srgb } def
0 setlinejoin
np
 59.91 235.70 m
0 -60.85 l
25.88 0 l
0 60.85 l
-25.88 0 l
cp p3
2.13 setlinewidth
[] 0 setdash
np
59.91 205.28 m
25.88 0 l
o
1.07 setlinewidth
[] 0 setdash
1 setlinejoin
np
109.07 235.70 m
0 20.29 l
o
np
109.07 174.85 m
0 -20.29 l
o
/bg { 1 1 1 srgb } def
0 setlinejoin
np
 96.13 235.70 m
0 -60.85 l
25.87 0 l
0 60.85 l
-25.87 0 l
cp p3
2.13 setlinewidth
[] 0 setdash
np
96.13 205.28 m
25.87 0 l
o
1.07 setlinewidth
[] 0 setdash
1 setlinejoin
np
176.33 134.28 m
0 20.28 l
o
np
176.33 73.43 m
0 -20.29 l
o
/bg { 0.7020 0.7020 0.7020 srgb } def
0 setlinejoin
np
 163.40 134.28 m
0 -60.85 l
25.87 0 l
0 60.85 l
-25.87 0 l
cp p3
2.13 setlinewidth
[] 0 setdash
np
163.40 103.85 m
25.87 0 l
o
1.07 setlinewidth
[] 0 setdash
1 setlinejoin
np
212.55 134.28 m
0 20.28 l
o
np
212.55 73.43 m
0 -20.29 l
o
/bg { 1 1 1 srgb } def
0 setlinejoin
np
 199.61 134.28 m
0 -60.85 l
25.87 0 l
0 60.85 l
-25.87 0 l
cp p3
2.13 setlinewidth
[] 0 setdash
np
199.61 103.85 m
25.87 0 l
o
0.2000 0.2000 0.2000 srgb
1.45 setlinewidth
[] 0 setdash
1 setlinecap
1 setlinejoin
28.87 43.00 227.66 223.13 r p1
28.87 43.00 256.53 266.13 cl
0.00 0.00 792.00 273.60 cl
0.00 0.00 792.00 273.60 cl
0.00 0.00 792.00 273.60 cl
0.00 0.00 792.00 273.60 cl
0.00 0.00 792.00 273.60 cl
0.00 0.00 792.00 273.60 cl
0.00 0.00 792.00 273.60 cl
0.00 0.00 792.00 273.60 cl
0.00 0.00 792.00 273.60 cl
0.00 0.00 792.00 273.60 cl
0.00 0.00 792.00 273.60 cl
0.00 0.00 792.00 273.60 cl
0.00 0.00 792.00 273.60 cl
/bg { 1 1 1 srgb } def
160.78 233.13 17.28 17.28 r p2
0.00 0.00 792.00 273.60 cl
0.00 0.00 792.00 273.60 cl
0 0 0 srgb
1.07 setlinewidth
[] 0 setdash
0 setlinecap
0 setlinejoin
10.00 setmiterlimit
np
169.42 234.86 m
0 2.59 l
o
np
169.42 246.09 m
0 2.59 l
o
/bg { 0.7020 0.7020 0.7020 srgb } def
162.94 237.45 12.96 8.64 r p3
np
162.94 241.77 m
12.96 0 l
o
0.00 0.00 792.00 273.60 cl
0.00 0.00 792.00 273.60 cl
/bg { 1 1 1 srgb } def
160.78 215.85 17.28 17.28 r p2
0.00 0.00 792.00 273.60 cl
0.00 0.00 792.00 273.60 cl
0 0 0 srgb
1.07 setlinewidth
[] 0 setdash
0 setlinecap
0 setlinejoin
10.00 setmiterlimit
np
169.42 217.58 m
0 2.59 l
o
np
169.42 228.81 m
0 2.59 l
o
/bg { 1 1 1 srgb } def
162.94 220.17 12.96 8.64 r p3
np
162.94 224.49 m
12.96 0 l
o
0.00 0.00 792.00 273.60 cl
0.00 0.00 792.00 273.60 cl
0.00 0.00 792.00 273.60 cl
0.00 0.00 792.00 273.60 cl
/Font1 findfont 12 s
0 0 0 srgb
185.53 237.46 (HP f) 0 ta
-0.360 (emales) tb gr
0.00 0.00 792.00 273.60 cl
0.00 0.00 792.00 273.60 cl
0.00 0.00 792.00 273.60 cl
0.00 0.00 792.00 273.60 cl
0.00 0.00 792.00 273.60 cl
0.00 0.00 792.00 273.60 cl
/Font1 findfont 12 s
0 0 0 srgb
185.53 220.18 (LP f) 0 ta
-0.360 (emales) tb gr
0.00 0.00 792.00 273.60 cl
0.00 0.00 792.00 273.60 cl
0.00 0.00 792.00 273.60 cl
0.00 0.00 792.00 273.60 cl
0.00 0.00 792.00 273.60 cl
0.00 0.00 792.00 273.60 cl
28.87 43.00 256.53 266.13 cl
28.87 43.00 256.53 266.13 cl
0.00 0.00 792.00 273.60 cl
292.87 43.00 520.53 266.13 cl
292.87 43.00 520.53 266.13 cl
/bg { 1 1 1 srgb } def
292.87 43.00 227.66 223.13 r p2
0 0 0 srgb
2.13 setlinewidth
[] 0 setdash
0 setlinecap
1 setlinejoin
10.00 setmiterlimit
np
303.22 174.10 m
198.68 -39.07 l
o
2.13 setlinewidth
[ 8.54 8.54] 0 setdash
np
303.22 216.92 m
198.68 -139.13 l
o
0.2000 0.2000 0.2000 srgb
1.45 setlinewidth
[] 0 setdash
1 setlinecap
292.87 43.00 227.66 223.13 r p1
292.87 43.00 520.53 266.13 cl
0.00 0.00 792.00 273.60 cl
0.00 0.00 792.00 273.60 cl
0.00 0.00 792.00 273.60 cl
0.00 0.00 792.00 273.60 cl
0.00 0.00 792.00 273.60 cl
0.00 0.00 792.00 273.60 cl
0.00 0.00 792.00 273.60 cl
0.00 0.00 792.00 273.60 cl
0.00 0.00 792.00 273.60 cl
0.00 0.00 792.00 273.60 cl
0.00 0.00 792.00 273.60 cl
0.00 0.00 792.00 273.60 cl
0.00 0.00 792.00 273.60 cl
/bg { 1 1 1 srgb } def
419.25 233.13 28.35 17.28 r p2
0.00 0.00 792.00 273.60 cl
0.00 0.00 792.00 273.60 cl
0 0 0 srgb
2.13 setlinewidth
[] 0 setdash
0 setlinecap
1 setlinejoin
10.00 setmiterlimit
np
422.08 241.77 m
22.68 0 l
o
0.00 0.00 792.00 273.60 cl
0.00 0.00 792.00 273.60 cl
/bg { 1 1 1 srgb } def
419.25 215.85 28.35 17.28 r p2
0.00 0.00 792.00 273.60 cl
0.00 0.00 792.00 273.60 cl
0 0 0 srgb
2.13 setlinewidth
[ 8.54 8.54] 0 setdash
0 setlinecap
1 setlinejoin
10.00 setmiterlimit
np
422.08 224.49 m
22.68 0 l
o
0.00 0.00 792.00 273.60 cl
0.00 0.00 792.00 273.60 cl
0.00 0.00 792.00 273.60 cl
0.00 0.00 792.00 273.60 cl
/Font1 findfont 12 s
0 0 0 srgb
455.07 237.46 (HP f) 0 ta
-0.360 (emales) tb gr
0.00 0.00 792.00 273.60 cl
0.00 0.00 792.00 273.60 cl
0.00 0.00 792.00 273.60 cl
0.00 0.00 792.00 273.60 cl
0.00 0.00 792.00 273.60 cl
0.00 0.00 792.00 273.60 cl
/Font1 findfont 12 s
0 0 0 srgb
455.07 220.18 (LP f) 0 ta
-0.360 (emales) tb gr
0.00 0.00 792.00 273.60 cl
0.00 0.00 792.00 273.60 cl
0.00 0.00 792.00 273.60 cl
0.00 0.00 792.00 273.60 cl
0.00 0.00 792.00 273.60 cl
0.00 0.00 792.00 273.60 cl
292.87 43.00 520.53 266.13 cl
292.87 43.00 520.53 266.13 cl
0.00 0.00 792.00 273.60 cl
556.87 43.00 784.53 266.13 cl
556.87 43.00 784.53 266.13 cl
/bg { 1 1 1 srgb } def
556.87 43.00 227.66 223.13 r p2
0 0 0 srgb
2.13 setlinewidth
[] 0 setdash
0 setlinecap
1 setlinejoin
10.00 setmiterlimit
np
567.22 159.68 m
198.68 -10.23 l
o
2.13 setlinewidth
[ 8.54 8.54] 0 setdash
np
567.22 161.85 m
198.68 -9.53 l
o
0.2000 0.2000 0.2000 srgb
1.45 setlinewidth
[] 0 setdash
1 setlinecap
556.87 43.00 227.66 223.13 r p1
556.87 43.00 784.53 266.13 cl
0.00 0.00 792.00 273.60 cl
0.00 0.00 792.00 273.60 cl
0.00 0.00 792.00 273.60 cl
0.00 0.00 792.00 273.60 cl
0.00 0.00 792.00 273.60 cl
0.00 0.00 792.00 273.60 cl
0.00 0.00 792.00 273.60 cl
0.00 0.00 792.00 273.60 cl
0.00 0.00 792.00 273.60 cl
0.00 0.00 792.00 273.60 cl
0.00 0.00 792.00 273.60 cl
0.00 0.00 792.00 273.60 cl
0.00 0.00 792.00 273.60 cl
/bg { 1 1 1 srgb } def
683.25 233.13 28.35 17.28 r p2
0.00 0.00 792.00 273.60 cl
0.00 0.00 792.00 273.60 cl
0 0 0 srgb
2.13 setlinewidth
[] 0 setdash
0 setlinecap
1 setlinejoin
10.00 setmiterlimit
np
686.08 241.77 m
22.68 0 l
o
0.00 0.00 792.00 273.60 cl
0.00 0.00 792.00 273.60 cl
/bg { 1 1 1 srgb } def
683.25 215.85 28.35 17.28 r p2
0.00 0.00 792.00 273.60 cl
0.00 0.00 792.00 273.60 cl
0 0 0 srgb
2.13 setlinewidth
[ 8.54 8.54] 0 setdash
0 setlinecap
1 setlinejoin
10.00 setmiterlimit
np
686.08 224.49 m
22.68 0 l
o
0.00 0.00 792.00 273.60 cl
0.00 0.00 792.00 273.60 cl
0.00 0.00 792.00 273.60 cl
0.00 0.00 792.00 273.60 cl
/Font1 findfont 12 s
0 0 0 srgb
719.07 237.46 (HP f) 0 ta
-0.360 (emales) tb gr
0.00 0.00 792.00 273.60 cl
0.00 0.00 792.00 273.60 cl
0.00 0.00 792.00 273.60 cl
0.00 0.00 792.00 273.60 cl
0.00 0.00 792.00 273.60 cl
0.00 0.00 792.00 273.60 cl
/Font1 findfont 12 s
0 0 0 srgb
719.07 220.18 (LP f) 0 ta
-0.360 (emales) tb gr
0.00 0.00 792.00 273.60 cl
0.00 0.00 792.00 273.60 cl
0.00 0.00 792.00 273.60 cl
0.00 0.00 792.00 273.60 cl
0.00 0.00 792.00 273.60 cl
0.00 0.00 792.00 273.60 cl
556.87 43.00 784.53 266.13 cl
556.87 43.00 784.53 266.13 cl
0.00 0.00 792.00 273.60 cl
28.87 0.00 256.53 43.00 cl
28.87 0.00 256.53 43.00 cl
28.87 0.00 256.53 43.00 cl
28.87 0.00 256.53 43.00 cl
0.00 0.00 792.00 273.60 cl
0.00 0.00 792.00 273.60 cl
0.00 0.00 792.00 273.60 cl
0.00 0.00 792.00 273.60 cl
0.00 0.00 792.00 273.60 cl
0.2000 0.2000 0.2000 srgb
1.45 setlinewidth
[] 0 setdash
0 setlinecap
1 setlinejoin
10.00 setmiterlimit
np
90.96 39.26 m
0 3.74 l
o
np
194.44 39.26 m
0 3.74 l
o
0.00 0.00 792.00 273.60 cl
0.00 0.00 792.00 273.60 cl
/Font1 findfont 12 s
0.3020 0.3020 0.3020 srgb
90.96 27.66 (HP males) .5 0 t
194.44 27.66 (LP males) .5 0 t
0.00 0.00 792.00 273.60 cl
0.00 0.00 792.00 273.60 cl
0.00 0.00 792.00 273.60 cl
0.00 0.00 792.00 273.60 cl
28.87 0.00 256.53 43.00 cl
0.00 0.00 792.00 273.60 cl
0.00 0.00 792.00 273.60 cl
28.87 0.00 256.53 43.00 cl
0.00 0.00 792.00 273.60 cl
28.87 0.00 256.53 43.00 cl
28.87 0.00 256.53 0.00 cl
28.87 0.00 256.53 43.00 cl
28.87 0.00 256.53 43.00 cl
0.00 0.00 792.00 273.60 cl
292.87 0.00 520.53 43.00 cl
292.87 0.00 520.53 43.00 cl
292.87 0.00 520.53 43.00 cl
0.00 0.00 792.00 273.60 cl
0.00 0.00 792.00 273.60 cl
0.00 0.00 792.00 273.60 cl
0.00 0.00 792.00 273.60 cl
0.00 0.00 792.00 273.60 cl
0.00 0.00 792.00 273.60 cl
0.00 0.00 792.00 273.60 cl
292.87 0.00 520.53 43.00 cl
0.00 0.00 792.00 273.60 cl
/Font1 findfont 15 s
0 0 0 srgb
406.70 24.76 (Sneak attempts) .5 0 t
0.00 0.00 792.00 273.60 cl
292.87 0.00 520.53 43.00 cl
0.00 0.00 792.00 273.60 cl
292.87 0.00 520.53 43.00 cl
292.87 0.00 520.53 14.13 cl
292.87 0.00 520.53 43.00 cl
292.87 0.00 520.53 43.00 cl
0.00 0.00 792.00 273.60 cl
556.87 0.00 784.53 43.00 cl
556.87 0.00 784.53 43.00 cl
556.87 0.00 784.53 43.00 cl
0.00 0.00 792.00 273.60 cl
0.00 0.00 792.00 273.60 cl
0.00 0.00 792.00 273.60 cl
0.00 0.00 792.00 273.60 cl
0.00 0.00 792.00 273.60 cl
0.00 0.00 792.00 273.60 cl
0.00 0.00 792.00 273.60 cl
556.87 0.00 784.53 43.00 cl
0.00 0.00 792.00 273.60 cl
/Font1 findfont 15 s
0 0 0 srgb
614.43 24.76 (Sigmoid displa) 0 ta
-0.450 (ys) tb gr
0.00 0.00 792.00 273.60 cl
556.87 0.00 784.53 43.00 cl
0.00 0.00 792.00 273.60 cl
556.87 0.00 784.53 43.00 cl
556.87 0.00 784.53 14.13 cl
556.87 0.00 784.53 43.00 cl
556.87 0.00 784.53 43.00 cl
0.00 0.00 792.00 273.60 cl
256.53 266.13 264.00 273.60 cl
0.00 0.00 792.00 273.60 cl
520.53 266.13 528.00 273.60 cl
0.00 0.00 792.00 273.60 cl
784.53 266.13 792.00 273.60 cl
0.00 0.00 792.00 273.60 cl
256.53 43.00 264.00 266.13 cl
0.00 0.00 792.00 273.60 cl
256.53 43.00 264.00 266.13 cl
0.00 0.00 792.00 273.60 cl
256.53 43.00 264.00 266.13 cl
264.00 43.00 264.00 266.13 cl
256.53 43.00 264.00 266.13 cl
256.53 43.00 264.00 266.13 cl
0.00 0.00 792.00 273.60 cl
520.53 43.00 528.00 266.13 cl
0.00 0.00 792.00 273.60 cl
520.53 43.00 528.00 266.13 cl
0.00 0.00 792.00 273.60 cl
520.53 43.00 528.00 266.13 cl
528.00 43.00 528.00 266.13 cl
520.53 43.00 528.00 266.13 cl
520.53 43.00 528.00 266.13 cl
0.00 0.00 792.00 273.60 cl
784.53 43.00 792.00 266.13 cl
0.00 0.00 792.00 273.60 cl
784.53 43.00 792.00 266.13 cl
0.00 0.00 792.00 273.60 cl
784.53 43.00 792.00 266.13 cl
792.00 43.00 792.00 266.13 cl
784.53 43.00 792.00 266.13 cl
784.53 43.00 792.00 266.13 cl
0.00 0.00 792.00 273.60 cl
256.53 0.00 264.00 43.00 cl
0.00 0.00 792.00 273.60 cl
520.53 0.00 528.00 43.00 cl
0.00 0.00 792.00 273.60 cl
784.53 0.00 792.00 43.00 cl
0.00 0.00 792.00 273.60 cl
0.00 0.00 792.00 273.60 cl
/Font4 findfont 14 s
0 0 0 srgb
-0.00 263.55 (A) 0 0 t
0.00 0.00 792.00 273.60 cl
0.00 0.00 792.00 273.60 cl
/Font4 findfont 14 s
0 0 0 srgb
264.00 263.55 (B) 0 0 t
0.00 0.00 792.00 273.60 cl
0.00 0.00 792.00 273.60 cl
/Font4 findfont 14 s
0 0 0 srgb
528.00 263.55 (C) 0 0 t
0.00 0.00 792.00 273.60 cl
0.00 0.00 792.00 273.60 cl
ep
%%Trailer
%%Pages: 1
%%EOF
