%!PS-Adobe-3.0 EPSF-3.0
%%DocumentNeededResources: font Helvetica
%%+ font Helvetica-Bold
%%+ font Helvetica-Oblique
%%+ font Helvetica-BoldOblique
%%+ font Symbol
%%Title: R Graphics Output
%%Creator: R Software
%%Pages: (atend)
%%BoundingBox: 0 0 792 288
%%EndComments
%%BeginProlog
/bp  { gs sRGB gs } def
% begin .ps.prolog
/gs  { gsave } bind def
/gr  { grestore } bind def
/ep  { showpage gr gr } bind def
/m   { moveto } bind def
/l  { rlineto } bind def
/np  { newpath } bind def
/cp  { closepath } bind def
/f   { fill } bind def
/o   { stroke } bind def
/c   { newpath 0 360 arc } bind def
/r   { 4 2 roll moveto 1 copy 3 -1 roll exch 0 exch rlineto 0 rlineto -1 mul 0 exch rlineto closepath } bind def
/p1  { stroke } bind def
/p2  { gsave bg fill grestore newpath } bind def
/p3  { gsave bg fill grestore stroke } bind def
/p6  { gsave bg eofill grestore newpath } bind def
/p7  { gsave bg eofill grestore stroke } bind def
/t   { 5 -2 roll moveto gsave rotate
       1 index stringwidth pop
       mul neg 0 rmoveto show grestore } bind def
/ta  { 4 -2 roll moveto gsave rotate show } bind def
/tb  { 2 -1 roll 0 rmoveto show } bind def
/cl  { grestore gsave newpath 3 index 3 index moveto 1 index
       4 -1 roll lineto  exch 1 index lineto lineto
       closepath clip newpath } bind def
/rgb { setrgbcolor } bind def
/s   { scalefont setfont } bind def
% end   .ps.prolog
/sRGB { [ /CIEBasedABC
          << /DecodeLMN
               [ { dup 0.03928 le
                        {12.92321 div}
                        {0.055 add 1.055 div 2.4 exp }
                     ifelse
                 } bind dup dup
               ]
             /MatrixLMN [0.412457 0.212673 0.019334
                         0.357576 0.715152 0.119192
                         0.180437 0.072175 0.950301]
             /WhitePoint [0.9505 1.0 1.0890]
           >>
         ] setcolorspace } bind def
/srgb { setcolor } bind def
%%IncludeResource: font Helvetica
/Helvetica findfont
dup length dict begin
  {1 index /FID ne {def} {pop pop} ifelse} forall
  /Encoding ISOLatin1Encoding def
  currentdict
  end
/Font1 exch definefont pop
%%IncludeResource: font Helvetica-Bold
/Helvetica-Bold findfont
dup length dict begin
  {1 index /FID ne {def} {pop pop} ifelse} forall
  /Encoding ISOLatin1Encoding def
  currentdict
  end
/Font2 exch definefont pop
%%IncludeResource: font Helvetica-Oblique
/Helvetica-Oblique findfont
dup length dict begin
  {1 index /FID ne {def} {pop pop} ifelse} forall
  /Encoding ISOLatin1Encoding def
  currentdict
  end
/Font3 exch definefont pop
%%IncludeResource: font Helvetica-BoldOblique
/Helvetica-BoldOblique findfont
dup length dict begin
  {1 index /FID ne {def} {pop pop} ifelse} forall
  /Encoding ISOLatin1Encoding def
  currentdict
  end
/Font4 exch definefont pop
%%IncludeResource: font Symbol
/Symbol findfont
dup length dict begin
  {1 index /FID ne {def} {pop pop} ifelse} forall
  currentdict
  end
/Font5 exch definefont pop
%%EndProlog
%%Page: 1 1
bp
/bg { 1 1 1 srgb } def
0.00 0.00 792.00 288.00 r p2
0.00 0.00 792.00 288.00 cl
0.00 0.00 792.00 288.00 cl
0.00 0.00 792.00 288.00 cl
0.00 0.00 792.00 288.00 cl
0.00 0.00 792.00 288.00 cl
0.00 0.00 792.00 288.00 cl
0.00 0.00 792.00 288.00 cl
0.00 0.00 792.00 288.00 cl
0.00 0.00 792.00 288.00 cl
0.00 0.00 792.00 288.00 cl
0.00 0.00 792.00 288.00 cl
0.00 0.00 792.00 288.00 cl
0.00 0.00 792.00 288.00 cl
0.00 0.00 792.00 288.00 cl
0.00 233.36 55.21 288.00 cl
0.00 0.00 792.00 288.00 cl
266.22 233.36 318.10 288.00 cl
0.00 0.00 792.00 288.00 cl
529.11 233.36 580.99 288.00 cl
0.00 0.00 792.00 288.00 cl
0.00 43.00 55.21 233.36 cl
0.00 43.00 55.21 233.36 cl
0.00 43.00 55.21 233.36 cl
0.00 43.00 55.21 233.36 cl
0.00 43.00 55.21 233.36 cl
0.00 0.00 792.00 288.00 cl
0.00 0.00 792.00 288.00 cl
0.00 0.00 792.00 288.00 cl
0.00 0.00 792.00 288.00 cl
0.00 0.00 792.00 288.00 cl
/Font1 findfont 12 s
0.3020 0.3020 0.3020 srgb
48.49 47.35 (0.00) 1 0 t
48.49 84.97 (0.25) 1 0 t
48.49 122.59 (0.50) 1 0 t
48.49 160.21 (0.75) 1 0 t
48.49 197.83 (1.00) 1 0 t
0.00 0.00 792.00 288.00 cl
0.00 0.00 792.00 288.00 cl
0.00 0.00 792.00 288.00 cl
0.2000 0.2000 0.2000 srgb
1.45 setlinewidth
[] 0 setdash
0 setlinecap
1 setlinejoin
10.00 setmiterlimit
np
51.48 51.65 m
3.73 0 l
o
np
51.48 89.27 m
3.73 0 l
o
np
51.48 126.89 m
3.73 0 l
o
np
51.48 164.51 m
3.73 0 l
o
np
51.48 202.14 m
3.73 0 l
o
0.00 0.00 792.00 288.00 cl
0.00 0.00 792.00 288.00 cl
0.00 0.00 792.00 288.00 cl
0.00 43.00 55.21 233.36 cl
0.00 0.00 792.00 288.00 cl
/Font1 findfont 15 s
0 0 0 srgb
18.24 73.15 (Propor) 90 ta
0.600 (tion of sneak) tb gr
0.00 0.00 792.00 288.00 cl
0.00 43.00 55.21 233.36 cl
0.00 43.00 -0.00 233.36 cl
0.00 43.00 55.21 233.36 cl
0.00 43.00 55.21 233.36 cl
0.00 0.00 792.00 288.00 cl
266.22 43.00 318.10 233.36 cl
266.22 43.00 318.10 233.36 cl
266.22 43.00 318.10 233.36 cl
266.22 43.00 318.10 233.36 cl
266.22 43.00 318.10 233.36 cl
0.00 0.00 792.00 288.00 cl
0.00 0.00 792.00 288.00 cl
0.00 0.00 792.00 288.00 cl
0.00 0.00 792.00 288.00 cl
0.00 0.00 792.00 288.00 cl
/Font1 findfont 12 s
0.3020 0.3020 0.3020 srgb
311.37 47.35 (1) 1 0 t
311.37 79.54 (3) 1 0 t
311.37 114.82 (10) 1 0 t
311.37 147.02 (30) 1 0 t
311.37 182.30 (100) 1 0 t
311.37 214.49 (300) 1 0 t
0.00 0.00 792.00 288.00 cl
0.00 0.00 792.00 288.00 cl
0.00 0.00 792.00 288.00 cl
0.2000 0.2000 0.2000 srgb
1.45 setlinewidth
[] 0 setdash
0 setlinecap
1 setlinejoin
10.00 setmiterlimit
np
314.36 51.65 m
3.74 0 l
o
np
314.36 83.85 m
3.74 0 l
o
np
314.36 119.13 m
3.74 0 l
o
np
314.36 151.32 m
3.74 0 l
o
np
314.36 186.61 m
3.74 0 l
o
np
314.36 218.80 m
3.74 0 l
o
0.00 0.00 792.00 288.00 cl
0.00 0.00 792.00 288.00 cl
0.00 0.00 792.00 288.00 cl
266.22 43.00 318.10 233.36 cl
0.00 0.00 792.00 288.00 cl
/Font1 findfont 15 s
0 0 0 srgb
284.47 77.74 (F) 90 ta
-0.450 (or) tb
-0.150 (aging attempts) tb gr
0.00 0.00 792.00 288.00 cl
266.22 43.00 318.10 233.36 cl
266.22 43.00 266.22 233.36 cl
266.22 43.00 318.10 233.36 cl
266.22 43.00 318.10 233.36 cl
0.00 0.00 792.00 288.00 cl
529.11 43.00 580.99 233.36 cl
529.11 43.00 580.99 233.36 cl
529.11 43.00 580.99 233.36 cl
529.11 43.00 580.99 233.36 cl
529.11 43.00 580.99 233.36 cl
0.00 0.00 792.00 288.00 cl
0.00 0.00 792.00 288.00 cl
0.00 0.00 792.00 288.00 cl
0.00 0.00 792.00 288.00 cl
0.00 0.00 792.00 288.00 cl
/Font1 findfont 12 s
0.3020 0.3020 0.3020 srgb
574.26 47.35 (1) 1 0 t
574.26 79.54 (3) 1 0 t
574.26 114.82 (10) 1 0 t
574.26 147.02 (30) 1 0 t
574.26 182.30 (100) 1 0 t
574.26 214.49 (300) 1 0 t
0.00 0.00 792.00 288.00 cl
0.00 0.00 792.00 288.00 cl
0.00 0.00 792.00 288.00 cl
0.2000 0.2000 0.2000 srgb
1.45 setlinewidth
[] 0 setdash
0 setlinecap
1 setlinejoin
10.00 setmiterlimit
np
577.25 51.65 m
3.74 0 l
o
np
577.25 83.85 m
3.74 0 l
o
np
577.25 119.13 m
3.74 0 l
o
np
577.25 151.32 m
3.74 0 l
o
np
577.25 186.61 m
3.74 0 l
o
np
577.25 218.80 m
3.74 0 l
o
0.00 0.00 792.00 288.00 cl
0.00 0.00 792.00 288.00 cl
0.00 0.00 792.00 288.00 cl
529.11 43.00 580.99 233.36 cl
0.00 0.00 792.00 288.00 cl
/Font1 findfont 15 s
0 0 0 srgb
547.35 77.74 (F) 90 ta
-0.450 (or) tb
-0.150 (aging attempts) tb gr
0.00 0.00 792.00 288.00 cl
529.11 43.00 580.99 233.36 cl
529.11 43.00 529.11 233.36 cl
529.11 43.00 580.99 233.36 cl
529.11 43.00 580.99 233.36 cl
0.00 0.00 792.00 288.00 cl
0.00 0.00 55.21 43.00 cl
0.00 0.00 792.00 288.00 cl
266.22 0.00 318.10 43.00 cl
0.00 0.00 792.00 288.00 cl
529.11 0.00 580.99 43.00 cl
0.00 0.00 792.00 288.00 cl
55.21 233.36 258.75 288.00 cl
0.00 0.00 792.00 288.00 cl
55.21 233.36 258.75 288.00 cl
0.00 0.00 792.00 288.00 cl
55.21 233.36 258.75 288.00 cl
0.00 0.00 792.00 288.00 cl
0.00 0.00 792.00 288.00 cl
0.00 0.00 792.00 288.00 cl
0.00 0.00 792.00 288.00 cl
0.00 0.00 792.00 288.00 cl
/bg { 1 1 1 srgb } def
56.26 248.30 201.44 32.22 r p2
0.00 0.00 792.00 288.00 cl
0.00 0.00 792.00 288.00 cl
0.00 0.00 792.00 288.00 cl
0.00 0.00 792.00 288.00 cl
0.00 0.00 792.00 288.00 cl
0.00 0.00 792.00 288.00 cl
0.00 0.00 792.00 288.00 cl
0.00 0.00 792.00 288.00 cl
/bg { 1 1 1 srgb } def
71.20 255.78 17.28 17.28 r p2
0.00 0.00 792.00 288.00 cl
0.00 0.00 792.00 288.00 cl
0 0 0 srgb
1.07 setlinewidth
[] 0 setdash
0 setlinecap
0 setlinejoin
10.00 setmiterlimit
np
79.84 257.50 m
0 2.60 l
o
np
79.84 268.74 m
0 2.59 l
o
/bg { 0.7020 0.7020 0.7020 srgb } def
73.36 260.10 12.96 8.64 r p3
np
73.36 264.42 m
12.96 0 l
o
0.00 0.00 792.00 288.00 cl
0.00 0.00 792.00 288.00 cl
0.00 0.00 792.00 288.00 cl
0.00 0.00 792.00 288.00 cl
/bg { 1 1 1 srgb } def
165.45 255.78 17.28 17.28 r p2
0.00 0.00 792.00 288.00 cl
0.00 0.00 792.00 288.00 cl
0 0 0 srgb
1.07 setlinewidth
[] 0 setdash
0 setlinecap
0 setlinejoin
10.00 setmiterlimit
np
174.09 257.50 m
0 2.60 l
o
np
174.09 268.74 m
0 2.59 l
o
/bg { 1 1 1 srgb } def
167.61 260.10 12.96 8.64 r p3
np
167.61 264.42 m
12.96 0 l
o
0.00 0.00 792.00 288.00 cl
0.00 0.00 792.00 288.00 cl
0.00 0.00 792.00 288.00 cl
0.00 0.00 792.00 288.00 cl
0.00 0.00 792.00 288.00 cl
0.00 0.00 792.00 288.00 cl
/Font1 findfont 12 s
0 0 0 srgb
95.96 260.11 (HP f) 0 ta
-0.360 (emales) tb gr
0.00 0.00 792.00 288.00 cl
0.00 0.00 792.00 288.00 cl
0.00 0.00 792.00 288.00 cl
0.00 0.00 792.00 288.00 cl
0.00 0.00 792.00 288.00 cl
0.00 0.00 792.00 288.00 cl
/Font1 findfont 12 s
0 0 0 srgb
190.20 260.11 (LP f) 0 ta
-0.360 (emales) tb gr
0.00 0.00 792.00 288.00 cl
0.00 0.00 792.00 288.00 cl
0.00 0.00 792.00 288.00 cl
0.00 0.00 792.00 288.00 cl
0.00 0.00 792.00 288.00 cl
0.00 0.00 792.00 288.00 cl
55.21 233.36 258.75 288.00 cl
0.00 0.00 792.00 288.00 cl
55.21 233.36 258.75 288.00 cl
0.00 0.00 792.00 288.00 cl
55.21 233.36 258.75 288.00 cl
55.21 288.00 258.75 288.00 cl
55.21 233.36 258.75 288.00 cl
55.21 233.36 258.75 288.00 cl
0.00 0.00 792.00 288.00 cl
318.10 233.36 521.64 288.00 cl
0.00 0.00 792.00 288.00 cl
318.10 233.36 521.64 288.00 cl
0.00 0.00 792.00 288.00 cl
318.10 233.36 521.64 288.00 cl
0.00 0.00 792.00 288.00 cl
0.00 0.00 792.00 288.00 cl
0.00 0.00 792.00 288.00 cl
0.00 0.00 792.00 288.00 cl
0.00 0.00 792.00 288.00 cl
/bg { 1 1 1 srgb } def
308.08 248.30 223.58 32.22 r p2
0.00 0.00 792.00 288.00 cl
0.00 0.00 792.00 288.00 cl
0.00 0.00 792.00 288.00 cl
0.00 0.00 792.00 288.00 cl
0.00 0.00 792.00 288.00 cl
0.00 0.00 792.00 288.00 cl
0.00 0.00 792.00 288.00 cl
0.00 0.00 792.00 288.00 cl
/bg { 1 1 1 srgb } def
323.03 255.78 28.35 17.28 r p2
0.00 0.00 792.00 288.00 cl
0.00 0.00 792.00 288.00 cl
/bg { 0 0 0 srgb } def
337.20 264.42 1.95 c p2
0.00 0.00 792.00 288.00 cl
0.00 0.00 792.00 288.00 cl
0 0 0 srgb
2.13 setlinewidth
[] 0 setdash
0 setlinecap
1 setlinejoin
10.00 setmiterlimit
np
325.86 264.42 m
22.68 0 l
o
0.00 0.00 792.00 288.00 cl
0.00 0.00 792.00 288.00 cl
/bg { 1 1 1 srgb } def
428.34 255.78 28.35 17.28 r p2
0.00 0.00 792.00 288.00 cl
0.00 0.00 792.00 288.00 cl
0 0 0 srgb
0.71 setlinewidth
[] 0 setdash
1 setlinecap
1 setlinejoin
10.00 setmiterlimit
442.51 264.42 1.95 c p1
0.00 0.00 792.00 288.00 cl
0.00 0.00 792.00 288.00 cl
0 0 0 srgb
2.13 setlinewidth
[ 8.54 8.54] 0 setdash
0 setlinecap
1 setlinejoin
10.00 setmiterlimit
np
431.17 264.42 m
22.68 0 l
o
0.00 0.00 792.00 288.00 cl
0.00 0.00 792.00 288.00 cl
0.00 0.00 792.00 288.00 cl
0.00 0.00 792.00 288.00 cl
/Font1 findfont 12 s
0 0 0 srgb
358.84 260.11 (HP f) 0 ta
-0.360 (emales) tb gr
0.00 0.00 792.00 288.00 cl
0.00 0.00 792.00 288.00 cl
0.00 0.00 792.00 288.00 cl
0.00 0.00 792.00 288.00 cl
0.00 0.00 792.00 288.00 cl
0.00 0.00 792.00 288.00 cl
/Font1 findfont 12 s
0 0 0 srgb
464.16 260.11 (LP f) 0 ta
-0.360 (emales) tb gr
0.00 0.00 792.00 288.00 cl
0.00 0.00 792.00 288.00 cl
0.00 0.00 792.00 288.00 cl
0.00 0.00 792.00 288.00 cl
0.00 0.00 792.00 288.00 cl
0.00 0.00 792.00 288.00 cl
318.10 233.36 521.64 288.00 cl
0.00 0.00 792.00 288.00 cl
318.10 233.36 521.64 288.00 cl
0.00 0.00 792.00 288.00 cl
318.10 233.36 521.64 288.00 cl
318.10 288.00 521.64 288.00 cl
318.10 233.36 521.64 288.00 cl
318.10 233.36 521.64 288.00 cl
0.00 0.00 792.00 288.00 cl
580.99 233.36 784.53 288.00 cl
0.00 0.00 792.00 288.00 cl
580.99 233.36 784.53 288.00 cl
0.00 0.00 792.00 288.00 cl
580.99 233.36 784.53 288.00 cl
0.00 0.00 792.00 288.00 cl
0.00 0.00 792.00 288.00 cl
0.00 0.00 792.00 288.00 cl
0.00 0.00 792.00 288.00 cl
0.00 0.00 792.00 288.00 cl
/bg { 1 1 1 srgb } def
570.97 248.30 223.58 32.22 r p2
0.00 0.00 792.00 288.00 cl
0.00 0.00 792.00 288.00 cl
0.00 0.00 792.00 288.00 cl
0.00 0.00 792.00 288.00 cl
0.00 0.00 792.00 288.00 cl
0.00 0.00 792.00 288.00 cl
0.00 0.00 792.00 288.00 cl
0.00 0.00 792.00 288.00 cl
/bg { 1 1 1 srgb } def
585.91 255.78 28.35 17.28 r p2
0.00 0.00 792.00 288.00 cl
0.00 0.00 792.00 288.00 cl
/bg { 0 0 0 srgb } def
600.09 264.42 1.95 c p2
0.00 0.00 792.00 288.00 cl
0.00 0.00 792.00 288.00 cl
0 0 0 srgb
2.13 setlinewidth
[] 0 setdash
0 setlinecap
1 setlinejoin
10.00 setmiterlimit
np
588.75 264.42 m
22.68 0 l
o
0.00 0.00 792.00 288.00 cl
0.00 0.00 792.00 288.00 cl
/bg { 1 1 1 srgb } def
691.23 255.78 28.35 17.28 r p2
0.00 0.00 792.00 288.00 cl
0.00 0.00 792.00 288.00 cl
0 0 0 srgb
0.71 setlinewidth
[] 0 setdash
1 setlinecap
1 setlinejoin
10.00 setmiterlimit
705.40 264.42 1.95 c p1
0.00 0.00 792.00 288.00 cl
0.00 0.00 792.00 288.00 cl
0 0 0 srgb
2.13 setlinewidth
[ 8.54 8.54] 0 setdash
0 setlinecap
1 setlinejoin
10.00 setmiterlimit
np
694.06 264.42 m
22.68 0 l
o
0.00 0.00 792.00 288.00 cl
0.00 0.00 792.00 288.00 cl
0.00 0.00 792.00 288.00 cl
0.00 0.00 792.00 288.00 cl
/Font1 findfont 12 s
0 0 0 srgb
621.73 260.11 (HP f) 0 ta
-0.360 (emales) tb gr
0.00 0.00 792.00 288.00 cl
0.00 0.00 792.00 288.00 cl
0.00 0.00 792.00 288.00 cl
0.00 0.00 792.00 288.00 cl
0.00 0.00 792.00 288.00 cl
0.00 0.00 792.00 288.00 cl
/Font1 findfont 12 s
0 0 0 srgb
727.04 260.11 (LP f) 0 ta
-0.360 (emales) tb gr
0.00 0.00 792.00 288.00 cl
0.00 0.00 792.00 288.00 cl
0.00 0.00 792.00 288.00 cl
0.00 0.00 792.00 288.00 cl
0.00 0.00 792.00 288.00 cl
0.00 0.00 792.00 288.00 cl
580.99 233.36 784.53 288.00 cl
0.00 0.00 792.00 288.00 cl
580.99 233.36 784.53 288.00 cl
0.00 0.00 792.00 288.00 cl
580.99 233.36 784.53 288.00 cl
580.99 288.00 784.53 288.00 cl
580.99 233.36 784.53 288.00 cl
580.99 233.36 784.53 288.00 cl
0.00 0.00 792.00 288.00 cl
55.21 43.00 258.75 233.36 cl
55.21 43.00 258.75 233.36 cl
/bg { 1 1 1 srgb } def
55.21 43.00 203.54 190.36 r p2
0 0 0 srgb
1.07 setlinewidth
[] 0 setdash
0 setlinecap
1 setlinejoin
10.00 setmiterlimit
np
89.91 202.14 m
9.25 0 l
o
np
94.53 202.14 m
0 -150.49 l
o
np
89.91 51.65 m
9.25 0 l
o
np
122.29 202.14 m
9.25 0 l
o
np
126.91 202.14 m
0 -150.49 l
o
np
122.29 51.65 m
9.25 0 l
o
np
182.42 202.14 m
9.26 0 l
o
np
187.05 202.14 m
0 -138.91 l
o
np
182.42 63.23 m
9.26 0 l
o
np
214.81 202.14 m
9.25 0 l
o
np
219.43 202.14 m
0 -150.49 l
o
np
214.81 51.65 m
9.25 0 l
o
np
94.53 202.14 m
0 0 l
o
np
94.53 141.06 m
0 -89.41 l
o
/bg { 0.7020 0.7020 0.7020 srgb } def
0 setlinejoin
np
 82.97 202.14 m
0 -61.08 l
23.13 0 l
0 61.08 l
-23.13 0 l
cp p3
2.13 setlinewidth
[] 0 setdash
np
82.97 172.04 m
23.13 0 l
o
1.07 setlinewidth
[] 0 setdash
1 setlinejoin
np
126.91 194.97 m
0 7.17 l
o
np
126.91 105.40 m
0 -53.75 l
o
/bg { 1 1 1 srgb } def
0 setlinejoin
np
 115.35 194.97 m
0 -89.57 l
23.13 0 l
0 89.57 l
-23.13 0 l
cp p3
2.13 setlinewidth
[] 0 setdash
np
115.35 166.31 m
23.13 0 l
o
1.07 setlinewidth
[] 0 setdash
1 setlinejoin
np
187.05 180.64 m
0 21.50 l
o
np
187.05 92.15 m
0 -28.92 l
o
/bg { 0.7020 0.7020 0.7020 srgb } def
0 setlinejoin
np
 175.49 180.64 m
0 -88.49 l
23.13 0 l
0 88.49 l
-23.13 0 l
cp p3
2.13 setlinewidth
[] 0 setdash
np
175.49 121.52 m
23.13 0 l
o
1.07 setlinewidth
[] 0 setdash
1 setlinejoin
np
219.43 160.46 m
0 41.68 l
o
np
219.43 89.27 m
0 -37.62 l
o
/bg { 1 1 1 srgb } def
0 setlinejoin
np
 207.87 160.46 m
0 -71.19 l
23.13 0 l
0 71.19 l
-23.13 0 l
cp p3
2.13 setlinewidth
[] 0 setdash
np
207.87 133.16 m
23.13 0 l
o
/Font1 findfont 11 s
156.98 219.09 (*) .5 0 t
1.07 setlinewidth
[] 0 setdash
1 setlinecap
1 setlinejoin
np
110.72 212.67 m
0 4.51 l
o
np
110.72 217.18 m
92.52 0 l
o
np
203.24 217.18 m
0 -4.51 l
o
0.2000 0.2000 0.2000 srgb
1.45 setlinewidth
[] 0 setdash
55.21 43.00 203.54 190.36 r p1
55.21 43.00 258.75 233.36 cl
55.21 43.00 258.75 233.36 cl
0.00 0.00 792.00 288.00 cl
318.10 43.00 521.64 233.36 cl
318.10 43.00 521.64 233.36 cl
/bg { 1 1 1 srgb } def
318.10 43.00 203.54 190.36 r p2
0 0 0 srgb
0.71 setlinewidth
[] 0 setdash
1 setlinecap
1 setlinejoin
10.00 setmiterlimit
358.19 200.01 1.95 c p1
327.35 51.65 1.95 c p1
471.27 160.48 1.95 c p1
481.55 196.88 1.95 c p1
378.75 51.65 1.95 c p1
/bg { 0 0 0 srgb } def
347.91 131.01 1.95 c p2
430.15 51.65 1.95 c p2
512.39 71.97 1.95 c p1
347.91 92.28 1.95 c p2
378.75 92.28 1.95 c p2
378.75 128.99 1.95 c p1
491.83 134.68 1.95 c p1
450.71 51.65 1.95 c p1
378.75 92.28 1.95 c p2
419.87 71.97 1.95 c p2
450.71 98.82 1.95 c p2
337.63 154.99 1.95 c p2
502.11 71.97 1.95 c p2
337.63 166.29 1.95 c p1
399.31 171.64 1.95 c p1
378.75 92.28 1.95 c p2
347.91 191.46 1.95 c p2
358.19 224.71 1.95 c p2
358.19 209.04 1.95 c p2
358.19 187.47 1.95 c p2
358.19 51.65 1.95 c p2
399.31 98.82 1.95 c p2
337.63 104.16 1.95 c p2
2.13 setlinewidth
[] 0 setdash
0 setlinecap
np
337.63 167.23 m
10.28 -5.93 l
10.28 -5.93 l
10.28 -5.93 l
10.28 -5.93 l
10.28 -5.93 l
10.28 -5.93 l
10.28 -5.93 l
10.28 -5.93 l
10.28 -5.93 l
10.28 -5.93 l
10.28 -5.93 l
10.28 -5.93 l
10.28 -5.93 l
10.28 -5.93 l
10.28 -5.93 l
10.28 -5.93 l
o
2.13 setlinewidth
[ 8.54 8.54] 0 setdash
np
327.35 83.59 m
10.28 -0.64 l
10.28 -0.64 l
10.28 -0.64 l
10.28 -0.64 l
10.28 -0.65 l
10.28 -0.64 l
10.28 -0.64 l
10.28 -0.64 l
10.28 -0.64 l
10.28 -0.64 l
10.28 -0.64 l
10.28 -0.64 l
10.28 -0.64 l
10.28 -0.65 l
10.28 -0.64 l
10.28 -0.64 l
10.28 -0.64 l
10.28 -0.64 l
o
0.2000 0.2000 0.2000 srgb
1.45 setlinewidth
[] 0 setdash
1 setlinecap
318.10 43.00 203.54 190.36 r p1
318.10 43.00 521.64 233.36 cl
318.10 43.00 521.64 233.36 cl
0.00 0.00 792.00 288.00 cl
580.99 43.00 784.53 233.36 cl
580.99 43.00 784.53 233.36 cl
/bg { 1 1 1 srgb } def
580.99 43.00 203.54 190.36 r p2
0 0 0 srgb
0.71 setlinewidth
[] 0 setdash
1 setlinecap
1 setlinejoin
10.00 setmiterlimit
713.60 200.01 1.95 c p1
725.93 51.65 1.95 c p1
651.92 160.48 1.95 c p1
676.59 196.88 1.95 c p1
701.26 51.65 1.95 c p1
/bg { 0 0 0 srgb } def
664.25 131.01 1.95 c p2
676.59 51.65 1.95 c p2
614.91 71.97 1.95 c p1
614.91 92.28 1.95 c p2
590.24 92.28 1.95 c p2
701.26 128.99 1.95 c p1
651.92 134.68 1.95 c p1
614.91 51.65 1.95 c p1
602.58 92.28 1.95 c p2
639.58 71.97 1.95 c p2
602.58 98.82 1.95 c p2
738.27 154.99 1.95 c p2
639.58 71.97 1.95 c p2
602.58 166.29 1.95 c p1
651.92 171.64 1.95 c p1
590.24 92.28 1.95 c p2
750.60 191.46 1.95 c p2
639.58 224.71 1.95 c p2
762.94 209.04 1.95 c p2
651.92 187.47 1.95 c p2
676.59 51.65 1.95 c p2
590.24 98.82 1.95 c p2
590.24 104.16 1.95 c p2
2.13 setlinewidth
[] 0 setdash
0 setlinecap
np
590.24 139.85 m
12.34 0.41 l
12.33 0.41 l
12.34 0.40 l
12.33 0.41 l
12.34 0.41 l
12.33 0.40 l
12.34 0.41 l
12.34 0.41 l
12.33 0.40 l
12.34 0.41 l
12.33 0.41 l
12.34 0.40 l
12.33 0.41 l
12.34 0.41 l
o
2.13 setlinewidth
[ 8.54 8.54] 0 setdash
np
602.58 75.96 m
12.33 0.41 l
12.34 0.41 l
12.33 0.40 l
12.34 0.41 l
12.33 0.41 l
12.34 0.40 l
12.34 0.41 l
12.33 0.40 l
12.34 0.41 l
12.33 0.41 l
o
0.2000 0.2000 0.2000 srgb
1.45 setlinewidth
[] 0 setdash
1 setlinecap
580.99 43.00 203.54 190.36 r p1
580.99 43.00 784.53 233.36 cl
580.99 43.00 784.53 233.36 cl
0.00 0.00 792.00 288.00 cl
55.21 0.00 258.75 43.00 cl
55.21 0.00 258.75 43.00 cl
55.21 0.00 258.75 43.00 cl
55.21 0.00 258.75 43.00 cl
0.00 0.00 792.00 288.00 cl
0.00 0.00 792.00 288.00 cl
0.00 0.00 792.00 288.00 cl
0.00 0.00 792.00 288.00 cl
0.00 0.00 792.00 288.00 cl
0.2000 0.2000 0.2000 srgb
1.45 setlinewidth
[] 0 setdash
0 setlinecap
1 setlinejoin
10.00 setmiterlimit
np
110.72 39.26 m
0 3.74 l
o
np
203.24 39.26 m
0 3.74 l
o
0.00 0.00 792.00 288.00 cl
0.00 0.00 792.00 288.00 cl
/Font1 findfont 12 s
0.3020 0.3020 0.3020 srgb
110.72 27.66 (HP males) .5 0 t
203.24 27.66 (LP males) .5 0 t
0.00 0.00 792.00 288.00 cl
0.00 0.00 792.00 288.00 cl
0.00 0.00 792.00 288.00 cl
0.00 0.00 792.00 288.00 cl
55.21 0.00 258.75 43.00 cl
0.00 0.00 792.00 288.00 cl
0.00 0.00 792.00 288.00 cl
55.21 0.00 258.75 43.00 cl
0.00 0.00 792.00 288.00 cl
55.21 0.00 258.75 43.00 cl
55.21 0.00 258.75 0.00 cl
55.21 0.00 258.75 43.00 cl
55.21 0.00 258.75 43.00 cl
0.00 0.00 792.00 288.00 cl
318.10 0.00 521.64 43.00 cl
318.10 0.00 521.64 43.00 cl
318.10 0.00 521.64 43.00 cl
318.10 0.00 521.64 43.00 cl
0.00 0.00 792.00 288.00 cl
0.00 0.00 792.00 288.00 cl
0.00 0.00 792.00 288.00 cl
0.00 0.00 792.00 288.00 cl
0.00 0.00 792.00 288.00 cl
0.2000 0.2000 0.2000 srgb
1.45 setlinewidth
[] 0 setdash
0 setlinecap
1 setlinejoin
10.00 setmiterlimit
np
327.35 39.26 m
0 3.74 l
o
np
378.75 39.26 m
0 3.74 l
o
np
430.15 39.26 m
0 3.74 l
o
np
481.55 39.26 m
0 3.74 l
o
0.00 0.00 792.00 288.00 cl
0.00 0.00 792.00 288.00 cl
/Font1 findfont 12 s
0.3020 0.3020 0.3020 srgb
327.35 27.66 (0) .5 0 t
378.75 27.66 (5) .5 0 t
430.15 27.66 (10) .5 0 t
481.55 27.66 (15) .5 0 t
0.00 0.00 792.00 288.00 cl
0.00 0.00 792.00 288.00 cl
0.00 0.00 792.00 288.00 cl
0.00 0.00 792.00 288.00 cl
318.10 0.00 521.64 43.00 cl
0.00 0.00 792.00 288.00 cl
/Font1 findfont 15 s
0 0 0 srgb
419.87 10.63 (Sneak attempts) .5 0 t
0.00 0.00 792.00 288.00 cl
318.10 0.00 521.64 43.00 cl
0.00 0.00 792.00 288.00 cl
318.10 0.00 521.64 43.00 cl
318.10 0.00 521.64 0.00 cl
318.10 0.00 521.64 43.00 cl
318.10 0.00 521.64 43.00 cl
0.00 0.00 792.00 288.00 cl
580.99 0.00 784.53 43.00 cl
580.99 0.00 784.53 43.00 cl
580.99 0.00 784.53 43.00 cl
580.99 0.00 784.53 43.00 cl
0.00 0.00 792.00 288.00 cl
0.00 0.00 792.00 288.00 cl
0.00 0.00 792.00 288.00 cl
0.00 0.00 792.00 288.00 cl
0.00 0.00 792.00 288.00 cl
0.2000 0.2000 0.2000 srgb
1.45 setlinewidth
[] 0 setdash
0 setlinecap
1 setlinejoin
10.00 setmiterlimit
np
590.24 39.26 m
0 3.74 l
o
np
651.92 39.26 m
0 3.74 l
o
np
713.60 39.26 m
0 3.74 l
o
np
775.28 39.26 m
0 3.74 l
o
0.00 0.00 792.00 288.00 cl
0.00 0.00 792.00 288.00 cl
/Font1 findfont 12 s
0.3020 0.3020 0.3020 srgb
590.24 27.66 (0) .5 0 t
651.92 27.66 (5) .5 0 t
713.60 27.66 (10) .5 0 t
775.28 27.66 (15) .5 0 t
0.00 0.00 792.00 288.00 cl
0.00 0.00 792.00 288.00 cl
0.00 0.00 792.00 288.00 cl
0.00 0.00 792.00 288.00 cl
580.99 0.00 784.53 43.00 cl
0.00 0.00 792.00 288.00 cl
/Font1 findfont 15 s
0 0 0 srgb
626.49 10.63 (Sigmoid displa) 0 ta
-0.450 (ys) tb gr
0.00 0.00 792.00 288.00 cl
580.99 0.00 784.53 43.00 cl
0.00 0.00 792.00 288.00 cl
580.99 0.00 784.53 43.00 cl
580.99 0.00 784.53 0.00 cl
580.99 0.00 784.53 43.00 cl
580.99 0.00 784.53 43.00 cl
0.00 0.00 792.00 288.00 cl
258.75 233.36 266.22 288.00 cl
0.00 0.00 792.00 288.00 cl
521.64 233.36 529.11 288.00 cl
0.00 0.00 792.00 288.00 cl
784.53 233.36 792.00 288.00 cl
0.00 0.00 792.00 288.00 cl
258.75 43.00 266.22 233.36 cl
0.00 0.00 792.00 288.00 cl
258.75 43.00 266.22 233.36 cl
0.00 0.00 792.00 288.00 cl
258.75 43.00 266.22 233.36 cl
266.22 43.00 266.22 233.36 cl
258.75 43.00 266.22 233.36 cl
258.75 43.00 266.22 233.36 cl
0.00 0.00 792.00 288.00 cl
521.64 43.00 529.11 233.36 cl
0.00 0.00 792.00 288.00 cl
521.64 43.00 529.11 233.36 cl
0.00 0.00 792.00 288.00 cl
521.64 43.00 529.11 233.36 cl
529.11 43.00 529.11 233.36 cl
521.64 43.00 529.11 233.36 cl
521.64 43.00 529.11 233.36 cl
0.00 0.00 792.00 288.00 cl
784.53 43.00 792.00 233.36 cl
0.00 0.00 792.00 288.00 cl
784.53 43.00 792.00 233.36 cl
0.00 0.00 792.00 288.00 cl
784.53 43.00 792.00 233.36 cl
792.00 43.00 792.00 233.36 cl
784.53 43.00 792.00 233.36 cl
784.53 43.00 792.00 233.36 cl
0.00 0.00 792.00 288.00 cl
258.75 0.00 266.22 43.00 cl
0.00 0.00 792.00 288.00 cl
521.64 0.00 529.11 43.00 cl
0.00 0.00 792.00 288.00 cl
784.53 0.00 792.00 43.00 cl
0.00 0.00 792.00 288.00 cl
0.00 0.00 792.00 288.00 cl
/Font4 findfont 14 s
0 0 0 srgb
-0.00 277.95 (A) 0 0 t
0.00 0.00 792.00 288.00 cl
0.00 0.00 792.00 288.00 cl
/Font4 findfont 14 s
0 0 0 srgb
266.22 277.95 (B) 0 0 t
0.00 0.00 792.00 288.00 cl
0.00 0.00 792.00 288.00 cl
/Font4 findfont 14 s
0 0 0 srgb
529.11 277.95 (C) 0 0 t
0.00 0.00 792.00 288.00 cl
0.00 0.00 792.00 288.00 cl
ep
%%Trailer
%%Pages: 1
%%EOF
