%!PS-Adobe-3.0 EPSF-3.0
%%DocumentNeededResources: font Helvetica
%%+ font Helvetica-Bold
%%+ font Helvetica-Oblique
%%+ font Helvetica-BoldOblique
%%+ font Symbol
%%Title: R Graphics Output
%%Creator: R Software
%%Pages: (atend)
%%BoundingBox: 0 0 720 216
%%EndComments
%%BeginProlog
/bp  { gs sRGB gs } def
% begin .ps.prolog
/gs  { gsave } bind def
/gr  { grestore } bind def
/ep  { showpage gr gr } bind def
/m   { moveto } bind def
/l  { rlineto } bind def
/np  { newpath } bind def
/cp  { closepath } bind def
/f   { fill } bind def
/o   { stroke } bind def
/c   { newpath 0 360 arc } bind def
/r   { 4 2 roll moveto 1 copy 3 -1 roll exch 0 exch rlineto 0 rlineto -1 mul 0 exch rlineto closepath } bind def
/p1  { stroke } bind def
/p2  { gsave bg fill grestore newpath } bind def
/p3  { gsave bg fill grestore stroke } bind def
/p6  { gsave bg eofill grestore newpath } bind def
/p7  { gsave bg eofill grestore stroke } bind def
/t   { 5 -2 roll moveto gsave rotate
       1 index stringwidth pop
       mul neg 0 rmoveto show grestore } bind def
/ta  { 4 -2 roll moveto gsave rotate show } bind def
/tb  { 2 -1 roll 0 rmoveto show } bind def
/cl  { grestore gsave newpath 3 index 3 index moveto 1 index
       4 -1 roll lineto  exch 1 index lineto lineto
       closepath clip newpath } bind def
/rgb { setrgbcolor } bind def
/s   { scalefont setfont } bind def
% end   .ps.prolog
/sRGB { [ /CIEBasedABC
          << /DecodeLMN
               [ { dup 0.03928 le
                        {12.92321 div}
                        {0.055 add 1.055 div 2.4 exp }
                     ifelse
                 } bind dup dup
               ]
             /MatrixLMN [0.412457 0.212673 0.019334
                         0.357576 0.715152 0.119192
                         0.180437 0.072175 0.950301]
             /WhitePoint [0.9505 1.0 1.0890]
           >>
         ] setcolorspace } bind def
/srgb { setcolor } bind def
%%IncludeResource: font Helvetica
/Helvetica findfont
dup length dict begin
  {1 index /FID ne {def} {pop pop} ifelse} forall
  /Encoding ISOLatin1Encoding def
  currentdict
  end
/Font1 exch definefont pop
%%IncludeResource: font Helvetica-Bold
/Helvetica-Bold findfont
dup length dict begin
  {1 index /FID ne {def} {pop pop} ifelse} forall
  /Encoding ISOLatin1Encoding def
  currentdict
  end
/Font2 exch definefont pop
%%IncludeResource: font Helvetica-Oblique
/Helvetica-Oblique findfont
dup length dict begin
  {1 index /FID ne {def} {pop pop} ifelse} forall
  /Encoding ISOLatin1Encoding def
  currentdict
  end
/Font3 exch definefont pop
%%IncludeResource: font Helvetica-BoldOblique
/Helvetica-BoldOblique findfont
dup length dict begin
  {1 index /FID ne {def} {pop pop} ifelse} forall
  /Encoding ISOLatin1Encoding def
  currentdict
  end
/Font4 exch definefont pop
%%IncludeResource: font Symbol
/Symbol findfont
dup length dict begin
  {1 index /FID ne {def} {pop pop} ifelse} forall
  currentdict
  end
/Font5 exch definefont pop
%%EndProlog
%%Page: 1 1
bp
/bg { 1 1 1 srgb } def
0.00 0.00 720.00 216.00 r p2
0.00 0.00 720.00 216.00 cl
0.00 0.00 720.00 216.00 cl
0.00 0.00 720.00 216.00 cl
0.00 0.00 720.00 216.00 cl
0.00 0.00 720.00 216.00 cl
0.00 0.00 720.00 216.00 cl
0.00 0.00 720.00 216.00 cl
0.00 0.00 720.00 216.00 cl
0.00 0.00 720.00 216.00 cl
0.00 0.00 720.00 216.00 cl
0.00 184.34 45.20 216.00 cl
0.00 0.00 720.00 216.00 cl
324.35 184.34 369.55 216.00 cl
0.00 0.00 720.00 216.00 cl
0.00 28.87 45.20 184.34 cl
0.00 28.87 45.20 184.34 cl
0.00 28.87 45.20 184.34 cl
0.00 28.87 45.20 184.34 cl
0.00 28.87 45.20 184.34 cl
0.00 0.00 720.00 216.00 cl
0.00 0.00 720.00 216.00 cl
0.00 0.00 720.00 216.00 cl
0.00 0.00 720.00 216.00 cl
0.00 0.00 720.00 216.00 cl
/Font1 findfont 12 s
0.3020 0.3020 0.3020 srgb
38.48 43.41 (15) 1 0 t
38.48 102.30 (20) 1 0 t
38.48 161.19 (25) 1 0 t
0.00 0.00 720.00 216.00 cl
0.00 0.00 720.00 216.00 cl
0.00 0.00 720.00 216.00 cl
0.2000 0.2000 0.2000 srgb
1.45 setlinewidth
[] 0 setdash
0 setlinecap
1 setlinejoin
10.00 setmiterlimit
np
41.47 47.72 m
3.73 0 l
o
np
41.47 106.61 m
3.73 0 l
o
np
41.47 165.50 m
3.73 0 l
o
0.00 0.00 720.00 216.00 cl
0.00 0.00 720.00 216.00 cl
0.00 0.00 720.00 216.00 cl
0.00 28.87 45.20 184.34 cl
0.00 0.00 720.00 216.00 cl
/Font1 findfont 15 s
0 0 0 srgb
18.24 106.61 (Body length \(mm\)) .5 90 t
0.00 0.00 720.00 216.00 cl
0.00 28.87 45.20 184.34 cl
0.00 28.87 -0.00 184.34 cl
0.00 28.87 45.20 184.34 cl
0.00 28.87 45.20 184.34 cl
0.00 0.00 720.00 216.00 cl
324.35 28.87 369.55 184.34 cl
324.35 28.87 369.55 184.34 cl
324.35 28.87 369.55 184.34 cl
324.35 28.87 369.55 184.34 cl
324.35 28.87 369.55 184.34 cl
0.00 0.00 720.00 216.00 cl
0.00 0.00 720.00 216.00 cl
0.00 0.00 720.00 216.00 cl
0.00 0.00 720.00 216.00 cl
0.00 0.00 720.00 216.00 cl
/Font1 findfont 12 s
0.3020 0.3020 0.3020 srgb
362.82 43.41 (15) 1 0 t
362.82 102.30 (20) 1 0 t
362.82 161.19 (25) 1 0 t
0.00 0.00 720.00 216.00 cl
0.00 0.00 720.00 216.00 cl
0.00 0.00 720.00 216.00 cl
0.2000 0.2000 0.2000 srgb
1.45 setlinewidth
[] 0 setdash
0 setlinecap
1 setlinejoin
10.00 setmiterlimit
np
365.81 47.72 m
3.74 0 l
o
np
365.81 106.61 m
3.74 0 l
o
np
365.81 165.50 m
3.74 0 l
o
0.00 0.00 720.00 216.00 cl
0.00 0.00 720.00 216.00 cl
0.00 0.00 720.00 216.00 cl
324.35 28.87 369.55 184.34 cl
0.00 0.00 720.00 216.00 cl
/Font1 findfont 15 s
0 0 0 srgb
342.59 106.61 (Body length \(mm\)) .5 90 t
0.00 0.00 720.00 216.00 cl
324.35 28.87 369.55 184.34 cl
324.35 28.87 324.35 184.34 cl
324.35 28.87 369.55 184.34 cl
324.35 28.87 369.55 184.34 cl
0.00 0.00 720.00 216.00 cl
0.00 0.00 45.20 28.87 cl
0.00 0.00 720.00 216.00 cl
324.35 0.00 369.55 28.87 cl
0.00 0.00 720.00 216.00 cl
45.20 184.34 316.87 216.00 cl
45.20 184.34 316.87 216.00 cl
45.20 184.34 316.87 216.00 cl
0.00 0.00 720.00 216.00 cl
45.20 184.34 316.87 216.00 cl
0.00 0.00 720.00 216.00 cl
45.20 184.34 316.87 216.00 cl
0.00 0.00 720.00 216.00 cl
45.20 184.34 316.87 216.00 cl
0.00 0.00 720.00 216.00 cl
/Font1 findfont 18 s
0 0 0 srgb
45.20 195.60 (F) 0 ta
-0.540 (emales) tb gr
0.00 0.00 720.00 216.00 cl
45.20 184.34 316.87 216.00 cl
45.20 216.00 316.87 216.00 cl
45.20 184.34 316.87 216.00 cl
45.20 184.34 316.87 216.00 cl
0.00 0.00 720.00 216.00 cl
369.55 184.34 641.22 216.00 cl
369.55 184.34 641.22 216.00 cl
369.55 184.34 641.22 216.00 cl
0.00 0.00 720.00 216.00 cl
369.55 184.34 641.22 216.00 cl
0.00 0.00 720.00 216.00 cl
369.55 184.34 641.22 216.00 cl
0.00 0.00 720.00 216.00 cl
369.55 184.34 641.22 216.00 cl
0.00 0.00 720.00 216.00 cl
/Font1 findfont 18 s
0 0 0 srgb
369.55 195.60 (Males) 0 0 t
0.00 0.00 720.00 216.00 cl
369.55 184.34 641.22 216.00 cl
369.55 216.00 641.22 216.00 cl
369.55 184.34 641.22 216.00 cl
369.55 184.34 641.22 216.00 cl
0.00 0.00 720.00 216.00 cl
45.20 28.87 316.87 184.34 cl
45.20 28.87 316.87 184.34 cl
/bg { 1 1 1 srgb } def
45.20 28.87 271.67 155.47 r p2
0.9216 0.9216 0.9216 srgb
0.73 setlinewidth
[] 0 setdash
0 setlinecap
1 setlinejoin
10.00 setmiterlimit
np
45.20 77.16 m
271.67 0 l
o
np
45.20 136.05 m
271.67 0 l
o
1.45 setlinewidth
[] 0 setdash
np
45.20 47.72 m
271.67 0 l
o
np
45.20 106.61 m
271.67 0 l
o
np
45.20 165.50 m
271.67 0 l
o
np
53.27 28.87 m
0 155.47 l
o
np
66.72 28.87 m
0 155.47 l
o
np
80.17 28.87 m
0 155.47 l
o
np
93.62 28.87 m
0 155.47 l
o
np
107.07 28.87 m
0 155.47 l
o
np
120.52 28.87 m
0 155.47 l
o
np
133.97 28.87 m
0 155.47 l
o
np
147.42 28.87 m
0 155.47 l
o
np
160.86 28.87 m
0 155.47 l
o
np
174.31 28.87 m
0 155.47 l
o
np
187.76 28.87 m
0 155.47 l
o
np
201.21 28.87 m
0 155.47 l
o
np
214.66 28.87 m
0 155.47 l
o
np
228.11 28.87 m
0 155.47 l
o
np
241.56 28.87 m
0 155.47 l
o
np
255.01 28.87 m
0 155.47 l
o
np
268.46 28.87 m
0 155.47 l
o
np
281.91 28.87 m
0 155.47 l
o
np
295.35 28.87 m
0 155.47 l
o
np
308.80 28.87 m
0 155.47 l
o
0 0 0 srgb
0.71 setlinewidth
[] 0 setdash
1 setlinecap
187.76 99.54 1.95 c p1
187.76 135.11 1.95 c p1
187.76 131.11 1.95 c p1
187.76 94.71 1.95 c p1
/bg { 0 0 0 srgb } def
53.27 110.26 1.95 c p2
53.27 106.37 1.95 c p2
53.27 104.13 1.95 c p2
53.27 97.77 1.95 c p2
201.21 119.56 1.95 c p1
201.21 124.16 1.95 c p1
201.21 154.43 1.95 c p1
201.21 91.18 1.95 c p1
214.66 112.85 1.95 c p1
214.66 111.08 1.95 c p1
214.66 157.61 1.95 c p1
214.66 75.75 1.95 c p1
66.72 119.92 1.95 c p2
66.72 107.43 1.95 c p2
66.72 106.61 1.95 c p2
66.72 95.42 1.95 c p2
228.11 150.07 1.95 c p1
228.11 126.28 1.95 c p1
228.11 97.77 1.95 c p1
228.11 143.83 1.95 c p1
80.17 117.09 1.95 c p2
80.17 139.47 1.95 c p2
80.17 167.50 1.95 c p2
80.17 115.21 1.95 c p2
241.56 78.93 1.95 c p1
241.56 103.43 1.95 c p1
241.56 106.73 1.95 c p1
241.56 85.05 1.95 c p1
93.62 139.23 1.95 c p2
93.62 116.85 1.95 c p2
93.62 105.55 1.95 c p2
93.62 136.88 1.95 c p2
107.07 125.92 1.95 c p2
107.07 125.69 1.95 c p2
107.07 97.42 1.95 c p2
107.07 122.51 1.95 c p2
255.01 115.21 1.95 c p1
255.01 96.95 1.95 c p1
255.01 79.16 1.95 c p1
255.01 123.69 1.95 c p1
120.52 144.42 1.95 c p2
120.52 120.86 1.95 c p2
120.52 90.94 1.95 c p2
120.52 112.85 1.95 c p2
133.97 82.23 1.95 c p2
133.97 120.74 1.95 c p2
133.97 113.20 1.95 c p2
133.97 108.49 1.95 c p2
268.46 145.59 1.95 c p1
268.46 133.93 1.95 c p1
268.46 119.92 1.95 c p1
268.46 112.61 1.95 c p1
147.42 153.01 1.95 c p2
147.42 137.47 1.95 c p2
147.42 126.98 1.95 c p2
147.42 116.62 1.95 c p2
160.86 145.59 1.95 c p2
160.86 113.56 1.95 c p2
160.86 119.21 1.95 c p2
160.86 100.84 1.95 c p2
281.91 112.61 1.95 c p1
281.91 161.85 1.95 c p1
281.91 112.73 1.95 c p1
281.91 115.21 1.95 c p1
295.35 114.15 1.95 c p1
295.35 117.68 1.95 c p1
295.35 90.35 1.95 c p1
295.35 157.25 1.95 c p1
174.31 104.49 1.95 c p2
174.31 125.92 1.95 c p2
174.31 97.89 1.95 c p2
174.31 119.21 1.95 c p2
308.80 112.03 1.95 c p1
308.80 161.14 1.95 c p1
308.80 84.11 1.95 c p1
308.80 105.78 1.95 c p1
0.2000 0.2000 0.2000 srgb
1.45 setlinewidth
[] 0 setdash
45.20 28.87 271.67 155.47 r p1
45.20 28.87 316.87 184.34 cl
45.20 28.87 316.87 184.34 cl
0.00 0.00 720.00 216.00 cl
369.55 28.87 641.22 184.34 cl
369.55 28.87 641.22 184.34 cl
/bg { 1 1 1 srgb } def
369.55 28.87 271.67 155.47 r p2
0.9216 0.9216 0.9216 srgb
0.73 setlinewidth
[] 0 setdash
0 setlinecap
1 setlinejoin
10.00 setmiterlimit
np
369.55 77.16 m
271.67 0 l
o
np
369.55 136.05 m
271.67 0 l
o
1.45 setlinewidth
[] 0 setdash
np
369.55 47.72 m
271.67 0 l
o
np
369.55 106.61 m
271.67 0 l
o
np
369.55 165.50 m
271.67 0 l
o
np
377.62 28.87 m
0 155.47 l
o
np
391.07 28.87 m
0 155.47 l
o
np
404.52 28.87 m
0 155.47 l
o
np
417.96 28.87 m
0 155.47 l
o
np
431.41 28.87 m
0 155.47 l
o
np
444.86 28.87 m
0 155.47 l
o
np
458.31 28.87 m
0 155.47 l
o
np
471.76 28.87 m
0 155.47 l
o
np
485.21 28.87 m
0 155.47 l
o
np
498.66 28.87 m
0 155.47 l
o
np
512.11 28.87 m
0 155.47 l
o
np
525.56 28.87 m
0 155.47 l
o
np
539.01 28.87 m
0 155.47 l
o
np
552.45 28.87 m
0 155.47 l
o
np
565.90 28.87 m
0 155.47 l
o
np
579.35 28.87 m
0 155.47 l
o
np
592.80 28.87 m
0 155.47 l
o
np
606.25 28.87 m
0 155.47 l
o
np
619.70 28.87 m
0 155.47 l
o
np
633.15 28.87 m
0 155.47 l
o
0 0 0 srgb
0.71 setlinewidth
[] 0 setdash
1 setlinecap
512.11 61.03 1.95 c p1
512.11 93.89 1.95 c p1
512.11 94.00 1.95 c p1
512.11 85.52 1.95 c p1
525.56 62.79 1.95 c p1
525.56 92.36 1.95 c p1
525.56 75.63 1.95 c p1
525.56 49.95 1.95 c p1
539.01 73.63 1.95 c p1
539.01 94.95 1.95 c p1
539.01 87.53 1.95 c p1
539.01 74.22 1.95 c p1
/bg { 0 0 0 srgb } def
377.62 68.56 1.95 c p2
377.62 52.66 1.95 c p2
377.62 54.55 1.95 c p2
377.62 67.27 1.95 c p2
391.07 47.13 1.95 c p2
391.07 68.56 1.95 c p2
391.07 54.19 1.95 c p2
391.07 63.26 1.95 c p2
404.52 49.72 1.95 c p2
404.52 60.20 1.95 c p2
404.52 56.31 1.95 c p2
404.52 56.08 1.95 c p2
417.96 49.48 1.95 c p2
417.96 56.79 1.95 c p2
417.96 63.85 1.95 c p2
417.96 77.51 1.95 c p2
431.41 54.55 1.95 c p2
431.41 59.61 1.95 c p2
431.41 72.92 1.95 c p2
431.41 56.67 1.95 c p2
444.86 47.95 1.95 c p2
444.86 58.91 1.95 c p2
444.86 57.37 1.95 c p2
444.86 53.72 1.95 c p2
552.45 67.15 1.95 c p1
552.45 83.52 1.95 c p1
552.45 67.15 1.95 c p1
552.45 89.53 1.95 c p1
565.90 64.79 1.95 c p1
565.90 97.07 1.95 c p1
565.90 85.76 1.95 c p1
565.90 79.28 1.95 c p1
458.31 64.68 1.95 c p2
458.31 58.79 1.95 c p2
458.31 75.87 1.95 c p2
458.31 50.07 1.95 c p2
579.35 85.29 1.95 c p1
579.35 65.50 1.95 c p1
579.35 72.57 1.95 c p1
579.35 60.91 1.95 c p1
592.80 76.69 1.95 c p1
592.80 83.29 1.95 c p1
592.80 82.70 1.95 c p1
592.80 93.65 1.95 c p1
471.76 56.20 1.95 c p2
471.76 72.10 1.95 c p2
471.76 42.42 1.95 c p2
471.76 60.79 1.95 c p2
606.25 72.33 1.95 c p1
606.25 79.87 1.95 c p1
606.25 53.37 1.95 c p1
606.25 76.45 1.95 c p1
485.21 59.38 1.95 c p2
485.21 62.56 1.95 c p2
485.21 71.86 1.95 c p2
485.21 73.04 1.95 c p2
619.70 74.10 1.95 c p1
619.70 59.02 1.95 c p1
619.70 81.28 1.95 c p1
619.70 84.94 1.95 c p1
633.15 68.68 1.95 c p1
633.15 93.77 1.95 c p1
633.15 82.23 1.95 c p1
633.15 83.88 1.95 c p1
498.66 43.00 1.95 c p2
498.66 55.96 1.95 c p2
498.66 77.63 1.95 c p2
498.66 53.02 1.95 c p2
0.2000 0.2000 0.2000 srgb
1.45 setlinewidth
[] 0 setdash
369.55 28.87 271.67 155.47 r p1
369.55 28.87 641.22 184.34 cl
369.55 28.87 641.22 184.34 cl
0.00 0.00 720.00 216.00 cl
45.20 0.00 316.87 28.87 cl
45.20 0.00 316.87 28.87 cl
45.20 0.00 316.87 28.87 cl
0.00 0.00 720.00 216.00 cl
0.00 0.00 720.00 216.00 cl
0.2000 0.2000 0.2000 srgb
1.45 setlinewidth
[] 0 setdash
0 setlinecap
1 setlinejoin
10.00 setmiterlimit
np
53.27 25.13 m
0 3.74 l
o
np
66.72 25.13 m
0 3.74 l
o
np
80.17 25.13 m
0 3.74 l
o
np
93.62 25.13 m
0 3.74 l
o
np
107.07 25.13 m
0 3.74 l
o
np
120.52 25.13 m
0 3.74 l
o
np
133.97 25.13 m
0 3.74 l
o
np
147.42 25.13 m
0 3.74 l
o
np
160.86 25.13 m
0 3.74 l
o
np
174.31 25.13 m
0 3.74 l
o
np
187.76 25.13 m
0 3.74 l
o
np
201.21 25.13 m
0 3.74 l
o
np
214.66 25.13 m
0 3.74 l
o
np
228.11 25.13 m
0 3.74 l
o
np
241.56 25.13 m
0 3.74 l
o
np
255.01 25.13 m
0 3.74 l
o
np
268.46 25.13 m
0 3.74 l
o
np
281.91 25.13 m
0 3.74 l
o
np
295.35 25.13 m
0 3.74 l
o
np
308.80 25.13 m
0 3.74 l
o
0.00 0.00 720.00 216.00 cl
0.00 0.00 720.00 216.00 cl
0.00 0.00 720.00 216.00 cl
0.00 0.00 720.00 216.00 cl
0.00 0.00 720.00 216.00 cl
45.20 0.00 316.87 28.87 cl
0.00 0.00 720.00 216.00 cl
/Font1 findfont 15 s
0 0 0 srgb
181.04 10.63 (Mesocosm) .5 0 t
0.00 0.00 720.00 216.00 cl
45.20 0.00 316.87 28.87 cl
0.00 0.00 720.00 216.00 cl
45.20 0.00 316.87 28.87 cl
45.20 0.00 316.87 -0.00 cl
45.20 0.00 316.87 28.87 cl
45.20 0.00 316.87 28.87 cl
0.00 0.00 720.00 216.00 cl
369.55 0.00 641.22 28.87 cl
369.55 0.00 641.22 28.87 cl
369.55 0.00 641.22 28.87 cl
0.00 0.00 720.00 216.00 cl
0.00 0.00 720.00 216.00 cl
0.2000 0.2000 0.2000 srgb
1.45 setlinewidth
[] 0 setdash
0 setlinecap
1 setlinejoin
10.00 setmiterlimit
np
377.62 25.13 m
0 3.74 l
o
np
391.07 25.13 m
0 3.74 l
o
np
404.52 25.13 m
0 3.74 l
o
np
417.96 25.13 m
0 3.74 l
o
np
431.41 25.13 m
0 3.74 l
o
np
444.86 25.13 m
0 3.74 l
o
np
458.31 25.13 m
0 3.74 l
o
np
471.76 25.13 m
0 3.74 l
o
np
485.21 25.13 m
0 3.74 l
o
np
498.66 25.13 m
0 3.74 l
o
np
512.11 25.13 m
0 3.74 l
o
np
525.56 25.13 m
0 3.74 l
o
np
539.01 25.13 m
0 3.74 l
o
np
552.45 25.13 m
0 3.74 l
o
np
565.90 25.13 m
0 3.74 l
o
np
579.35 25.13 m
0 3.74 l
o
np
592.80 25.13 m
0 3.74 l
o
np
606.25 25.13 m
0 3.74 l
o
np
619.70 25.13 m
0 3.74 l
o
np
633.15 25.13 m
0 3.74 l
o
0.00 0.00 720.00 216.00 cl
0.00 0.00 720.00 216.00 cl
0.00 0.00 720.00 216.00 cl
0.00 0.00 720.00 216.00 cl
0.00 0.00 720.00 216.00 cl
369.55 0.00 641.22 28.87 cl
0.00 0.00 720.00 216.00 cl
/Font1 findfont 15 s
0 0 0 srgb
505.38 10.63 (Mesocosm) .5 0 t
0.00 0.00 720.00 216.00 cl
369.55 0.00 641.22 28.87 cl
0.00 0.00 720.00 216.00 cl
369.55 0.00 641.22 28.87 cl
369.55 0.00 641.22 -0.00 cl
369.55 0.00 641.22 28.87 cl
369.55 0.00 641.22 28.87 cl
0.00 0.00 720.00 216.00 cl
316.87 184.34 324.35 216.00 cl
0.00 0.00 720.00 216.00 cl
641.22 184.34 720.00 216.00 cl
0.00 0.00 720.00 216.00 cl
316.87 28.87 324.35 184.34 cl
0.00 0.00 720.00 216.00 cl
316.87 28.87 324.35 184.34 cl
0.00 0.00 720.00 216.00 cl
316.87 28.87 324.35 184.34 cl
324.35 28.87 324.35 184.34 cl
316.87 28.87 324.35 184.34 cl
316.87 28.87 324.35 184.34 cl
0.00 0.00 720.00 216.00 cl
641.22 28.87 720.00 184.34 cl
0.00 0.00 720.00 216.00 cl
641.22 28.87 720.00 184.34 cl
0.00 0.00 720.00 216.00 cl
641.22 28.87 720.00 184.34 cl
0.00 0.00 720.00 216.00 cl
0.00 0.00 720.00 216.00 cl
0.00 0.00 720.00 216.00 cl
0.00 0.00 720.00 216.00 cl
0.00 0.00 720.00 216.00 cl
/bg { 1 1 1 srgb } def
656.16 71.17 56.37 70.87 r p2
0.00 0.00 720.00 216.00 cl
0.00 0.00 720.00 216.00 cl
0.00 0.00 720.00 216.00 cl
0.00 0.00 720.00 216.00 cl
0.00 0.00 720.00 216.00 cl
0.00 0.00 720.00 216.00 cl
0.00 0.00 720.00 216.00 cl
0.00 0.00 720.00 216.00 cl
/bg { 1 1 1 srgb } def
663.63 95.92 17.28 17.28 r p2
0.00 0.00 720.00 216.00 cl
0.00 0.00 720.00 216.00 cl
/bg { 0 0 0 srgb } def
672.27 104.56 1.95 c p2
0.00 0.00 720.00 216.00 cl
0.00 0.00 720.00 216.00 cl
/bg { 1 1 1 srgb } def
663.63 78.64 17.28 17.28 r p2
0.00 0.00 720.00 216.00 cl
0.00 0.00 720.00 216.00 cl
0 0 0 srgb
0.71 setlinewidth
[] 0 setdash
1 setlinecap
1 setlinejoin
10.00 setmiterlimit
672.27 87.28 1.95 c p1
0.00 0.00 720.00 216.00 cl
0.00 0.00 720.00 216.00 cl
0.00 0.00 720.00 216.00 cl
0.00 0.00 720.00 216.00 cl
/Font1 findfont 12 s
0 0 0 srgb
688.39 100.26 (HP) 0 0 t
0.00 0.00 720.00 216.00 cl
0.00 0.00 720.00 216.00 cl
0.00 0.00 720.00 216.00 cl
0.00 0.00 720.00 216.00 cl
0.00 0.00 720.00 216.00 cl
0.00 0.00 720.00 216.00 cl
/Font1 findfont 12 s
0 0 0 srgb
688.39 82.98 (LP) 0 0 t
0.00 0.00 720.00 216.00 cl
0.00 0.00 720.00 216.00 cl
0.00 0.00 720.00 216.00 cl
0.00 0.00 720.00 216.00 cl
0.00 0.00 720.00 216.00 cl
0.00 0.00 720.00 216.00 cl
641.22 28.87 720.00 184.34 cl
720.00 28.87 720.00 184.34 cl
641.22 28.87 720.00 184.34 cl
641.22 28.87 720.00 184.34 cl
0.00 0.00 720.00 216.00 cl
316.87 0.00 324.35 28.87 cl
0.00 0.00 720.00 216.00 cl
641.22 0.00 720.00 28.87 cl
0.00 0.00 720.00 216.00 cl
0.00 0.00 720.00 216.00 cl
/Font4 findfont 14 s
0 0 0 srgb
-0.00 205.95 (A) 0 0 t
0.00 0.00 720.00 216.00 cl
0.00 0.00 720.00 216.00 cl
/Font4 findfont 14 s
0 0 0 srgb
324.35 205.95 (B) 0 0 t
0.00 0.00 720.00 216.00 cl
0.00 0.00 720.00 216.00 cl
ep
%%Trailer
%%Pages: 1
%%EOF
