#,Date-Time (CST),Ch: 1 - Temperature   (°C),Ch: 2 - Light   (lux),Button Down,Button Up,Host Connected,End of File
1,07/30/2021 11:30:00,31.14,15713.28,,,,
2,07/30/2021 12:00:00,32.00,16250.88,,,,
3,07/30/2021 12:30:00,38.82,38830.08,,,,
4,07/30/2021 13:00:00,46.80,49192.96,,,,
5,07/30/2021 13:30:00,47.75,49868.80,,,,
6,07/30/2021 14:00:00,47.66,50053.12,,,,
7,07/30/2021 14:30:00,49.42,49152.00,,,,
8,07/30/2021 15:00:00,49.38,47308.80,,,,
9,07/30/2021 15:30:00,48.56,44462.08,,,,
10,07/30/2021 16:00:00,47.49,38881.28,,,,
11,07/30/2021 16:30:00,46.03,33556.48,,,,
12,07/30/2021 17:00:00,44.91,16235.52,,,,
13,07/30/2021 17:30:00,40.97,21196.80,,,,
14,07/30/2021 18:00:00,33.63,9280.00,,,,
15,07/30/2021 18:30:00,30.97,6428.16,,,,
16,07/30/2021 19:00:00,29.60,3557.12,,,,
17,07/30/2021 19:30:00,27.63,1456.64,,,,
18,07/30/2021 20:00:00,25.78,353.76,,,,
19,07/30/2021 20:30:00,24.41,9.72,,,,
20,07/30/2021 21:00:00,23.76,0.00,,,,
21,07/30/2021 21:30:00,23.42,0.00,,,,
22,07/30/2021 22:00:00,23.55,0.00,,,,
23,07/30/2021 22:30:00,23.16,0.00,,,,
24,07/30/2021 23:00:00,22.99,0.00,,,,
25,07/30/2021 23:30:00,22.78,0.00,,,,
26,07/31/2021 00:00:00,22.22,0.00,,,,
27,07/31/2021 00:30:00,22.43,0.00,,,,
28,07/31/2021 01:00:00,22.35,0.00,,,,
29,07/31/2021 01:30:00,22.39,0.00,,,,
30,07/31/2021 02:00:00,22.56,0.00,,,,
31,07/31/2021 02:30:00,21.62,0.00,,,,
32,07/31/2021 03:00:00,21.70,0.00,,,,
33,07/31/2021 03:30:00,22.09,0.00,,,,
34,07/31/2021 04:00:00,21.83,0.00,,,,
35,07/31/2021 04:30:00,22.22,0.00,,,,
36,07/31/2021 05:00:00,22.39,0.00,,,,
37,07/31/2021 05:30:00,22.65,0.00,,,,
38,07/31/2021 06:00:00,22.48,47.50,,,,
39,07/31/2021 06:30:00,22.48,713.60,,,,
40,07/31/2021 07:00:00,23.08,1368.96,,,,
41,07/31/2021 07:30:00,23.64,2814.72,,,,
42,07/31/2021 08:00:00,23.51,3289.60,,,,
43,07/31/2021 08:30:00,25.74,5698.56,,,,
44,07/31/2021 09:00:00,24.75,4874.24,,,,
45,07/31/2021 09:30:00,24.19,2631.68,,,,
46,07/31/2021 10:00:00,21.49,491.04,,,,
47,07/31/2021 10:30:00,20.85,635.52,,,,
48,07/31/2021 11:00:00,21.02,2185.60,,,,
49,07/31/2021 11:30:00,22.01,5516.80,,,,
50,07/31/2021 12:00:00,22.69,5173.76,,,,
51,07/31/2021 12:30:00,26.55,26859.52,,,,
52,07/31/2021 13:00:00,29.26,20080.64,,,,
53,07/31/2021 13:30:00,35.65,41031.68,,,,
54,07/31/2021 14:00:00,32.22,17244.16,,,,
55,07/31/2021 14:30:00,35.35,46018.56,,,,
56,07/31/2021 15:00:00,32.69,8852.48,,,,
57,07/31/2021 15:30:00,33.97,19604.48,,,,
58,07/31/2021 16:00:00,35.86,19333.12,,,,
59,07/31/2021 16:30:00,29.68,9858.56,,,,
60,07/31/2021 17:00:00,35.35,34959.36,,,,
61,07/31/2021 17:30:00,30.50,5949.44,,,,
62,07/31/2021 18:00:00,28.57,3255.04,,,,
63,07/31/2021 18:30:00,25.87,2119.04,,,,
64,07/31/2021 19:00:00,25.18,1401.60,,,,
65,07/31/2021 19:30:00,24.41,387.52,,,,
66,07/31/2021 20:00:00,23.68,108.12,,,,
67,07/31/2021 20:30:00,23.03,7.12,,,,
68,07/31/2021 21:00:00,22.78,0.00,,,,
69,07/31/2021 21:30:00,22.43,0.00,,,,
70,07/31/2021 22:00:00,22.05,0.00,,,,
71,07/31/2021 22:30:00,21.70,0.00,,,,
72,07/31/2021 23:00:00,21.28,0.00,,,,
73,07/31/2021 23:30:00,20.72,0.00,,,,
74,08/01/2021 00:00:00,20.59,0.00,,,,
75,08/01/2021 00:30:00,20.50,0.00,,,,
76,08/01/2021 01:00:00,19.77,0.00,,,,
77,08/01/2021 01:30:00,18.36,0.00,,,,
78,08/01/2021 02:00:00,17.89,0.00,,,,
79,08/01/2021 02:30:00,17.33,0.00,,,,
80,08/01/2021 03:00:00,16.94,0.00,,,,
81,08/01/2021 03:30:00,16.64,0.00,,,,
82,08/01/2021 04:00:00,16.47,0.00,,,,
83,08/01/2021 04:30:00,16.17,0.00,,,,
84,08/01/2021 05:00:00,16.04,0.00,,,,
85,08/01/2021 05:30:00,15.91,0.00,,,,
86,08/01/2021 06:00:00,16.56,89.20,,,,
87,08/01/2021 06:30:00,16.56,819.84,,,,
88,08/01/2021 07:00:00,17.37,2089.60,,,,
89,08/01/2021 07:30:00,18.36,3452.16,,,,
90,08/01/2021 08:00:00,19.13,4943.36,,,,
91,08/01/2021 08:30:00,20.33,7024.64,,,,
92,08/01/2021 09:00:00,22.78,7244.80,,,,
93,08/01/2021 09:30:00,23.12,7677.44,,,,
94,08/01/2021 10:00:00,24.32,8778.24,,,,
95,08/01/2021 10:30:00,25.57,10099.20,,,,
96,08/01/2021 11:00:00,26.81,12088.32,,,,
97,08/01/2021 11:30:00,29.68,15841.28,,,,
98,08/01/2021 12:00:00,30.24,14673.92,,,,
99,08/01/2021 12:30:00,34.79,38983.68,,,,
100,08/01/2021 13:00:00,39.29,15621.12,,,,
101,08/01/2021 13:30:00,41.95,20039.68,,,,
102,08/01/2021 14:00:00,47.36,50647.04,,,,
103,08/01/2021 14:30:00,42.68,46018.56,,,,
104,08/01/2021 15:00:00,41.31,46243.84,,,,
105,08/01/2021 15:30:00,46.07,44032.00,,,,
106,08/01/2021 16:00:00,42.17,38881.28,,,,
107,08/01/2021 16:30:00,43.58,31672.32,,,,
108,08/01/2021 17:00:00,42.98,25282.56,,,,
109,08/01/2021 17:30:00,38.99,18856.96,,,,
110,08/01/2021 18:00:00,30.80,9218.56,,,,
111,08/01/2021 18:30:00,27.84,6287.36,,,,
112,08/01/2021 19:00:00,26.30,4471.04,,,,
113,08/01/2021 19:30:00,24.54,1784.32,,,,
114,08/01/2021 20:00:00,23.12,445.60,,,,
115,08/01/2021 20:30:00,22.09,9.97,,,,
116,08/01/2021 21:00:00,21.19,0.00,,,,
117,08/01/2021 21:30:00,20.55,0.00,,,,
118,08/01/2021 22:00:00,20.29,0.00,,,,
119,08/01/2021 22:30:00,19.47,0.00,,,,
120,08/01/2021 23:00:00,19.13,0.00,,,,
121,08/01/2021 23:30:00,18.83,0.00,,,,
122,08/02/2021 00:00:00,18.53,0.00,,,,
123,08/02/2021 00:30:00,18.19,0.00,,,,
124,08/02/2021 01:00:00,18.06,0.00,,,,
125,08/02/2021 01:30:00,17.67,0.00,,,,
126,08/02/2021 02:00:00,17.59,0.00,,,,
127,08/02/2021 02:30:00,17.46,0.00,,,,
128,08/02/2021 03:00:00,17.24,0.00,,,,
129,08/02/2021 03:30:00,17.16,0.00,,,,
130,08/02/2021 04:00:00,17.07,0.00,,,,
131,08/02/2021 04:30:00,16.99,0.00,,,,
132,08/02/2021 05:00:00,16.73,0.00,,,,
133,08/02/2021 05:30:00,16.47,0.00,,,,
134,08/02/2021 06:00:00,16.26,76.22,,,,
135,08/02/2021 06:30:00,16.39,755.84,,,,
136,08/02/2021 07:00:00,16.77,1788.80,,,,
137,08/02/2021 07:30:00,17.63,2736.64,,,,
138,08/02/2021 08:00:00,18.62,3653.12,,,,
139,08/02/2021 08:30:00,19.95,5000.96,,,,
140,08/02/2021 09:00:00,22.26,5736.96,,,,
141,08/02/2021 09:30:00,21.96,6566.40,,,,
142,08/02/2021 10:00:00,23.89,8276.48,,,,
143,08/02/2021 10:30:00,25.18,9512.96,,,,
144,08/02/2021 11:00:00,28.74,14878.72,,,,
145,08/02/2021 11:30:00,29.30,16675.84,,,,
146,08/02/2021 12:00:00,29.90,14914.56,,,,
147,08/02/2021 12:30:00,38.99,45281.28,,,,
148,08/02/2021 13:00:00,47.10,52592.64,,,,
149,08/02/2021 13:30:00,44.83,39239.68,,,,
150,08/02/2021 14:00:00,46.59,51159.04,,,,
151,08/02/2021 14:30:00,48.00,50401.28,,,,
152,08/02/2021 15:00:00,38.14,45834.24,,,,
153,08/02/2021 15:30:00,38.65,14540.80,,,,
154,08/02/2021 16:00:00,44.06,38871.04,,,,
155,08/02/2021 16:30:00,44.74,38072.32,,,,
156,08/02/2021 17:00:00,42.04,28497.92,,,,
157,08/02/2021 17:30:00,38.52,19502.08,,,,
158,08/02/2021 18:00:00,29.51,5964.80,,,,
159,08/02/2021 18:30:00,27.58,5429.76,,,,
160,08/02/2021 19:00:00,24.71,3139.84,,,,
161,08/02/2021 19:30:00,22.73,1799.04,,,,
162,08/02/2021 20:00:00,21.23,455.04,,,,
163,08/02/2021 20:30:00,19.77,7.33,,,,
164,08/02/2021 21:00:00,18.87,0.00,,,,
165,08/02/2021 21:30:00,18.32,0.00,,,,
166,08/02/2021 22:00:00,17.76,0.00,,,,
167,08/02/2021 22:30:00,17.20,0.00,,,,
168,08/02/2021 23:00:00,17.33,0.00,,,,
169,08/02/2021 23:30:00,16.77,0.00,,,,
170,08/03/2021 00:00:00,16.47,0.00,,,,
171,08/03/2021 00:30:00,16.13,0.00,,,,
172,08/03/2021 01:00:00,16.26,0.00,,,,
173,08/03/2021 01:30:00,16.60,0.00,,,,
174,08/03/2021 02:00:00,16.86,0.00,,,,
175,08/03/2021 02:30:00,17.37,0.00,,,,
176,08/03/2021 03:00:00,16.90,0.00,,,,
177,08/03/2021 03:30:00,16.86,0.00,,,,
178,08/03/2021 04:00:00,17.03,0.00,,,,
179,08/03/2021 04:30:00,17.20,0.00,,,,
180,08/03/2021 05:00:00,16.99,0.00,,,,
181,08/03/2021 05:30:00,16.17,0.00,,,,
182,08/03/2021 06:00:00,15.70,67.08,,,,
183,08/03/2021 06:30:00,15.61,776.32,,,,
184,08/03/2021 07:00:00,16.04,1761.92,,,,
185,08/03/2021 07:30:00,16.99,2590.08,,,,
186,08/03/2021 08:00:00,18.06,3260.16,,,,
187,08/03/2021 08:30:00,19.30,3965.44,,,,
188,08/03/2021 09:00:00,22.35,4835.84,,,,
189,08/03/2021 09:30:00,22.52,6620.16,,,,
190,08/03/2021 10:00:00,23.42,6008.32,,,,
191,08/03/2021 10:30:00,24.02,6968.32,,,,
192,08/03/2021 11:00:00,25.91,9651.20,,,,
193,08/03/2021 11:30:00,29.26,14735.36,,,,
194,08/03/2021 12:00:00,30.28,18672.64,,,,
195,08/03/2021 12:30:00,40.02,69898.24,,,,
196,08/03/2021 13:00:00,40.92,15452.16,,,,
197,08/03/2021 13:30:00,47.49,76902.40,,,,
198,08/03/2021 14:00:00,44.91,70000.64,,,,
199,08/03/2021 14:30:00,33.33,20904.96,,,,
200,08/03/2021 15:00:00,32.52,8317.44,,,,
201,08/03/2021 15:30:00,38.86,58163.20,,,,
202,08/03/2021 16:00:00,31.57,11115.52,,,,
203,08/03/2021 16:30:00,30.97,35543.04,,,,
204,08/03/2021 17:00:00,28.14,6986.24,,,,
205,08/03/2021 17:30:00,25.82,6407.68,,,,
206,08/03/2021 18:00:00,25.78,5200.64,,,,
207,08/03/2021 18:30:00,23.25,3587.84,,,,
208,08/03/2021 19:00:00,21.96,2510.72,,,,
209,08/03/2021 19:30:00,20.68,1601.92,,,,
210,08/03/2021 20:00:00,19.17,442.40,,,,
211,08/03/2021 20:30:00,18.10,5.61,,,,
212,08/03/2021 21:00:00,17.41,0.00,,,,
213,08/03/2021 21:30:00,16.81,0.00,,,,
214,08/03/2021 22:00:00,16.26,0.00,,,,
215,08/03/2021 22:30:00,15.91,0.00,,,,
216,08/03/2021 23:00:00,15.66,0.00,,,,
217,08/03/2021 23:30:00,15.53,0.00,,,,
218,08/04/2021 00:00:00,15.31,0.00,,,,
219,08/04/2021 00:30:00,15.14,0.00,,,,
220,08/04/2021 01:00:00,15.01,0.00,,,,
221,08/04/2021 01:30:00,14.84,0.00,,,,
222,08/04/2021 02:00:00,14.67,0.00,,,,
223,08/04/2021 02:30:00,14.54,0.00,,,,
224,08/04/2021 03:00:00,14.33,0.00,,,,
225,08/04/2021 03:30:00,14.20,0.00,,,,
226,08/04/2021 04:00:00,14.11,0.00,,,,
227,08/04/2021 04:30:00,13.94,0.00,,,,
228,08/04/2021 05:00:00,13.81,0.00,,,,
229,08/04/2021 05:30:00,13.60,0.00,,,,
230,08/04/2021 06:00:00,13.55,52.78,,,,
231,08/04/2021 06:30:00,13.73,659.84,,,,
232,08/04/2021 07:00:00,14.15,1621.76,,,,
233,08/04/2021 07:30:00,15.06,2454.40,,,,
234,08/04/2021 08:00:00,16.39,3164.16,,,,
235,08/04/2021 08:30:00,17.89,3587.84,,,,
236,08/04/2021 09:00:00,21.45,4568.32,,,,
237,08/04/2021 09:30:00,20.93,6860.80,,,,
238,08/04/2021 10:00:00,21.75,4870.40,,,,
239,08/04/2021 10:30:00,22.82,5488.64,,,,
240,08/04/2021 11:00:00,25.01,6615.04,,,,
241,08/04/2021 11:30:00,26.85,10257.92,,,,
242,08/04/2021 12:00:00,29.21,16701.44,,,,
243,08/04/2021 12:30:00,39.81,68710.40,,,,
244,08/04/2021 13:00:00,39.59,71495.68,,,,
245,08/04/2021 13:30:00,44.27,71024.64,,,,
246,08/04/2021 14:00:00,46.12,70246.40,,,,
247,08/04/2021 14:30:00,48.73,66478.08,,,,
248,08/04/2021 15:00:00,36.63,15400.96,,,,
249,08/04/2021 15:30:00,41.87,18201.60,,,,
250,08/04/2021 16:00:00,42.30,22231.04,,,,
251,08/04/2021 16:30:00,44.66,36270.08,,,,
252,08/04/2021 17:00:00,42.85,32071.68,,,,
253,08/04/2021 17:30:00,41.44,24340.48,,,,
254,08/04/2021 18:00:00,28.91,7979.52,,,,
255,08/04/2021 18:30:00,26.81,4668.16,,,,
256,08/04/2021 19:00:00,24.24,2856.96,,,,
257,08/04/2021 19:30:00,22.48,1446.40,,,,
258,08/04/2021 20:00:00,20.89,334.08,,,,
259,08/04/2021 20:30:00,19.73,3.68,,,,
260,08/04/2021 21:00:00,18.96,0.00,,,,
261,08/04/2021 21:30:00,18.19,0.00,,,,
262,08/04/2021 22:00:00,17.72,0.00,,,,
263,08/04/2021 22:30:00,17.20,0.00,,,,
264,08/04/2021 23:00:00,16.81,0.00,,,,
265,08/04/2021 23:30:00,16.43,0.00,,,,
266,08/05/2021 00:00:00,16.17,0.00,,,,
267,08/05/2021 00:30:00,15.96,0.00,,,,
268,08/05/2021 01:00:00,15.70,0.00,,,,
269,08/05/2021 01:30:00,15.48,0.00,,,,
270,08/05/2021 02:00:00,15.31,0.00,,,,
271,08/05/2021 02:30:00,15.18,0.00,,,,
272,08/05/2021 03:00:00,15.01,0.00,,,,
273,08/05/2021 03:30:00,14.75,0.00,,,,
274,08/05/2021 04:00:00,14.63,0.00,,,,
275,08/05/2021 04:30:00,14.50,0.00,,,,
276,08/05/2021 05:00:00,14.24,0.00,,,,
277,08/05/2021 05:30:00,14.20,0.00,,,,
278,08/05/2021 06:00:00,13.94,48.48,,,,
279,08/05/2021 06:30:00,14.03,687.36,,,,
280,08/05/2021 07:00:00,14.54,1538.56,,,,
281,08/05/2021 07:30:00,15.40,2247.68,,,,
282,08/05/2021 08:00:00,16.64,3002.88,,,,
283,08/05/2021 08:30:00,18.10,3738.88,,,,
284,08/05/2021 09:00:00,20.46,4485.12,,,,
285,08/05/2021 09:30:00,21.10,4994.56,,,,
286,08/05/2021 10:00:00,22.52,5644.80,,,,
287,08/05/2021 10:30:00,24.84,6415.36,,,,
288,08/05/2021 11:00:00,26.77,8468.48,,,,
289,08/05/2021 11:30:00,28.05,8957.44,,,,
290,08/05/2021 12:00:00,28.91,10421.76,,,,
291,08/05/2021 12:30:00,41.44,58060.80,,,,
292,08/05/2021 13:00:00,44.01,55459.84,,,,
293,08/05/2021 13:30:00,46.50,60047.36,,,,
294,08/05/2021 14:00:00,48.65,53719.04,,,,
295,08/05/2021 14:30:00,43.76,27576.32,,,,
296,08/05/2021 15:00:00,46.16,48721.92,,,,
297,08/05/2021 15:30:00,38.56,18201.60,,,,
298,08/05/2021 16:00:00,38.86,35440.64,,,,
299,08/05/2021 16:30:00,38.05,22487.04,,,,
300,08/05/2021 17:00:00,33.16,11555.84,,,,
301,08/05/2021 17:30:00,29.56,9287.68,,,,
302,08/05/2021 18:00:00,27.37,3852.80,,,,
303,08/05/2021 18:30:00,25.39,3612.16,,,,
304,08/05/2021 19:00:00,25.35,4175.36,,,,
305,08/05/2021 19:30:00,24.32,1085.12,,,,
306,08/05/2021 20:00:00,23.03,165.20,,,,
307,08/05/2021 20:30:00,22.52,2.15,,,,
308,08/05/2021 21:00:00,22.01,0.00,,,,
309,08/05/2021 21:30:00,21.62,0.00,,,,
310,08/05/2021 22:00:00,21.62,0.00,,,,
311,08/05/2021 22:30:00,21.23,0.00,,,,
312,08/05/2021 23:00:00,20.76,0.00,,,,
313,08/05/2021 23:30:00,21.32,0.00,,,,
314,08/06/2021 00:00:00,22.09,0.00,,,,
315,08/06/2021 00:30:00,22.65,0.00,,,,
316,08/06/2021 01:00:00,22.22,0.00,,,,
317,08/06/2021 01:30:00,22.26,0.00,,,,
318,08/06/2021 02:00:00,21.45,0.00,,,,
319,08/06/2021 02:30:00,20.20,0.00,,,,
320,08/06/2021 03:00:00,19.95,0.00,,,,
321,08/06/2021 03:30:00,19.82,0.00,,,,
322,08/06/2021 04:00:00,19.65,0.00,,,,
323,08/06/2021 04:30:00,19.13,0.00,,,,
324,08/06/2021 05:00:00,18.79,0.00,,,,
325,08/06/2021 05:30:00,18.62,0.00,,,,
326,08/06/2021 06:00:00,18.62,38.91,,,,
327,08/06/2021 06:30:00,18.87,598.88,,,,
328,08/06/2021 07:00:00,20.03,1216.64,,,,
329,08/06/2021 07:30:00,21.49,3680.00,,,,
330,08/06/2021 08:00:00,24.15,6776.32,,,,
331,08/06/2021 08:30:00,25.52,8276.48,,,,
332,08/06/2021 09:00:00,25.87,10690.56,,,,
333,08/06/2021 09:30:00,27.80,11120.64,,,,
334,08/06/2021 10:00:00,27.93,7580.16,,,,
335,08/06/2021 10:30:00,28.61,13301.76,,,,
336,08/06/2021 11:00:00,33.25,20357.12,,,,
337,08/06/2021 11:30:00,32.86,16783.36,,,,
338,08/06/2021 12:00:00,31.23,12180.48,,,,
339,08/06/2021 12:30:00,34.19,17356.80,,,,
340,08/06/2021 13:00:00,32.13,12011.52,,,,
341,08/06/2021 13:30:00,33.37,17034.24,,,,
342,08/06/2021 14:00:00,41.18,20715.52,,,,
343,08/06/2021 14:30:00,47.14,44421.12,,,,
344,08/06/2021 15:00:00,48.22,41728.00,,,,
345,08/06/2021 15:30:00,48.13,36874.24,,,,
346,08/06/2021 16:00:00,44.79,31303.68,,,,
347,08/06/2021 16:30:00,45.26,24238.08,,,,
348,08/06/2021 17:00:00,40.67,19942.40,,,,
349,08/06/2021 17:30:00,39.47,10127.36,,,,
350,08/06/2021 18:00:00,31.44,6891.52,,,,
351,08/06/2021 18:30:00,28.40,3612.16,,,,
352,08/06/2021 19:00:00,27.67,3793.92,,,,
353,08/06/2021 19:30:00,26.12,1468.80,,,,
354,08/06/2021 20:00:00,24.79,236.48,,,,
355,08/06/2021 20:30:00,24.02,2.58,,,,
356,08/06/2021 21:00:00,22.95,0.00,,,,
357,08/06/2021 21:30:00,22.39,0.00,,,,
358,08/06/2021 22:00:00,22.05,0.00,,,,
359,08/06/2021 22:30:00,21.83,0.00,,,,
360,08/06/2021 23:00:00,21.88,0.00,,,,
361,08/06/2021 23:30:00,21.83,0.00,,,,
362,08/07/2021 00:00:00,21.92,0.00,,,,
363,08/07/2021 00:30:00,21.83,0.00,,,,
364,08/07/2021 01:00:00,22.05,0.00,,,,
365,08/07/2021 01:30:00,22.73,0.00,,,,
366,08/07/2021 02:00:00,22.39,0.00,,,,
367,08/07/2021 02:30:00,22.26,0.00,,,,
368,08/07/2021 03:00:00,22.05,0.00,,,,
369,08/07/2021 03:30:00,21.83,0.00,,,,
370,08/07/2021 04:00:00,21.83,0.00,,,,
371,08/07/2021 04:30:00,21.58,0.00,,,,
372,08/07/2021 05:00:00,21.32,0.00,,,,
373,08/07/2021 05:30:00,21.32,0.00,,,,
374,08/07/2021 06:00:00,20.37,34.13,,,,
375,08/07/2021 06:30:00,20.16,602.88,,,,
376,08/07/2021 07:00:00,20.89,1689.60,,,,
377,08/07/2021 07:30:00,22.09,2778.88,,,,
378,08/07/2021 08:00:00,23.12,3863.04,,,,
379,08/07/2021 08:30:00,24.36,5231.36,,,,
380,08/07/2021 09:00:00,25.69,6074.88,,,,
381,08/07/2021 09:30:00,26.68,7285.76,,,,
382,08/07/2021 10:00:00,27.45,7828.48,,,,
383,08/07/2021 10:30:00,28.65,9361.92,,,,
384,08/07/2021 11:00:00,30.03,10526.72,,,,
385,08/07/2021 11:30:00,32.04,12840.96,,,,
386,08/07/2021 12:00:00,32.82,13475.84,,,,
387,08/07/2021 12:30:00,47.27,49459.20,,,,
388,08/07/2021 13:00:00,46.80,49111.04,,,,
389,08/07/2021 13:30:00,50.06,50442.24,,,,
390,08/07/2021 14:00:00,50.23,49070.08,,,,
391,08/07/2021 14:30:00,50.53,44871.68,,,,
392,08/07/2021 15:00:00,47.32,12938.24,,,,
393,08/07/2021 15:30:00,42.13,13880.32,,,,
394,08/07/2021 16:00:00,50.49,32112.64,,,,
395,08/07/2021 16:30:00,47.70,25784.32,,,,
396,08/07/2021 17:00:00,45.21,21022.72,,,,
397,08/07/2021 17:30:00,42.34,15872.00,,,,
398,08/07/2021 18:00:00,34.66,8427.52,,,,
399,08/07/2021 18:30:00,32.13,5329.92,,,,
400,08/07/2021 19:00:00,28.95,3052.80,,,,
401,08/07/2021 19:30:00,27.37,1401.60,,,,
402,08/07/2021 20:00:00,25.91,277.76,,,,
403,08/07/2021 20:30:00,24.84,1.50,,,,
404,08/07/2021 21:00:00,24.88,0.00,,,,
405,08/07/2021 21:30:00,24.71,0.00,,,,
406,08/07/2021 22:00:00,25.69,0.00,,,,
407,08/07/2021 22:30:00,25.99,0.00,,,,
408,08/07/2021 23:00:00,25.99,0.00,,,,
409,08/07/2021 23:30:00,25.69,0.00,,,,
410,08/08/2021 00:00:00,25.48,0.00,,,,
411,08/08/2021 00:30:00,25.27,0.00,,,,
412,08/08/2021 01:00:00,24.79,0.00,,,,
413,08/08/2021 01:30:00,24.66,0.00,,,,
414,08/08/2021 02:00:00,24.54,0.00,,,,
415,08/08/2021 02:30:00,24.36,0.00,,,,
416,08/08/2021 03:00:00,23.98,0.00,,,,
417,08/08/2021 03:30:00,24.06,0.00,,,,
418,08/08/2021 04:00:00,24.06,0.00,,,,
419,08/08/2021 04:30:00,24.02,0.00,,,,
420,08/08/2021 05:00:00,23.64,0.00,,,,
421,08/08/2021 05:30:00,23.55,0.00,,,,
422,08/08/2021 06:00:00,23.29,22.95,,,,
423,08/08/2021 06:30:00,23.42,658.56,,,,
424,08/08/2021 07:00:00,24.11,1895.04,,,,
425,08/08/2021 07:30:00,24.92,3322.88,,,,
426,08/08/2021 08:00:00,25.52,4348.16,,,,
427,08/08/2021 08:30:00,26.68,9438.72,,,,
428,08/08/2021 09:00:00,27.07,5486.08,,,,
429,08/08/2021 09:30:00,28.18,6625.28,,,,
430,08/08/2021 10:00:00,28.74,7360.00,,,,
431,08/08/2021 10:30:00,30.37,10127.36,,,,
432,08/08/2021 11:00:00,33.89,15590.40,,,,
433,08/08/2021 11:30:00,35.73,18314.24,,,,
434,08/08/2021 12:00:00,37.28,17971.20,,,,
435,08/08/2021 12:30:00,43.33,37529.60,,,,
436,08/08/2021 13:00:00,43.41,35788.80,,,,
437,08/08/2021 13:30:00,43.58,35225.60,,,,
438,08/08/2021 14:00:00,45.60,44851.20,,,,
439,08/08/2021 14:30:00,44.79,31139.84,,,,
440,08/08/2021 15:00:00,47.96,17704.96,,,,
441,08/08/2021 15:30:00,33.80,4083.20,,,,
442,08/08/2021 16:00:00,24.62,254.96,,,,
443,08/08/2021 16:30:00,22.39,492.80,,,,
444,08/08/2021 17:00:00,22.56,1374.08,,,,
445,08/08/2021 17:30:00,22.22,1644.80,,,,
446,08/08/2021 18:00:00,22.48,2684.16,,,,
447,08/08/2021 18:30:00,22.78,2125.44,,,,
448,08/08/2021 19:00:00,22.52,1882.88,,,,
449,08/08/2021 19:30:00,22.22,1316.48,,,,
450,08/08/2021 20:00:00,21.62,122.84,,,,
451,08/08/2021 20:30:00,21.49,0.64,,,,
452,08/08/2021 21:00:00,21.53,0.00,,,,
453,08/08/2021 21:30:00,21.58,0.00,,,,
454,08/08/2021 22:00:00,21.32,0.00,,,,
455,08/08/2021 22:30:00,21.49,0.00,,,,
456,08/08/2021 23:00:00,21.53,0.00,,,,
457,08/08/2021 23:30:00,21.66,0.00,,,,
458,08/09/2021 00:00:00,21.49,0.00,,,,
459,08/09/2021 00:30:00,21.83,0.00,,,,
460,08/09/2021 01:00:00,21.83,0.00,,,,
461,08/09/2021 01:30:00,21.79,0.00,,,,
462,08/09/2021 02:00:00,21.36,0.00,,,,
463,08/09/2021 02:30:00,21.70,0.00,,,,
464,08/09/2021 03:00:00,21.40,0.00,,,,
465,08/09/2021 03:30:00,21.58,0.00,,,,
466,08/09/2021 04:00:00,21.62,0.00,,,,
467,08/09/2021 04:30:00,21.66,0.00,,,,
468,08/09/2021 05:00:00,21.40,0.00,,,,
469,08/09/2021 05:30:00,21.79,0.00,,,,
470,08/09/2021 06:00:00,22.09,14.88,,,,
471,08/09/2021 06:30:00,22.31,268.96,,,,
472,08/09/2021 07:00:00,22.22,889.28,,,,
473,08/09/2021 07:30:00,22.52,1904.00,,,,
474,08/09/2021 08:00:00,23.03,3655.68,,,,
475,08/09/2021 08:30:00,24.02,5324.80,,,,
476,08/09/2021 09:00:00,24.92,7595.52,,,,
477,08/09/2021 09:30:00,26.47,10270.72,,,,
478,08/09/2021 10:00:00,27.88,11054.08,,,,
479,08/09/2021 10:30:00,28.95,10416.64,,,,
480,08/09/2021 11:00:00,32.00,14402.56,,,,
481,08/09/2021 11:30:00,32.90,15754.24,,,,
482,08/09/2021 12:00:00,32.94,13839.36,,,,
483,08/09/2021 12:30:00,42.94,47554.56,,,,
484,08/09/2021 13:00:00,47.45,42229.76,,,,
485,08/09/2021 13:30:00,49.80,48742.40,,,,
486,08/09/2021 14:00:00,45.60,51077.12,,,,
487,08/09/2021 14:30:00,41.10,44748.80,,,,
488,08/09/2021 15:00:00,47.36,23439.36,,,,
489,08/09/2021 15:30:00,33.93,4578.56,,,,
490,08/09/2021 16:00:00,27.93,3914.24,,,,
491,08/09/2021 16:30:00,27.75,5409.28,,,,
492,08/09/2021 17:00:00,36.63,33648.64,,,,
493,08/09/2021 17:30:00,43.80,26572.80,,,,
494,08/09/2021 18:00:00,34.36,8916.48,,,,
495,08/09/2021 18:30:00,31.61,5224.96,,,,
496,08/09/2021 19:00:00,29.60,3210.24,,,,
497,08/09/2021 19:30:00,28.14,1472.00,,,,
498,08/09/2021 20:00:00,26.94,250.00,,,,
499,08/09/2021 20:30:00,26.34,1.07,,,,
500,08/09/2021 21:00:00,26.08,0.00,,,,
501,08/09/2021 21:30:00,26.30,0.00,,,,
502,08/09/2021 22:00:00,26.94,0.00,,,,
503,08/09/2021 22:30:00,28.23,0.00,,,,
504,08/09/2021 23:00:00,28.14,0.00,,,,
505,08/09/2021 23:30:00,28.10,0.00,,,,
506,08/10/2021 00:00:00,27.93,0.00,,,,
507,08/10/2021 00:30:00,27.28,0.00,,,,
508,08/10/2021 01:00:00,26.94,0.00,,,,
509,08/10/2021 01:30:00,26.81,0.00,,,,
510,08/10/2021 02:00:00,26.55,0.00,,,,
511,08/10/2021 02:30:00,26.51,0.00,,,,
512,08/10/2021 03:00:00,26.12,0.00,,,,
513,08/10/2021 03:30:00,25.31,0.00,,,,
514,08/10/2021 04:00:00,25.57,0.00,,,,
515,08/10/2021 04:30:00,25.65,0.00,,,,
516,08/10/2021 05:00:00,25.35,0.00,,,,
517,08/10/2021 05:30:00,25.09,0.00,,,,
518,08/10/2021 06:00:00,24.97,18.78,,,,
519,08/10/2021 06:30:00,25.14,542.24,,,,
520,08/10/2021 07:00:00,25.52,1511.68,,,,
521,08/10/2021 07:30:00,26.08,2312.96,,,,
522,08/10/2021 08:00:00,26.30,3147.52,,,,
523,08/10/2021 08:30:00,27.67,4437.76,,,,
524,08/10/2021 09:00:00,29.00,4705.28,,,,
525,08/10/2021 09:30:00,30.54,5306.88,,,,
526,08/10/2021 10:00:00,32.39,8076.80,,,,
527,08/10/2021 10:30:00,32.17,10091.52,,,,
528,08/10/2021 11:00:00,34.27,12600.32,,,,
529,08/10/2021 11:30:00,34.23,11417.60,,,,
530,08/10/2021 12:00:00,36.98,20884.48,,,,
531,08/10/2021 12:30:00,49.12,59023.36,,,,
532,08/10/2021 13:00:00,41.83,2321.92,,,,
533,08/10/2021 13:30:00,24.24,733.76,,,,
534,08/10/2021 14:00:00,23.98,899.52,,,,
535,08/10/2021 14:30:00,23.76,1361.92,,,,
536,08/10/2021 15:00:00,24.19,2046.72,,,,
537,08/10/2021 15:30:00,24.66,3697.92,,,,
538,08/10/2021 16:00:00,26.04,8455.68,,,,
539,08/10/2021 16:30:00,28.44,14597.12,,,,
540,08/10/2021 17:00:00,32.43,14412.80,,,,
541,08/10/2021 17:30:00,30.07,6384.64,,,,
542,08/10/2021 18:00:00,28.87,7045.12,,,,
543,08/10/2021 18:30:00,28.44,4499.20,,,,
544,08/10/2021 19:00:00,27.41,2299.52,,,,
545,08/10/2021 19:30:00,26.72,1352.32,,,,
546,08/10/2021 20:00:00,25.99,248.72,,,,
547,08/10/2021 20:30:00,25.44,1.07,,,,
548,08/10/2021 21:00:00,25.31,0.00,,,,
549,08/10/2021 21:30:00,25.05,0.00,,,,
550,08/10/2021 22:00:00,25.65,0.00,,,,
551,08/10/2021 22:30:00,25.99,0.00,,,,
552,08/10/2021 23:00:00,26.21,0.00,,,,
553,08/10/2021 23:30:00,26.42,0.00,,,,
554,08/11/2021 00:00:00,26.25,0.00,,,,
555,08/11/2021 00:30:00,26.21,0.00,,,,
556,08/11/2021 01:00:00,25.91,0.00,,,,
557,08/11/2021 01:30:00,25.91,0.00,,,,
558,08/11/2021 02:00:00,25.74,0.00,,,,
559,08/11/2021 02:30:00,25.61,0.00,,,,
560,08/11/2021 03:00:00,25.35,0.00,,,,
561,08/11/2021 03:30:00,25.05,0.00,,,,
562,08/11/2021 04:00:00,24.88,0.00,,,,
563,08/11/2021 04:30:00,24.88,0.00,,,,
564,08/11/2021 05:00:00,24.58,0.00,,,,
565,08/11/2021 05:30:00,24.36,0.00,,,,
566,08/11/2021 06:00:00,24.41,16.85,,,,
567,08/11/2021 06:30:00,24.45,520.32,,,,
568,08/11/2021 07:00:00,24.84,1714.56,,,,
569,08/11/2021 07:30:00,24.92,2244.48,,,,
570,08/11/2021 08:00:00,25.61,2803.20,,,,
571,08/11/2021 08:30:00,26.51,3434.24,,,,
572,08/11/2021 09:00:00,27.80,3845.12,,,,
573,08/11/2021 09:30:00,28.31,4337.92,,,,
574,08/11/2021 10:00:00,29.34,5035.52,,,,
575,08/11/2021 10:30:00,30.07,7828.48,,,,
576,08/11/2021 11:00:00,30.67,5808.64,,,,
577,08/11/2021 11:30:00,32.34,6730.24,,,,
578,08/11/2021 12:00:00,33.20,8570.88,,,,
579,08/11/2021 12:30:00,49.42,50810.88,,,,
580,08/11/2021 13:00:00,51.05,48066.56,,,,
581,08/11/2021 13:30:00,50.49,48680.96,,,,
582,08/11/2021 14:00:00,50.62,49766.40,,,,
583,08/11/2021 14:30:00,51.65,38359.04,,,,
584,08/11/2021 15:00:00,51.31,43315.20,,,,
585,08/11/2021 15:30:00,49.80,39403.52,,,,
586,08/11/2021 16:00:00,48.90,36106.24,,,,
587,08/11/2021 16:30:00,49.08,31068.16,,,,
588,08/11/2021 17:00:00,49.59,26378.24,,,,
589,08/11/2021 17:30:00,45.94,21268.48,,,,
590,08/11/2021 18:00:00,36.42,6804.48,,,,
591,08/11/2021 18:30:00,33.80,2958.08,,,,
592,08/11/2021 19:00:00,31.40,2042.88,,,,
593,08/11/2021 19:30:00,29.77,1043.84,,,,
594,08/11/2021 20:00:00,27.58,157.48,,,,
595,08/11/2021 20:30:00,26.72,0.43,,,,
596,08/11/2021 21:00:00,26.51,0.00,,,,
597,08/11/2021 21:30:00,26.12,0.00,,,,
598,08/11/2021 22:00:00,25.39,0.00,,,,
599,08/11/2021 22:30:00,25.39,0.00,,,,
600,08/11/2021 23:00:00,25.27,0.00,,,,
601,08/11/2021 23:30:00,26.25,0.00,,,,
602,08/12/2021 00:00:00,27.15,0.00,,,,
603,08/12/2021 00:30:00,27.24,0.00,,,,
604,08/12/2021 01:00:00,26.81,0.00,,,,
605,08/12/2021 01:30:00,26.68,0.00,,,,
606,08/12/2021 02:00:00,26.60,0.00,,,,
607,08/12/2021 02:30:00,26.34,0.00,,,,
608,08/12/2021 03:00:00,26.08,0.00,,,,
609,08/12/2021 03:30:00,25.74,0.00,,,,
610,08/12/2021 04:00:00,25.52,0.00,,,,
611,08/12/2021 04:30:00,25.01,0.00,,,,
612,08/12/2021 05:00:00,24.97,0.00,,,,
613,08/12/2021 05:30:00,24.66,0.00,,,,
614,08/12/2021 06:00:00,24.28,14.70,,,,
615,08/12/2021 06:30:00,24.49,413.44,,,,
616,08/12/2021 07:00:00,24.58,1241.60,,,,
617,08/12/2021 07:30:00,25.01,2012.16,,,,
618,08/12/2021 08:00:00,25.61,2549.12,,,,
619,08/12/2021 08:30:00,27.07,3535.36,,,,
620,08/12/2021 09:00:00,28.23,3879.68,,,,
621,08/12/2021 09:30:00,28.70,1471.36,,,,
622,08/12/2021 10:00:00,30.54,7237.12,,,,
623,08/12/2021 10:30:00,30.84,4849.92,,,,
624,08/12/2021 11:00:00,31.70,5634.56,,,,
625,08/12/2021 11:30:00,33.07,6400.00,,,,
626,08/12/2021 12:00:00,33.85,7848.96,,,,
627,08/12/2021 12:30:00,51.61,53534.72,,,,
628,08/12/2021 13:00:00,52.76,66641.92,,,,
629,08/12/2021 13:30:00,53.67,62955.52,,,,
630,08/12/2021 14:00:00,50.71,58961.92,,,,
631,08/12/2021 14:30:00,51.13,41492.48,,,,
632,08/12/2021 15:00:00,50.28,44318.72,,,,
633,08/12/2021 15:30:00,48.60,48312.32,,,,
634,08/12/2021 16:00:00,49.42,16337.92,,,,
635,08/12/2021 16:30:00,36.93,8819.20,,,,
636,08/12/2021 17:00:00,35.82,26071.04,,,,
637,08/12/2021 17:30:00,45.26,14177.28,,,,
638,08/12/2021 18:00:00,32.43,2990.08,,,,
639,08/12/2021 18:30:00,30.24,2000.00,,,,
640,08/12/2021 19:00:00,20.37,132.32,,,,
641,08/12/2021 19:30:00,20.72,47.94,,,,
642,08/12/2021 20:00:00,20.89,4.94,,,,
643,08/12/2021 20:30:00,20.98,0.00,,,,
644,08/12/2021 21:00:00,21.23,0.00,,,,
645,08/12/2021 21:30:00,20.76,0.00,,,,
646,08/12/2021 22:00:00,20.76,0.00,,,,
647,08/12/2021 22:30:00,20.93,0.00,,,,
648,08/12/2021 23:00:00,20.89,0.00,,,,
649,08/12/2021 23:30:00,20.76,0.00,,,,
650,08/13/2021 00:00:00,20.63,0.00,,,,
651,08/13/2021 00:30:00,20.46,0.00,,,,
652,08/13/2021 01:00:00,20.03,0.00,,,,
653,08/13/2021 01:30:00,19.90,0.00,,,,
654,08/13/2021 02:00:00,19.52,0.00,,,,
655,08/13/2021 02:30:00,19.52,0.00,,,,
656,08/13/2021 03:00:00,19.77,0.00,,,,
657,08/13/2021 03:30:00,19.82,0.00,,,,
658,08/13/2021 04:00:00,19.47,0.00,,,,
659,08/13/2021 04:30:00,19.35,0.00,,,,
660,08/13/2021 05:00:00,19.09,0.00,,,,
661,08/13/2021 05:30:00,19.26,0.00,,,,
662,08/13/2021 06:00:00,19.26,9.05,,,,
663,08/13/2021 06:30:00,19.13,462.24,,,,
664,08/13/2021 07:00:00,19.69,1924.48,,,,
665,08/13/2021 07:30:00,20.98,4729.60,,,,
666,08/13/2021 08:00:00,22.31,6087.68,,,,
667,08/13/2021 08:30:00,22.39,7196.16,,,,
668,08/13/2021 09:00:00,22.95,7436.80,,,,
669,08/13/2021 09:30:00,22.86,5808.64,,,,
670,08/13/2021 10:00:00,23.68,7498.24,,,,
671,08/13/2021 10:30:00,24.15,6937.60,,,,
672,08/13/2021 11:00:00,25.57,8040.96,,,,
673,08/13/2021 11:30:00,27.80,10360.32,,,,
674,08/13/2021 12:00:00,30.41,15636.48,,,,
675,08/13/2021 12:30:00,42.34,55480.32,,,,
676,08/13/2021 13:00:00,46.63,61521.92,,,,
677,08/13/2021 13:30:00,45.04,50606.08,,,,
678,08/13/2021 14:00:00,48.22,53760.00,,,,
679,08/13/2021 14:30:00,50.02,49233.92,,,,
680,08/13/2021 15:00:00,47.83,45690.88,,,,
681,08/13/2021 15:30:00,39.68,32276.48,,,,
682,08/13/2021 16:00:00,49.46,38072.32,,,,
683,08/13/2021 16:30:00,47.79,34560.00,,,,
684,08/13/2021 17:00:00,35.43,8826.88,,,,
685,08/13/2021 17:30:00,35.95,11258.88,,,,
686,08/13/2021 18:00:00,31.19,8640.00,,,,
687,08/13/2021 18:30:00,29.47,4595.20,,,,
688,08/13/2021 19:00:00,27.32,1235.84,,,,
689,08/13/2021 19:30:00,25.99,392.16,,,,
690,08/13/2021 20:00:00,25.22,44.98,,,,
691,08/13/2021 20:30:00,24.79,0.00,,,,
692,08/13/2021 21:00:00,24.54,0.00,,,,
693,08/13/2021 21:30:00,24.28,0.00,,,,
694,08/13/2021 22:00:00,24.11,0.00,,,,
695,08/13/2021 22:30:00,23.98,0.00,,,,
696,08/13/2021 23:00:00,23.72,0.00,,,,
697,08/13/2021 23:30:00,23.46,0.00,,,,
698,08/14/2021 00:00:00,22.99,0.00,,,,
699,08/14/2021 00:30:00,22.13,0.00,,,,
700,08/14/2021 01:00:00,21.58,0.00,,,,
701,08/14/2021 01:30:00,21.36,0.00,,,,
702,08/14/2021 02:00:00,21.06,0.00,,,,
703,08/14/2021 02:30:00,20.85,0.00,,,,
704,08/14/2021 03:00:00,20.59,0.00,,,,
705,08/14/2021 03:30:00,20.50,0.00,,,,
706,08/14/2021 04:00:00,20.12,0.00,,,,
707,08/14/2021 04:30:00,19.65,0.00,,,,
708,08/14/2021 05:00:00,19.17,0.00,,,,
709,08/14/2021 05:30:00,18.92,0.00,,,,
710,08/14/2021 06:00:00,18.74,9.27,,,,
711,08/14/2021 06:30:00,18.70,359.04,,,,
712,08/14/2021 07:00:00,19.22,2579.84,,,,
713,08/14/2021 07:30:00,19.82,2229.12,,,,
714,08/14/2021 08:00:00,20.29,3539.20,,,,
715,08/14/2021 08:30:00,21.28,3920.64,,,,
716,08/14/2021 09:00:00,23.03,6888.96,,,,
717,08/14/2021 09:30:00,25.61,10017.28,,,,
718,08/14/2021 10:00:00,28.83,12748.80,,,,
719,08/14/2021 10:30:00,29.98,13194.24,,,,
720,08/14/2021 11:00:00,30.46,14018.56,,,,
721,08/14/2021 11:30:00,32.94,18913.28,,,,
722,08/14/2021 12:00:00,32.99,15979.52,,,,
723,08/14/2021 12:30:00,45.81,47042.56,,,,
724,08/14/2021 13:00:00,42.81,35399.68,,,,
725,08/14/2021 13:30:00,39.12,30392.32,,,,
726,08/14/2021 14:00:00,39.21,24340.48,,,,
727,08/14/2021 14:30:00,38.56,25190.40,,,,
728,08/14/2021 15:00:00,41.27,33638.40,,,,
729,08/14/2021 15:30:00,47.57,42393.60,,,,
730,08/14/2021 16:00:00,47.83,37468.16,,,,
731,08/14/2021 16:30:00,43.88,8716.80,,,,
732,08/14/2021 17:00:00,43.07,28794.88,,,,
733,08/14/2021 17:30:00,42.73,24033.28,,,,
734,08/14/2021 18:00:00,31.10,3793.92,,,,
735,08/14/2021 18:30:00,25.99,2450.56,,,,
736,08/14/2021 19:00:00,23.59,1786.24,,,,
737,08/14/2021 19:30:00,22.05,973.44,,,,
738,08/14/2021 20:00:00,20.76,126.28,,,,
739,08/14/2021 20:30:00,19.73,0.00,,,,
740,08/14/2021 21:00:00,19.00,0.00,,,,
741,08/14/2021 21:30:00,18.57,0.00,,,,
742,08/14/2021 22:00:00,18.02,0.00,,,,
743,08/14/2021 22:30:00,17.72,0.00,,,,
744,08/14/2021 23:00:00,17.46,0.00,,,,
745,08/14/2021 23:30:00,17.16,0.00,,,,
746,08/15/2021 00:00:00,16.99,0.00,,,,
747,08/15/2021 00:30:00,16.99,0.00,,,,
748,08/15/2021 01:00:00,16.90,0.00,,,,
749,08/15/2021 01:30:00,16.77,0.00,,,,
750,08/15/2021 02:00:00,16.69,0.00,,,,
751,08/15/2021 02:30:00,16.39,0.00,,,,
752,08/15/2021 03:00:00,16.21,0.00,,,,
753,08/15/2021 03:30:00,16.26,0.00,,,,
754,08/15/2021 04:00:00,16.13,0.00,,,,
755,08/15/2021 04:30:00,16.08,0.00,,,,
756,08/15/2021 05:00:00,16.13,0.00,,,,
757,08/15/2021 05:30:00,16.13,0.00,,,,
758,08/15/2021 06:00:00,16.13,7.98,,,,
759,08/15/2021 06:30:00,16.08,436.00,,,,
760,08/15/2021 07:00:00,16.39,1157.44,,,,
761,08/15/2021 07:30:00,16.99,1661.44,,,,
762,08/15/2021 08:00:00,18.06,2007.04,,,,
763,08/15/2021 08:30:00,19.47,2492.16,,,,
764,08/15/2021 09:00:00,20.37,2723.84,,,,
765,08/15/2021 09:30:00,21.02,2973.44,,,,
766,08/15/2021 10:00:00,22.13,3409.92,,,,
767,08/15/2021 10:30:00,23.72,3920.64,,,,
768,08/15/2021 11:00:00,25.31,4392.96,,,,
769,08/15/2021 11:30:00,26.85,5544.96,,,,
770,08/15/2021 12:00:00,28.31,8737.28,,,,
771,08/15/2021 12:30:00,40.37,71659.52,,,,
772,08/15/2021 13:00:00,41.83,40949.76,,,,
773,08/15/2021 13:30:00,41.83,66764.80,,,,
774,08/15/2021 14:00:00,39.38,11289.60,,,,
775,08/15/2021 14:30:00,47.96,58449.92,,,,
776,08/15/2021 15:00:00,47.23,50647.04,,,,
777,08/15/2021 15:30:00,48.95,44605.44,,,,
778,08/15/2021 16:00:00,47.70,40110.08,,,,
779,08/15/2021 16:30:00,46.29,34631.68,,,,
780,08/15/2021 17:00:00,43.93,26019.84,,,,
781,08/15/2021 17:30:00,41.87,24053.76,,,,
782,08/15/2021 18:00:00,30.80,5235.20,,,,
783,08/15/2021 18:30:00,27.37,3105.28,,,,
784,08/15/2021 19:00:00,24.71,2149.76,,,,
785,08/15/2021 19:30:00,22.86,1137.60,,,,
786,08/15/2021 20:00:00,21.49,116.08,,,,
787,08/15/2021 20:30:00,20.25,0.00,,,,
788,08/15/2021 21:00:00,19.30,0.00,,,,
789,08/15/2021 21:30:00,19.05,0.00,,,,
790,08/15/2021 22:00:00,18.92,0.00,,,,
791,08/15/2021 22:30:00,18.02,0.00,,,,
792,08/15/2021 23:00:00,17.84,0.00,,,,
793,08/15/2021 23:30:00,17.97,0.00,,,,
794,08/16/2021 00:00:00,18.23,0.00,,,,
795,08/16/2021 00:30:00,18.02,0.00,,,,
796,08/16/2021 01:00:00,18.02,0.00,,,,
797,08/16/2021 01:30:00,17.80,0.00,,,,
798,08/16/2021 02:00:00,17.63,0.00,,,,
799,08/16/2021 02:30:00,17.29,0.00,,,,
800,08/16/2021 03:00:00,16.86,0.00,,,,
801,08/16/2021 03:30:00,16.94,0.00,,,,
802,08/16/2021 04:00:00,16.69,0.00,,,,
803,08/16/2021 04:30:00,16.60,0.00,,,,
804,08/16/2021 05:00:00,16.51,0.00,,,,
805,08/16/2021 05:30:00,16.30,0.00,,,,
806,08/16/2021 06:00:00,16.21,5.61,,,,
807,08/16/2021 06:30:00,16.13,396.80,,,,
808,08/16/2021 07:00:00,16.47,1273.60,,,,
809,08/16/2021 07:30:00,17.11,2003.84,,,,
810,08/16/2021 08:00:00,18.14,2538.24,,,,
811,08/16/2021 08:30:00,19.90,3239.68,,,,
812,08/16/2021 09:00:00,21.28,3797.76,,,,
813,08/16/2021 09:30:00,22.35,4261.12,,,,
814,08/16/2021 10:00:00,23.59,4509.44,,,,
815,08/16/2021 10:30:00,25.74,9797.12,,,,
816,08/16/2021 11:00:00,28.31,8888.32,,,,
817,08/16/2021 11:30:00,30.50,13056.00,,,,
818,08/16/2021 12:00:00,31.23,17561.60,,,,
819,08/16/2021 12:30:00,36.16,17382.40,,,,
820,08/16/2021 13:00:00,47.49,58716.16,,,,
821,08/16/2021 13:30:00,49.59,59576.32,,,,
822,08/16/2021 14:00:00,34.19,8309.76,,,,
823,08/16/2021 14:30:00,33.42,17802.24,,,,
824,08/16/2021 15:00:00,45.81,52613.12,,,,
825,08/16/2021 15:30:00,48.22,43110.40,,,,
826,08/16/2021 16:00:00,47.14,37806.08,,,,
827,08/16/2021 16:30:00,42.77,15216.64,,,,
828,08/16/2021 17:00:00,43.84,23838.72,,,,
829,08/16/2021 17:30:00,43.11,21053.44,,,,
830,08/16/2021 18:00:00,32.04,5685.76,,,,
831,08/16/2021 18:30:00,27.37,3708.16,,,,
832,08/16/2021 19:00:00,25.14,2347.52,,,,
833,08/16/2021 19:30:00,23.59,1003.52,,,,
834,08/16/2021 20:00:00,22.99,77.94,,,,
835,08/16/2021 20:30:00,22.65,0.00,,,,
836,08/16/2021 21:00:00,22.35,0.00,,,,
837,08/16/2021 21:30:00,21.88,0.00,,,,
838,08/16/2021 22:00:00,21.02,0.00,,,,
839,08/16/2021 22:30:00,20.63,0.00,,,,
840,08/16/2021 23:00:00,20.25,0.00,,,,
841,08/16/2021 23:30:00,20.25,0.00,,,,
842,08/17/2021 00:00:00,19.82,0.00,,,,
843,08/17/2021 00:30:00,19.39,0.00,,,,
844,08/17/2021 01:00:00,19.30,0.00,,,,
845,08/17/2021 01:30:00,19.13,0.00,,,,
846,08/17/2021 02:00:00,18.79,0.00,,,,
847,08/17/2021 02:30:00,18.49,0.00,,,,
848,08/17/2021 03:00:00,18.49,0.00,,,,
849,08/17/2021 03:30:00,18.49,0.00,,,,
850,08/17/2021 04:00:00,18.49,0.00,,,,
851,08/17/2021 04:30:00,18.32,0.00,,,,
852,08/17/2021 05:00:00,18.27,0.00,,,,
853,08/17/2021 05:30:00,18.36,0.00,,,,
854,08/17/2021 06:00:00,18.19,5.16,,,,
855,08/17/2021 06:30:00,18.23,310.64,,,,
856,08/17/2021 07:00:00,18.32,1516.16,,,,
857,08/17/2021 07:30:00,19.35,3317.76,,,,
858,08/17/2021 08:00:00,20.55,4746.24,,,,
859,08/17/2021 08:30:00,21.49,6517.76,,,,
860,08/17/2021 09:00:00,23.12,5534.72,,,,
861,08/17/2021 09:30:00,24.88,6325.76,,,,
862,08/17/2021 10:00:00,25.91,5849.60,,,,
863,08/17/2021 10:30:00,28.48,9679.36,,,,
864,08/17/2021 11:00:00,30.16,11136.00,,,,
865,08/17/2021 11:30:00,31.19,15979.52,,,,
866,08/17/2021 12:00:00,35.48,21012.48,,,,
867,08/17/2021 12:30:00,35.82,17024.00,,,,
868,08/17/2021 13:00:00,42.25,40529.92,,,,
869,08/17/2021 13:30:00,40.41,55418.88,,,,
870,08/17/2021 14:00:00,51.86,52961.28,,,,
871,08/17/2021 14:30:00,51.52,50913.28,,,,
872,08/17/2021 15:00:00,50.36,45834.24,,,,
873,08/17/2021 15:30:00,49.98,41687.04,,,,
874,08/17/2021 16:00:00,49.12,37918.72,,,,
875,08/17/2021 16:30:00,48.22,32163.84,,,,
876,08/17/2021 17:00:00,45.69,26552.32,,,,
877,08/17/2021 17:30:00,32.73,5926.40,,,,
878,08/17/2021 18:00:00,29.38,7400.96,,,,
879,08/17/2021 18:30:00,26.21,2577.92,,,,
880,08/17/2021 19:00:00,24.97,1753.60,,,,
881,08/17/2021 19:30:00,23.81,1052.48,,,,
882,08/17/2021 20:00:00,22.61,65.40,,,,
883,08/17/2021 20:30:00,21.70,0.00,,,,
884,08/17/2021 21:00:00,21.49,0.00,,,,
885,08/17/2021 21:30:00,20.93,0.00,,,,
886,08/17/2021 22:00:00,20.59,0.00,,,,
887,08/17/2021 22:30:00,20.42,0.00,,,,
888,08/17/2021 23:00:00,20.16,0.00,,,,
889,08/17/2021 23:30:00,19.77,0.00,,,,
890,08/18/2021 00:00:00,19.82,0.00,,,,
891,08/18/2021 00:30:00,19.35,0.00,,,,
892,08/18/2021 01:00:00,19.13,0.00,,,,
893,08/18/2021 01:30:00,18.87,0.00,,,,
894,08/18/2021 02:00:00,18.79,0.00,,,,
895,08/18/2021 02:30:00,18.92,0.00,,,,
896,08/18/2021 03:00:00,19.22,0.00,,,,
897,08/18/2021 03:30:00,19.17,0.00,,,,
898,08/18/2021 04:00:00,19.22,0.00,,,,
899,08/18/2021 04:30:00,18.74,0.00,,,,
900,08/18/2021 05:00:00,18.49,0.00,,,,
901,08/18/2021 05:30:00,18.36,0.00,,,,
902,08/18/2021 06:00:00,18.36,4.30,,,,
903,08/18/2021 06:30:00,18.53,344.16,,,,
904,08/18/2021 07:00:00,18.79,1087.68,,,,
905,08/18/2021 07:30:00,20.07,2813.44,,,,
906,08/18/2021 08:00:00,21.02,3059.20,,,,
907,08/18/2021 08:30:00,23.38,6899.20,,,,
908,08/18/2021 09:00:00,26.21,6630.40,,,,
909,08/18/2021 09:30:00,25.69,5877.76,,,,
910,08/18/2021 10:00:00,27.37,6359.04,,,,
911,08/18/2021 10:30:00,29.81,9507.84,,,,
912,08/18/2021 11:00:00,32.22,11776.00,,,,
913,08/18/2021 11:30:00,32.30,11018.24,,,,
914,08/18/2021 12:00:00,33.89,13701.12,,,,
915,08/18/2021 12:30:00,33.29,10757.12,,,,
916,08/18/2021 13:00:00,37.49,16460.80,,,,
917,08/18/2021 13:30:00,33.89,9582.08,,,,
918,08/18/2021 14:00:00,32.82,14796.80,,,,
919,08/18/2021 14:30:00,38.82,22968.32,,,,
920,08/18/2021 15:00:00,34.79,15851.52,,,,
921,08/18/2021 15:30:00,36.55,28948.48,,,,
922,08/18/2021 16:00:00,41.44,29952.00,,,,
923,08/18/2021 16:30:00,39.29,28456.96,,,,
924,08/18/2021 17:00:00,41.10,24719.36,,,,
925,08/18/2021 17:30:00,33.85,12917.76,,,,
926,08/18/2021 18:00:00,30.84,6356.48,,,,
927,08/18/2021 18:30:00,28.23,6105.60,,,,
928,08/18/2021 19:00:00,26.55,3663.36,,,,
929,08/18/2021 19:30:00,24.97,1226.24,,,,
930,08/18/2021 20:00:00,23.34,56.26,,,,
931,08/18/2021 20:30:00,22.43,0.00,,,,
932,08/18/2021 21:00:00,21.83,0.00,,,,
933,08/18/2021 21:30:00,21.83,0.00,,,,
934,08/18/2021 22:00:00,21.70,0.00,,,,
935,08/18/2021 22:30:00,21.36,0.00,,,,
936,08/18/2021 23:00:00,21.06,0.00,,,,
937,08/18/2021 23:30:00,20.76,0.00,,,,
938,08/19/2021 00:00:00,20.50,0.00,,,,
939,08/19/2021 00:30:00,20.29,0.00,,,,
940,08/19/2021 01:00:00,20.03,0.00,,,,
941,08/19/2021 01:30:00,19.77,0.00,,,,
942,08/19/2021 02:00:00,19.52,0.00,,,,
943,08/19/2021 02:30:00,19.30,0.00,,,,
944,08/19/2021 03:00:00,19.09,0.00,,,,
945,08/19/2021 03:30:00,18.96,0.00,,,,
946,08/19/2021 04:00:00,18.79,0.00,,,,
947,08/19/2021 04:30:00,18.66,0.00,,,,
948,08/19/2021 05:00:00,18.49,0.00,,,,
949,08/19/2021 05:30:00,18.36,0.00,,,,
950,08/19/2021 06:00:00,18.27,3.22,,,,
951,08/19/2021 06:30:00,18.19,352.96,,,,
952,08/19/2021 07:00:00,19.09,1438.72,,,,
953,08/19/2021 07:30:00,20.76,2658.56,,,,
954,08/19/2021 08:00:00,21.79,4295.68,,,,
955,08/19/2021 08:30:00,22.69,6466.56,,,,
956,08/19/2021 09:00:00,23.94,8268.80,,,,
957,08/19/2021 09:30:00,24.32,4134.40,,,,
958,08/19/2021 10:00:00,24.06,4595.20,,,,
959,08/19/2021 10:30:00,26.81,7600.64,,,,
960,08/19/2021 11:00:00,28.53,9638.40,,,,
961,08/19/2021 11:30:00,32.60,15631.36,,,,
962,08/19/2021 12:00:00,32.52,16430.08,,,,
963,08/19/2021 12:30:00,44.61,32358.40,,,,
964,08/19/2021 13:00:00,48.05,55726.08,,,,
965,08/19/2021 13:30:00,47.96,55767.04,,,,
966,08/19/2021 14:00:00,50.66,55971.84,,,,
967,08/19/2021 14:30:00,49.80,55173.12,,,,
968,08/19/2021 15:00:00,50.83,51056.64,,,,
969,08/19/2021 15:30:00,49.50,35870.72,,,,
970,08/19/2021 16:00:00,49.20,45240.32,,,,
971,08/19/2021 16:30:00,47.83,39362.56,,,,
972,08/19/2021 17:00:00,46.76,33126.40,,,,
973,08/19/2021 17:30:00,44.23,26275.84,,,,
974,08/19/2021 18:00:00,32.52,5619.20,,,,
975,08/19/2021 18:30:00,28.57,3247.36,,,,
976,08/19/2021 19:00:00,26.77,2196.48,,,,
977,08/19/2021 19:30:00,25.18,843.84,,,,
978,08/19/2021 20:00:00,23.89,50.58,,,,
979,08/19/2021 20:30:00,23.21,0.00,,,,
980,08/19/2021 21:00:00,22.73,0.00,,,,
981,08/19/2021 21:30:00,22.22,0.00,,,,
982,08/19/2021 22:00:00,21.96,0.00,,,,
983,08/19/2021 22:30:00,21.75,0.00,,,,
984,08/19/2021 23:00:00,21.62,0.00,,,,
985,08/19/2021 23:30:00,21.53,0.00,,,,
986,08/20/2021 00:00:00,21.49,0.00,,,,
987,08/20/2021 00:30:00,21.49,0.00,,,,
988,08/20/2021 01:00:00,21.58,0.00,,,,
989,08/20/2021 01:30:00,21.32,0.00,,,,
990,08/20/2021 02:00:00,21.19,0.00,,,,
991,08/20/2021 02:30:00,21.02,0.00,,,,
992,08/20/2021 03:00:00,20.85,0.00,,,,
993,08/20/2021 03:30:00,20.85,0.00,,,,
994,08/20/2021 04:00:00,20.68,0.00,,,,
995,08/20/2021 04:30:00,20.46,0.00,,,,
996,08/20/2021 05:00:00,20.46,0.00,,,,
997,08/20/2021 05:30:00,20.98,0.00,,,,
998,08/20/2021 06:00:00,21.36,1.93,,,,
999,08/20/2021 06:30:00,21.45,270.88,,,,
1000,08/20/2021 07:00:00,21.23,1051.52,,,,
1001,08/20/2021 07:30:00,21.53,1779.84,,,,
1002,08/20/2021 08:00:00,22.31,2328.96,,,,
1003,08/20/2021 08:30:00,25.18,4933.12,,,,
1004,08/20/2021 09:00:00,26.12,3425.28,,,,
1005,08/20/2021 09:30:00,27.67,4014.08,,,,
1006,08/20/2021 10:00:00,29.94,10270.72,,,,
1007,08/20/2021 10:30:00,31.44,12774.40,,,,
1008,08/20/2021 11:00:00,31.96,13516.80,,,,
1009,08/20/2021 11:30:00,33.89,12641.28,,,,
1010,08/20/2021 12:00:00,33.89,12933.12,,,,
1011,08/20/2021 12:30:00,44.10,44851.20,,,,
1012,08/20/2021 13:00:00,46.33,44380.16,,,,
1013,08/20/2021 13:30:00,48.05,42127.36,,,,
1014,08/20/2021 14:00:00,45.60,32757.76,,,,
1015,08/20/2021 14:30:00,41.57,21606.40,,,,
1016,08/20/2021 15:00:00,46.80,43192.32,,,,
1017,08/20/2021 15:30:00,45.51,12661.76,,,,
1018,08/20/2021 16:00:00,42.08,18319.36,,,,
1019,08/20/2021 16:30:00,42.85,22405.12,,,,
1020,08/20/2021 17:00:00,31.79,15815.68,,,,
1021,08/20/2021 17:30:00,35.43,6138.88,,,,
1022,08/20/2021 18:00:00,33.59,5473.28,,,,
1023,08/20/2021 18:30:00,29.90,2999.04,,,,
1024,08/20/2021 19:00:00,28.35,1857.28,,,,
1025,08/20/2021 19:30:00,26.94,700.48,,,,
1026,08/20/2021 20:00:00,26.17,24.61,,,,
1027,08/20/2021 20:30:00,25.09,0.00,,,,
1028,08/20/2021 21:00:00,24.32,0.00,,,,
1029,08/20/2021 21:30:00,23.98,0.00,,,,
1030,08/20/2021 22:00:00,24.19,0.00,,,,
1031,08/20/2021 22:30:00,24.45,0.00,,,,
1032,08/20/2021 23:00:00,24.54,0.00,,,,
1033,08/20/2021 23:30:00,24.66,0.00,,,,
1034,08/21/2021 00:00:00,23.76,0.00,,,,
1035,08/21/2021 00:30:00,23.38,0.00,,,,
1036,08/21/2021 01:00:00,23.03,0.00,,,,
1037,08/21/2021 01:30:00,22.91,0.00,,,,
1038,08/21/2021 02:00:00,22.65,0.00,,,,
1039,08/21/2021 02:30:00,22.56,0.00,,,,
1040,08/21/2021 03:00:00,22.52,0.00,,,,
1041,08/21/2021 03:30:00,22.52,0.00,,,,
1042,08/21/2021 04:00:00,22.56,0.00,,,,
1043,08/21/2021 04:30:00,23.25,0.00,,,,
1044,08/21/2021 05:00:00,23.21,0.00,,,,
1045,08/21/2021 05:30:00,22.99,0.00,,,,
1046,08/21/2021 06:00:00,23.38,0.64,,,,
1047,08/21/2021 06:30:00,23.98,54.06,,,,
1048,08/21/2021 07:00:00,24.02,553.76,,,,
1049,08/21/2021 07:30:00,24.41,2895.36,,,,
1050,08/21/2021 08:00:00,25.05,3549.44,,,,
1051,08/21/2021 08:30:00,27.28,8419.84,,,,
1052,08/21/2021 09:00:00,27.24,5813.76,,,,
1053,08/21/2021 09:30:00,25.87,5596.16,,,,
1054,08/21/2021 10:00:00,28.40,9638.40,,,,
1055,08/21/2021 10:30:00,31.53,9141.76,,,,
1056,08/21/2021 11:00:00,31.74,13214.72,,,,
1057,08/21/2021 11:30:00,30.33,7298.56,,,,
1058,08/21/2021 12:00:00,28.95,5000.96,,,,
1059,08/21/2021 12:30:00,49.33,55275.52,,,,
1060,08/21/2021 13:00:00,41.31,54087.68,,,,
1061,08/21/2021 13:30:00,41.57,16133.12,,,,
1062,08/21/2021 14:00:00,38.74,20956.16,,,,
1063,08/21/2021 14:30:00,45.39,53248.00,,,,
1064,08/21/2021 15:00:00,40.88,15098.88,,,,
1065,08/21/2021 15:30:00,35.69,13813.76,,,,
1066,08/21/2021 16:00:00,32.94,12636.16,,,,
1067,08/21/2021 16:30:00,38.44,26951.68,,,,
1068,08/21/2021 17:00:00,39.94,9981.44,,,,
1069,08/21/2021 17:30:00,41.91,22179.84,,,,
1070,08/21/2021 18:00:00,33.12,3683.84,,,,
1071,08/21/2021 18:30:00,29.26,3752.96,,,,
1072,08/21/2021 19:00:00,27.28,1850.24,,,,
1073,08/21/2021 19:30:00,25.39,685.76,,,,
1074,08/21/2021 20:00:00,23.98,31.60,,,,
1075,08/21/2021 20:30:00,23.12,0.00,,,,
1076,08/21/2021 21:00:00,22.56,0.00,,,,
1077,08/21/2021 21:30:00,22.31,0.00,,,,
1078,08/21/2021 22:00:00,21.88,0.00,,,,
1079,08/21/2021 22:30:00,21.75,0.00,,,,
1080,08/21/2021 23:00:00,21.58,0.00,,,,
1081,08/21/2021 23:30:00,21.36,0.00,,,,
1082,08/22/2021 00:00:00,21.10,0.00,,,,
1083,08/22/2021 00:30:00,20.93,0.00,,,,
1084,08/22/2021 01:00:00,20.76,0.00,,,,
1085,08/22/2021 01:30:00,20.72,0.00,,,,
1086,08/22/2021 02:00:00,20.63,0.00,,,,
1087,08/22/2021 02:30:00,20.72,0.00,,,,
1088,08/22/2021 03:00:00,20.59,0.00,,,,
1089,08/22/2021 03:30:00,20.42,0.00,,,,
1090,08/22/2021 04:00:00,20.16,0.00,,,,
1091,08/22/2021 04:30:00,20.16,0.00,,,,
1092,08/22/2021 05:00:00,19.86,0.00,,,,
1093,08/22/2021 05:30:00,19.65,0.00,,,,
1094,08/22/2021 06:00:00,19.35,1.93,,,,
1095,08/22/2021 06:30:00,19.22,290.64,,,,
1096,08/22/2021 07:00:00,19.39,1275.20,,,,
1097,08/22/2021 07:30:00,19.86,1706.24,,,,
1098,08/22/2021 08:00:00,20.55,2292.48,,,,
1099,08/22/2021 08:30:00,23.21,9920.00,,,,
1100,08/22/2021 09:00:00,25.31,3344.64,,,,
1101,08/22/2021 09:30:00,24.62,3600.64,,,,
1102,08/22/2021 10:00:00,24.75,3979.52,,,,
1103,08/22/2021 10:30:00,26.25,4529.92,,,,
1104,08/22/2021 11:00:00,27.45,6315.52,,,,
1105,08/22/2021 11:30:00,28.74,6167.04,,,,
1106,08/22/2021 12:00:00,29.98,7188.48,,,,
1107,08/22/2021 12:30:00,50.10,50954.24,,,,
1108,08/22/2021 13:00:00,51.26,50565.12,,,,
1109,08/22/2021 13:30:00,51.82,50872.32,,,,
1110,08/22/2021 14:00:00,52.34,49725.44,,,,
1111,08/22/2021 14:30:00,51.61,48291.84,,,,
1112,08/22/2021 15:00:00,51.48,44462.08,,,,
1113,08/22/2021 15:30:00,51.01,41451.52,,,,
1114,08/22/2021 16:00:00,49.12,37273.60,,,,
1115,08/22/2021 16:30:00,48.99,32430.08,,,,
1116,08/22/2021 17:00:00,47.36,26972.16,,,,
1117,08/22/2021 17:30:00,44.61,21678.08,,,,
1118,08/22/2021 18:00:00,33.89,3467.52,,,,
1119,08/22/2021 18:30:00,28.05,2586.88,,,,
1120,08/22/2021 19:00:00,26.38,1702.40,,,,
1121,08/22/2021 19:30:00,25.01,625.12,,,,
1122,08/22/2021 20:00:00,23.85,22.03,,,,
1123,08/22/2021 20:30:00,23.03,0.00,,,,
1124,08/22/2021 21:00:00,22.48,0.00,,,,
1125,08/22/2021 21:30:00,22.09,0.00,,,,
1126,08/22/2021 22:00:00,21.79,0.00,,,,
1127,08/22/2021 22:30:00,21.58,0.00,,,,
1128,08/22/2021 23:00:00,21.36,0.00,,,,
1129,08/22/2021 23:30:00,20.98,0.00,,,,
1130,08/23/2021 00:00:00,20.68,0.00,,,,
1131,08/23/2021 00:30:00,20.46,0.00,,,,
1132,08/23/2021 01:00:00,20.46,0.00,,,,
1133,08/23/2021 01:30:00,20.25,0.00,,,,
1134,08/23/2021 02:00:00,20.29,0.00,,,,
1135,08/23/2021 02:30:00,20.12,0.00,,,,
1136,08/23/2021 03:00:00,19.99,0.00,,,,
1137,08/23/2021 03:30:00,20.07,0.00,,,,
1138,08/23/2021 04:00:00,19.95,0.00,,,,
1139,08/23/2021 04:30:00,19.95,0.00,,,,
1140,08/23/2021 05:00:00,19.90,0.00,,,,
1141,08/23/2021 05:30:00,19.90,0.00,,,,
1142,08/23/2021 06:00:00,19.82,1.50,,,,
1143,08/23/2021 06:30:00,19.82,276.00,,,,
1144,08/23/2021 07:00:00,20.20,1076.48,,,,
1145,08/23/2021 07:30:00,20.89,1706.24,,,,
1146,08/23/2021 08:00:00,22.31,2211.84,,,,
1147,08/23/2021 08:30:00,25.44,5365.76,,,,
1148,08/23/2021 09:00:00,30.63,4385.28,,,,
1149,08/23/2021 09:30:00,28.91,3453.44,,,,
1150,08/23/2021 10:00:00,28.23,4165.12,,,,
1151,08/23/2021 10:30:00,29.04,2769.92,,,,
1152,08/23/2021 11:00:00,31.49,14494.72,,,,
1153,08/23/2021 11:30:00,32.26,5785.60,,,,
1154,08/23/2021 12:00:00,33.59,6566.40,,,,
1155,08/23/2021 12:30:00,54.05,58880.00,,,,
1156,08/23/2021 13:00:00,53.62,66457.60,,,,
1157,08/23/2021 13:30:00,55.04,55951.36,,,,
1158,08/23/2021 14:00:00,49.12,15114.24,,,,
1159,08/23/2021 14:30:00,41.10,15493.12,,,,
1160,08/23/2021 15:00:00,33.72,7147.52,,,,
1161,08/23/2021 15:30:00,30.20,2097.92,,,,
1162,08/23/2021 16:00:00,27.97,2581.76,,,,
1163,08/23/2021 16:30:00,27.24,2174.08,,,,
1164,08/23/2021 17:00:00,26.94,2554.24,,,,
1165,08/23/2021 17:30:00,26.94,3267.84,,,,
1166,08/23/2021 18:00:00,27.75,3639.04,,,,
1167,08/23/2021 18:30:00,27.93,3952.64,,,,
1168,08/23/2021 19:00:00,27.50,3504.64,,,,
1169,08/23/2021 19:30:00,25.69,1056.96,,,,
1170,08/23/2021 20:00:00,24.49,29.61,,,,
1171,08/23/2021 20:30:00,23.85,0.00,,,,
1172,08/23/2021 21:00:00,23.34,0.00,,,,
1173,08/23/2021 21:30:00,22.91,0.00,,,,
1174,08/23/2021 22:00:00,22.35,0.00,,,,
1175,08/23/2021 22:30:00,22.39,0.00,,,,
1176,08/23/2021 23:00:00,21.88,0.00,,,,
1177,08/23/2021 23:30:00,21.70,0.00,,,,
1178,08/24/2021 00:00:00,21.62,0.00,,,,
1179,08/24/2021 00:30:00,21.83,0.00,,,,
1180,08/24/2021 01:00:00,21.66,0.00,,,,
1181,08/24/2021 01:30:00,21.49,0.00,,,,
1182,08/24/2021 02:00:00,21.23,0.00,,,,
1183,08/24/2021 02:30:00,21.10,0.00,,,,
1184,08/24/2021 03:00:00,21.02,0.00,,,,
1185,08/24/2021 03:30:00,20.98,0.00,,,,
1186,08/24/2021 04:00:00,20.93,0.00,,,,
1187,08/24/2021 04:30:00,20.80,0.00,,,,
1188,08/24/2021 05:00:00,20.80,0.00,,,,
1189,08/24/2021 05:30:00,20.76,0.00,,,,
1190,08/24/2021 06:00:00,20.89,1.29,,,,
1191,08/24/2021 06:30:00,20.93,271.52,,,,
1192,08/24/2021 07:00:00,21.40,1107.52,,,,
1193,08/24/2021 07:30:00,22.13,1769.60,,,,
1194,08/24/2021 08:00:00,24.45,2670.08,,,,
1195,08/24/2021 08:30:00,26.42,3182.08,,,,
1196,08/24/2021 09:00:00,32.04,13378.56,,,,
1197,08/24/2021 09:30:00,29.21,3358.72,,,,
1198,08/24/2021 10:00:00,29.13,3704.32,,,,
1199,08/24/2021 10:30:00,30.20,4185.60,,,,
1200,08/24/2021 11:00:00,33.80,28743.68,,,,
1201,08/24/2021 11:30:00,32.69,5959.68,,,,
1202,08/24/2021 12:00:00,33.80,6451.20,,,,
1203,08/24/2021 12:30:00,47.49,24442.88,,,,
1204,08/24/2021 13:00:00,48.95,9968.64,,,,
1205,08/24/2021 13:30:00,51.26,59432.96,,,,
1206,08/24/2021 14:00:00,50.92,56156.16,,,,
1207,08/24/2021 14:30:00,44.87,22978.56,,,,
1208,08/24/2021 15:00:00,50.79,12672.00,,,,
1209,08/24/2021 15:30:00,50.41,50442.24,,,,
1210,08/24/2021 16:00:00,50.53,44912.64,,,,
1211,08/24/2021 16:30:00,47.23,35952.64,,,,
1212,08/24/2021 17:00:00,48.17,30566.40,,,,
1213,08/24/2021 17:30:00,47.96,24606.72,,,,
1214,08/24/2021 18:00:00,37.15,4458.24,,,,
1215,08/24/2021 18:30:00,32.43,2617.60,,,,
1216,08/24/2021 19:00:00,30.16,1671.68,,,,
1217,08/24/2021 19:30:00,28.57,571.04,,,,
1218,08/24/2021 20:00:00,27.45,14.91,,,,
1219,08/24/2021 20:30:00,27.11,0.00,,,,
1220,08/24/2021 21:00:00,27.45,0.00,,,,
1221,08/24/2021 21:30:00,28.05,0.00,,,,
1222,08/24/2021 22:00:00,27.93,0.00,,,,
1223,08/24/2021 22:30:00,27.02,0.00,,,,
1224,08/24/2021 23:00:00,26.98,0.00,,,,
1225,08/24/2021 23:30:00,26.64,0.00,,,,
1226,08/25/2021 00:00:00,25.95,0.00,,,,
1227,08/25/2021 00:30:00,25.52,0.00,,,,
1228,08/25/2021 01:00:00,25.39,0.00,,,,
1229,08/25/2021 01:30:00,25.48,0.00,,,,
1230,08/25/2021 02:00:00,25.09,0.00,,,,
1231,08/25/2021 02:30:00,24.79,0.00,,,,
1232,08/25/2021 03:00:00,24.36,0.00,,,,
1233,08/25/2021 03:30:00,24.19,0.00,,,,
1234,08/25/2021 04:00:00,24.32,0.00,,,,
1235,08/25/2021 04:30:00,23.98,0.00,,,,
1236,08/25/2021 05:00:00,23.98,0.00,,,,
1237,08/25/2021 05:30:00,23.68,0.00,,,,
1238,08/25/2021 06:00:00,24.06,0.64,,,,
1239,08/25/2021 06:30:00,24.88,249.12,,,,
1240,08/25/2021 07:00:00,24.97,1066.24,,,,
1241,08/25/2021 07:30:00,24.97,1676.16,,,,
1242,08/25/2021 08:00:00,24.97,2124.16,,,,
1243,08/25/2021 08:30:00,25.87,2562.56,,,,
1244,08/25/2021 09:00:00,34.62,18718.72,,,,
1245,08/25/2021 09:30:00,31.23,3224.32,,,,
1246,08/25/2021 10:00:00,29.90,3403.52,,,,
1247,08/25/2021 10:30:00,30.89,4481.28,,,,
1248,08/25/2021 11:00:00,34.23,19343.36,,,,
1249,08/25/2021 11:30:00,33.29,6868.48,,,,
1250,08/25/2021 12:00:00,34.40,6266.88,,,,
1251,08/25/2021 12:30:00,55.85,50135.04,,,,
1252,08/25/2021 13:00:00,55.90,47206.40,,,,
1253,08/25/2021 13:30:00,54.91,33280.00,,,,
1254,08/25/2021 14:00:00,46.20,10752.00,,,,
1255,08/25/2021 14:30:00,43.84,53678.08,,,,
1256,08/25/2021 15:00:00,55.34,46243.84,,,,
1257,08/25/2021 15:30:00,52.51,45322.24,,,,
1258,08/25/2021 16:00:00,41.01,11069.44,,,,
1259,08/25/2021 16:30:00,50.66,29460.48,,,,
1260,08/25/2021 17:00:00,48.99,26593.28,,,,
1261,08/25/2021 17:30:00,44.36,24023.04,,,,
1262,08/25/2021 18:00:00,35.73,4725.76,,,,
1263,08/25/2021 18:30:00,32.22,3100.16,,,,
1264,08/25/2021 19:00:00,30.54,1934.72,,,,
1265,08/25/2021 19:30:00,29.26,575.36,,,,
1266,08/25/2021 20:00:00,28.31,9.51,,,,
1267,08/25/2021 20:30:00,27.45,0.00,,,,
1268,08/25/2021 21:00:00,27.02,0.00,,,,
1269,08/25/2021 21:30:00,26.81,0.00,,,,
1270,08/25/2021 22:00:00,26.94,0.00,,,,
1271,08/25/2021 22:30:00,27.15,0.00,,,,
1272,08/25/2021 23:00:00,27.84,0.00,,,,
1273,08/25/2021 23:30:00,27.20,0.00,,,,
1274,08/26/2021 00:00:00,26.85,0.00,,,,
1275,08/26/2021 00:30:00,26.51,0.00,,,,
1276,08/26/2021 01:00:00,27.28,0.00,,,,
1277,08/26/2021 01:30:00,27.28,0.00,,,,
1278,08/26/2021 02:00:00,27.15,0.00,,,,
1279,08/26/2021 02:30:00,26.60,0.00,,,,
1280,08/26/2021 03:00:00,26.34,0.00,,,,
1281,08/26/2021 03:30:00,25.27,0.00,,,,
1282,08/26/2021 04:00:00,24.45,0.00,,,,
1283,08/26/2021 04:30:00,24.19,0.00,,,,
1284,08/26/2021 05:00:00,23.89,0.00,,,,
1285,08/26/2021 05:30:00,23.72,0.00,,,,
1286,08/26/2021 06:00:00,23.85,0.00,,,,
1287,08/26/2021 06:30:00,23.25,211.92,,,,
1288,08/26/2021 07:00:00,23.94,655.04,,,,
1289,08/26/2021 07:30:00,23.98,1804.16,,,,
1290,08/26/2021 08:00:00,24.88,2287.36,,,,
1291,08/26/2021 08:30:00,26.12,3050.24,,,,
1292,08/26/2021 09:00:00,31.92,24023.04,,,,
1293,08/26/2021 09:30:00,29.86,5565.44,,,,
1294,08/26/2021 10:00:00,29.94,4915.20,,,,
1295,08/26/2021 10:30:00,30.59,2321.92,,,,
1296,08/26/2021 11:00:00,32.09,6356.48,,,,
1297,08/26/2021 11:30:00,33.85,15938.56,,,,
1298,08/26/2021 12:00:00,35.86,11996.16,,,,
1299,08/26/2021 12:30:00,54.31,51937.28,,,,
1300,08/26/2021 13:00:00,46.67,19159.04,,,,
1301,08/26/2021 13:30:00,41.48,6200.32,,,,
1302,08/26/2021 14:00:00,32.26,1551.36,,,,
1303,08/26/2021 14:30:00,23.64,3385.60,,,,
1304,08/26/2021 15:00:00,24.79,5445.12,,,,
1305,08/26/2021 15:30:00,25.09,2027.52,,,,
1306,08/26/2021 16:00:00,24.41,2851.84,,,,
1307,08/26/2021 16:30:00,24.06,1093.76,,,,
1308,08/26/2021 17:00:00,24.11,1694.72,,,,
1309,08/26/2021 17:30:00,24.66,2312.96,,,,
1310,08/26/2021 18:00:00,24.71,1929.60,,,,
1311,08/26/2021 18:30:00,24.92,3123.20,,,,
1312,08/26/2021 19:00:00,24.54,822.08,,,,
1313,08/26/2021 19:30:00,23.59,199.92,,,,
1314,08/26/2021 20:00:00,23.21,4.75,,,,
1315,08/26/2021 20:30:00,22.13,0.00,,,,
1316,08/26/2021 21:00:00,22.22,0.00,,,,
1317,08/26/2021 21:30:00,21.96,0.00,,,,
1318,08/26/2021 22:00:00,21.66,0.00,,,,
1319,08/26/2021 22:30:00,22.05,0.00,,,,
1320,08/26/2021 23:00:00,22.18,0.00,,,,
1321,08/26/2021 23:30:00,22.31,0.00,,,,
1322,08/27/2021 00:00:00,22.09,0.00,,,,
1323,08/27/2021 00:30:00,21.79,0.00,,,,
1324,08/27/2021 01:00:00,21.28,0.00,,,,
1325,08/27/2021 01:30:00,21.23,0.00,,,,
1326,08/27/2021 02:00:00,21.15,0.00,,,,
1327,08/27/2021 02:30:00,21.10,0.00,,,,
1328,08/27/2021 03:00:00,20.80,0.00,,,,
1329,08/27/2021 03:30:00,20.85,0.00,,,,
1330,08/27/2021 04:00:00,20.50,0.00,,,,
1331,08/27/2021 04:30:00,20.63,0.00,,,,
1332,08/27/2021 05:00:00,20.42,0.00,,,,
1333,08/27/2021 05:30:00,20.33,0.00,,,,
1334,08/27/2021 06:00:00,20.25,0.43,,,,
1335,08/27/2021 06:30:00,20.25,163.48,,,,
1336,08/27/2021 07:00:00,20.42,1054.40,,,,
1337,08/27/2021 07:30:00,21.10,1934.72,,,,
1338,08/27/2021 08:00:00,21.79,2617.60,,,,
1339,08/27/2021 08:30:00,22.91,3264.00,,,,
1340,08/27/2021 09:00:00,25.82,7836.16,,,,
1341,08/27/2021 09:30:00,27.80,18411.52,,,,
1342,08/27/2021 10:00:00,27.71,5427.20,,,,
1343,08/27/2021 10:30:00,30.63,8985.60,,,,
1344,08/27/2021 11:00:00,31.44,9541.12,,,,
1345,08/27/2021 11:30:00,32.73,13696.00,,,,
1346,08/27/2021 12:00:00,33.72,23746.56,,,,
1347,08/27/2021 12:30:00,49.16,6059.52,,,,
1348,08/27/2021 13:00:00,31.57,12431.36,,,,
1349,08/27/2021 13:30:00,52.38,51322.88,,,,
1350,08/27/2021 14:00:00,47.92,18775.04,,,,
1351,08/27/2021 14:30:00,38.99,10373.12,,,,
1352,08/27/2021 15:00:00,43.88,14771.20,,,,
1353,08/27/2021 15:30:00,36.76,9369.60,,,,
1354,08/27/2021 16:00:00,36.55,8412.16,,,,
1355,08/27/2021 16:30:00,31.40,4605.44,,,,
1356,08/27/2021 17:00:00,31.40,8778.24,,,,
1357,08/27/2021 17:30:00,29.00,7930.88,,,,
1358,08/27/2021 18:00:00,28.83,3464.96,,,,
1359,08/27/2021 18:30:00,27.75,2560.64,,,,
1360,08/27/2021 19:00:00,26.85,1280.32,,,,
1361,08/27/2021 19:30:00,26.21,378.08,,,,
1362,08/27/2021 20:00:00,25.48,3.44,,,,
1363,08/27/2021 20:30:00,25.14,0.00,,,,
1364,08/27/2021 21:00:00,25.01,0.00,,,,
1365,08/27/2021 21:30:00,24.92,0.00,,,,
1366,08/27/2021 22:00:00,24.79,0.00,,,,
1367,08/27/2021 22:30:00,24.88,0.00,,,,
1368,08/27/2021 23:00:00,25.61,0.00,,,,
1369,08/27/2021 23:30:00,25.05,0.00,,,,
1370,08/28/2021 00:00:00,24.24,0.00,,,,
1371,08/28/2021 00:30:00,23.72,0.00,,,,
1372,08/28/2021 01:00:00,23.42,0.00,,,,
1373,08/28/2021 01:30:00,23.12,0.00,,,,
1374,08/28/2021 02:00:00,22.99,0.00,,,,
1375,08/28/2021 02:30:00,22.91,0.00,,,,
1376,08/28/2021 03:00:00,22.52,0.00,,,,
1377,08/28/2021 03:30:00,22.35,0.00,,,,
1378,08/28/2021 04:00:00,22.18,0.00,,,,
1379,08/28/2021 04:30:00,22.09,0.00,,,,
1380,08/28/2021 05:00:00,22.01,0.00,,,,
1381,08/28/2021 05:30:00,21.92,0.00,,,,
1382,08/28/2021 06:00:00,21.75,0.21,,,,
1383,08/28/2021 06:30:00,21.58,167.76,,,,
1384,08/28/2021 07:00:00,21.83,927.04,,,,
1385,08/28/2021 07:30:00,22.13,1598.72,,,,
1386,08/28/2021 08:00:00,22.95,2110.08,,,,
1387,08/28/2021 08:30:00,23.98,2679.04,,,,
1388,08/28/2021 09:00:00,25.69,3288.32,,,,
1389,08/28/2021 09:30:00,27.02,10222.08,,,,
1390,08/28/2021 10:00:00,28.01,3879.68,,,,
1391,08/28/2021 10:30:00,28.91,4295.68,,,,
1392,08/28/2021 11:00:00,30.24,4966.40,,,,
1393,08/28/2021 11:30:00,34.23,30197.76,,,,
1394,08/28/2021 12:00:00,34.49,23480.32,,,,
1395,08/28/2021 12:30:00,49.12,52469.76,,,,
1396,08/28/2021 13:00:00,50.66,50237.44,,,,
1397,08/28/2021 13:30:00,52.08,50380.80,,,,
1398,08/28/2021 14:00:00,53.32,47431.68,,,,
1399,08/28/2021 14:30:00,50.19,44974.08,,,,
1400,08/28/2021 15:00:00,50.66,40888.32,,,,
1401,08/28/2021 15:30:00,46.54,38625.28,,,,
1402,08/28/2021 16:00:00,49.50,15600.64,,,,
1403,08/28/2021 16:30:00,35.69,5210.88,,,,
1404,08/28/2021 17:00:00,32.99,6568.96,,,,
1405,08/28/2021 17:30:00,31.53,4770.56,,,,
1406,08/28/2021 18:00:00,33.50,6197.76,,,,
1407,08/28/2021 18:30:00,30.63,3512.32,,,,
1408,08/28/2021 19:00:00,28.78,2034.56,,,,
1409,08/28/2021 19:30:00,26.85,389.44,,,,
1410,08/28/2021 20:00:00,25.65,3.44,,,,
1411,08/28/2021 20:30:00,24.84,0.00,,,,
1412,08/28/2021 21:00:00,24.45,0.00,,,,
1413,08/28/2021 21:30:00,24.45,0.00,,,,
1414,08/28/2021 22:00:00,24.62,0.00,,,,
1415,08/28/2021 22:30:00,24.88,0.00,,,,
1416,08/28/2021 23:00:00,24.79,0.00,,,,
1417,08/28/2021 23:30:00,25.39,0.00,,,,
1418,08/29/2021 00:00:00,25.48,0.00,,,,
1419,08/29/2021 00:30:00,24.88,0.00,,,,
1420,08/29/2021 01:00:00,24.32,0.00,,,,
1421,08/29/2021 01:30:00,23.72,0.00,,,,
1422,08/29/2021 02:00:00,23.12,0.00,,,,
1423,08/29/2021 02:30:00,22.73,0.00,,,,
1424,08/29/2021 03:00:00,22.48,0.00,,,,
1425,08/29/2021 03:30:00,22.31,0.00,,,,
1426,08/29/2021 04:00:00,22.18,0.00,,,,
1427,08/29/2021 04:30:00,21.96,0.00,,,,
1428,08/29/2021 05:00:00,21.75,0.00,,,,
1429,08/29/2021 05:30:00,21.62,0.00,,,,
1430,08/29/2021 06:00:00,21.53,0.00,,,,
1431,08/29/2021 06:30:00,21.36,152.20,,,,
1432,08/29/2021 07:00:00,21.75,897.60,,,,
1433,08/29/2021 07:30:00,22.22,1504.64,,,,
1434,08/29/2021 08:00:00,22.99,1914.24,,,,
1435,08/29/2021 08:30:00,24.71,3549.44,,,,
1436,08/29/2021 09:00:00,28.05,7505.92,,,,
1437,08/29/2021 09:30:00,30.80,8896.00,,,,
1438,08/29/2021 10:00:00,28.91,3308.80,,,,
1439,08/29/2021 10:30:00,29.73,5200.64,,,,
1440,08/29/2021 11:00:00,31.14,6074.88,,,,
1441,08/29/2021 11:30:00,36.16,31836.16,,,,
1442,08/29/2021 12:00:00,40.62,26890.24,,,,
1443,08/29/2021 12:30:00,51.91,50749.44,,,,
1444,08/29/2021 13:00:00,55.51,56156.16,,,,
1445,08/29/2021 13:30:00,28.05,7815.68,,,,
1446,08/29/2021 14:00:00,42.38,34385.92,,,,
1447,08/29/2021 14:30:00,43.93,33955.84,,,,
1448,08/29/2021 15:00:00,32.04,7808.00,,,,
1449,08/29/2021 15:30:00,38.69,37877.76,,,,
1450,08/29/2021 16:00:00,43.97,32645.12,,,,
1451,08/29/2021 16:30:00,46.20,29665.28,,,,
1452,08/29/2021 17:00:00,44.91,25118.72,,,,
1453,08/29/2021 17:30:00,35.86,5053.44,,,,
1454,08/29/2021 18:00:00,30.41,5847.04,,,,
1455,08/29/2021 18:30:00,28.91,2872.32,,,,
1456,08/29/2021 19:00:00,27.58,1950.08,,,,
1457,08/29/2021 19:30:00,25.87,348.96,,,,
1458,08/29/2021 20:00:00,24.45,1.29,,,,
1459,08/29/2021 20:30:00,23.98,0.00,,,,
1460,08/29/2021 21:00:00,23.76,0.00,,,,
1461,08/29/2021 21:30:00,23.72,0.00,,,,
1462,08/29/2021 22:00:00,23.42,0.00,,,,
1463,08/29/2021 22:30:00,22.95,0.00,,,,
1464,08/29/2021 23:00:00,22.73,0.00,,,,
1465,08/29/2021 23:30:00,22.56,0.00,,,,
1466,08/30/2021 00:00:00,22.35,0.00,,,,
1467,08/30/2021 00:30:00,22.18,0.00,,,,
1468,08/30/2021 01:00:00,22.31,0.00,,,,
1469,08/30/2021 01:30:00,22.56,0.00,,,,
1470,08/30/2021 02:00:00,22.61,0.00,,,,
1471,08/30/2021 02:30:00,22.56,0.00,,,,
1472,08/30/2021 03:00:00,22.35,0.00,,,,
1473,08/30/2021 03:30:00,22.52,0.00,,,,
1474,08/30/2021 04:00:00,22.61,0.00,,,,
1475,08/30/2021 04:30:00,22.61,0.00,,,,
1476,08/30/2021 05:00:00,22.61,0.00,,,,
1477,08/30/2021 05:30:00,22.43,0.00,,,,
1478,08/30/2021 06:00:00,22.22,0.00,,,,
1479,08/30/2021 06:30:00,22.09,115.88,,,,
1480,08/30/2021 07:00:00,21.83,730.56,,,,
1481,08/30/2021 07:30:00,22.31,1602.56,,,,
1482,08/30/2021 08:00:00,23.08,2079.36,,,,
1483,08/30/2021 08:30:00,23.81,2369.92,,,,
1484,08/30/2021 09:00:00,25.22,2844.16,,,,
1485,08/30/2021 09:30:00,28.44,6927.36,,,,
1486,08/30/2021 10:00:00,29.81,9871.36,,,,
1487,08/30/2021 10:30:00,30.63,8880.64,,,,
1488,08/30/2021 11:00:00,32.52,12636.16,,,,
1489,08/30/2021 11:30:00,35.00,20700.16,,,,
1490,08/30/2021 12:00:00,39.72,67522.56,,,,
1491,08/30/2021 12:30:00,51.61,62771.20,,,,
1492,08/30/2021 13:00:00,51.78,71516.16,,,,
1493,08/30/2021 13:30:00,35.43,7979.52,,,,
1494,08/30/2021 14:00:00,29.26,5368.32,,,,
1495,08/30/2021 14:30:00,28.05,5603.84,,,,
1496,08/30/2021 15:00:00,23.94,1597.44,,,,
1497,08/30/2021 15:30:00,23.72,583.04,,,,
1498,08/30/2021 16:00:00,23.59,868.16,,,,
1499,08/30/2021 16:30:00,23.08,669.44,,,,
1500,08/30/2021 17:00:00,23.25,912.32,,,,
1501,08/30/2021 17:30:00,23.34,1304.64,,,,
1502,08/30/2021 18:00:00,23.29,1458.56,,,,
1503,08/30/2021 18:30:00,23.08,954.56,,,,
1504,08/30/2021 19:00:00,22.82,611.84,,,,
1505,08/30/2021 19:30:00,22.69,124.68,,,,
1506,08/30/2021 20:00:00,22.52,0.86,,,,
1507,08/30/2021 20:30:00,22.26,0.00,,,,
1508,08/30/2021 21:00:00,22.61,0.00,,,,
1509,08/30/2021 21:30:00,22.26,0.00,,,,
1510,08/30/2021 22:00:00,21.88,0.00,,,,
1511,08/30/2021 22:30:00,22.18,0.00,,,,
1512,08/30/2021 23:00:00,22.22,0.00,,,,
1513,08/30/2021 23:30:00,21.70,0.00,,,,
1514,08/31/2021 00:00:00,21.45,0.00,,,,
1515,08/31/2021 00:30:00,21.49,0.00,,,,
1516,08/31/2021 01:00:00,22.09,0.00,,,,
1517,08/31/2021 01:30:00,21.79,0.00,,,,
1518,08/31/2021 02:00:00,21.75,0.00,,,,
1519,08/31/2021 02:30:00,21.49,0.00,,,,
1520,08/31/2021 03:00:00,21.28,0.00,,,,
1521,08/31/2021 03:30:00,21.32,0.00,,,,
1522,08/31/2021 04:00:00,21.45,0.00,,,,
1523,08/31/2021 04:30:00,21.58,0.00,,,,
1524,08/31/2021 05:00:00,21.58,0.00,,,,
1525,08/31/2021 05:30:00,21.70,0.00,,,,
1526,08/31/2021 06:00:00,21.75,0.00,,,,
1527,08/31/2021 06:30:00,21.66,103.84,,,,
1528,08/31/2021 07:00:00,21.83,837.44,,,,
1529,08/31/2021 07:30:00,22.22,1917.44,,,,
1530,08/31/2021 08:00:00,23.72,6074.88,,,,
1531,08/31/2021 08:30:00,23.12,3178.24,,,,
1532,08/31/2021 09:00:00,23.89,6904.32,,,,
1533,08/31/2021 09:30:00,25.35,7180.80,,,,
1534,08/31/2021 10:00:00,28.27,20495.36,,,,
1535,08/31/2021 10:30:00,27.11,7034.88,,,,
1536,08/31/2021 11:00:00,30.41,20561.92,,,,
1537,08/31/2021 11:30:00,30.84,23162.88,,,,
1538,08/31/2021 12:00:00,35.99,59453.44,,,,
1539,08/31/2021 12:30:00,45.00,58572.80,,,,
1540,08/31/2021 13:00:00,42.77,13168.64,,,,
1541,08/31/2021 13:30:00,37.36,38318.08,,,,
1542,08/31/2021 14:00:00,32.56,9589.76,,,,
1543,08/31/2021 14:30:00,43.41,42147.84,,,,
1544,08/31/2021 15:00:00,48.43,46510.08,,,,
1545,08/31/2021 15:30:00,44.01,37027.84,,,,
1546,08/31/2021 16:00:00,40.80,19097.60,,,,
1547,08/31/2021 16:30:00,45.13,27791.36,,,,
1548,08/31/2021 17:00:00,38.26,10629.12,,,,
1549,08/31/2021 17:30:00,33.37,4599.04,,,,
1550,08/31/2021 18:00:00,28.48,4426.24,,,,
1551,08/31/2021 18:30:00,26.98,2772.48,,,,
1552,08/31/2021 19:00:00,25.78,1104.96,,,,
1553,08/31/2021 19:30:00,25.05,63.10,,,,
1554,08/31/2021 20:00:00,23.68,0.00,,,,
1555,08/31/2021 20:30:00,23.68,0.00,,,,
1556,08/31/2021 21:00:00,22.48,0.00,,,,
1557,08/31/2021 21:30:00,22.82,0.00,,,,
1558,08/31/2021 22:00:00,23.03,0.00,,,,
1559,08/31/2021 22:30:00,22.65,0.00,,,,
1560,08/31/2021 23:00:00,22.65,0.00,,,,
1561,08/31/2021 23:30:00,21.79,0.00,,,,
1562,09/01/2021 00:00:00,21.53,0.00,,,,
1563,09/01/2021 00:30:00,21.06,0.00,,,,
1564,09/01/2021 01:00:00,21.10,0.00,,,,
1565,09/01/2021 01:30:00,20.76,0.00,,,,
1566,09/01/2021 02:00:00,20.76,0.00,,,,
1567,09/01/2021 02:30:00,20.98,0.00,,,,
1568,09/01/2021 03:00:00,21.23,0.00,,,,
1569,09/01/2021 03:30:00,21.36,0.00,,,,
1570,09/01/2021 04:00:00,21.02,0.00,,,,
1571,09/01/2021 04:30:00,20.89,0.00,,,,
1572,09/01/2021 05:00:00,21.02,0.00,,,,
1573,09/01/2021 05:30:00,20.80,0.00,,,,
1574,09/01/2021 06:00:00,20.46,0.00,,,,
1575,09/01/2021 06:30:00,20.25,31.12,,,,
1576,09/01/2021 07:00:00,20.20,239.92,,,,
1577,09/01/2021 07:30:00,20.29,1050.88,,,,
1578,09/01/2021 08:00:00,20.33,1477.12,,,,
1579,09/01/2021 08:30:00,20.20,1183.36,,,,
1580,09/01/2021 09:00:00,19.39,1866.24,,,,
1581,09/01/2021 09:30:00,20.16,3557.12,,,,
1582,09/01/2021 10:00:00,21.66,9369.60,,,,
1583,09/01/2021 10:30:00,23.42,17597.44,,,,
1584,09/01/2021 11:00:00,22.99,10037.76,,,,
1585,09/01/2021 11:30:00,26.04,16035.84,,,,
1586,09/01/2021 12:00:00,27.97,31580.16,,,,
1587,09/01/2021 12:30:00,35.48,24975.36,,,,
1588,09/01/2021 13:00:00,45.09,53719.04,,,,
1589,09/01/2021 13:30:00,47.23,57098.24,,,,
1590,09/01/2021 14:00:00,47.79,56074.24,,,,
1591,09/01/2021 14:30:00,45.47,78479.36,,,,
1592,09/01/2021 15:00:00,43.71,17981.44,,,,
1593,09/01/2021 15:30:00,43.93,42106.88,,,,
1594,09/01/2021 16:00:00,34.53,36546.56,,,,
1595,09/01/2021 16:30:00,43.58,32634.88,,,,
1596,09/01/2021 17:00:00,29.77,5624.32,,,,
1597,09/01/2021 17:30:00,31.61,13173.76,,,,
1598,09/01/2021 18:00:00,26.85,3198.72,,,,
1599,09/01/2021 18:30:00,24.66,2268.16,,,,
1600,09/01/2021 19:00:00,23.34,1079.04,,,,
1601,09/01/2021 19:30:00,21.66,218.88,,,,
1602,09/01/2021 20:00:00,20.59,0.43,,,,
1603,09/01/2021 20:30:00,20.16,0.00,,,,
1604,09/01/2021 21:00:00,19.73,0.00,,,,
1605,09/01/2021 21:30:00,19.39,0.00,,,,
1606,09/01/2021 22:00:00,18.74,0.00,,,,
1607,09/01/2021 22:30:00,18.40,0.00,,,,
1608,09/01/2021 23:00:00,17.97,0.00,,,,
1609,09/01/2021 23:30:00,17.59,0.00,,,,
1610,09/02/2021 00:00:00,17.16,0.00,,,,
1611,09/02/2021 00:30:00,16.77,0.00,,,,
1612,09/02/2021 01:00:00,16.13,0.00,,,,
1613,09/02/2021 01:30:00,15.83,0.00,,,,
1614,09/02/2021 02:00:00,15.27,0.00,,,,
1615,09/02/2021 02:30:00,14.93,0.00,,,,
1616,09/02/2021 03:00:00,14.80,0.00,,,,
1617,09/02/2021 03:30:00,14.54,0.00,,,,
1618,09/02/2021 04:00:00,14.33,0.00,,,,
1619,09/02/2021 04:30:00,14.07,0.00,,,,
1620,09/02/2021 05:00:00,14.20,0.00,,,,
1621,09/02/2021 05:30:00,14.41,0.00,,,,
1622,09/02/2021 06:00:00,13.98,0.00,,,,
1623,09/02/2021 06:30:00,13.68,100.40,,,,
1624,09/02/2021 07:00:00,13.64,787.52,,,,
1625,09/02/2021 07:30:00,14.07,1419.52,,,,
1626,09/02/2021 08:00:00,15.10,1882.88,,,,
1627,09/02/2021 08:30:00,16.13,2257.92,,,,
1628,09/02/2021 09:00:00,17.50,2675.20,,,,
1629,09/02/2021 09:30:00,18.79,3183.36,,,,
1630,09/02/2021 10:00:00,20.29,3690.24,,,,
1631,09/02/2021 10:30:00,21.32,3918.08,,,,
1632,09/02/2021 11:00:00,22.91,4523.52,,,,
1633,09/02/2021 11:30:00,28.27,21114.88,,,,
1634,09/02/2021 12:00:00,37.11,43130.88,,,,
1635,09/02/2021 12:30:00,44.96,51978.24,,,,
1636,09/02/2021 13:00:00,44.83,55541.76,,,,
1637,09/02/2021 13:30:00,44.10,57978.88,,,,
1638,09/02/2021 14:00:00,44.57,54743.04,,,,
1639,09/02/2021 14:30:00,45.99,54005.76,,,,
1640,09/02/2021 15:00:00,39.94,22138.88,,,,
1641,09/02/2021 15:30:00,40.92,25896.96,,,,
1642,09/02/2021 16:00:00,42.47,39464.96,,,,
1643,09/02/2021 16:30:00,34.79,23859.20,,,,
1644,09/02/2021 17:00:00,36.89,17464.32,,,,
1645,09/02/2021 17:30:00,28.44,7050.24,,,,
1646,09/02/2021 18:00:00,24.84,3714.56,,,,
1647,09/02/2021 18:30:00,23.42,2863.36,,,,
1648,09/02/2021 19:00:00,21.62,1247.68,,,,
1649,09/02/2021 19:30:00,19.60,110.72,,,,
1650,09/02/2021 20:00:00,18.66,0.00,,,,
1651,09/02/2021 20:30:00,17.89,0.00,,,,
1652,09/02/2021 21:00:00,17.50,0.00,,,,
1653,09/02/2021 21:30:00,17.46,0.00,,,,
1654,09/02/2021 22:00:00,17.16,0.00,,,,
1655,09/02/2021 22:30:00,17.37,0.00,,,,
1656,09/02/2021 23:00:00,17.63,0.00,,,,
1657,09/02/2021 23:30:00,17.54,0.00,,,,
1658,09/03/2021 00:00:00,17.41,0.00,,,,
1659,09/03/2021 00:30:00,16.90,0.00,,,,
1660,09/03/2021 01:00:00,16.43,0.00,,,,
1661,09/03/2021 01:30:00,16.08,0.00,,,,
1662,09/03/2021 02:00:00,16.34,0.00,,,,
1663,09/03/2021 02:30:00,16.26,0.00,,,,
1664,09/03/2021 03:00:00,16.30,0.00,,,,
1665,09/03/2021 03:30:00,16.04,0.00,,,,
1666,09/03/2021 04:00:00,15.66,0.00,,,,
1667,09/03/2021 04:30:00,15.36,0.00,,,,
1668,09/03/2021 05:00:00,14.93,0.00,,,,
1669,09/03/2021 05:30:00,14.80,0.00,,,,
1670,09/03/2021 06:00:00,14.75,0.00,,,,
1671,09/03/2021 06:30:00,14.97,77.94,,,,
1672,09/03/2021 07:00:00,15.36,1276.16,,,,
1673,09/03/2021 07:30:00,16.69,3034.88,,,,
1674,09/03/2021 08:00:00,17.67,3229.44,,,,
1675,09/03/2021 08:30:00,20.03,5980.16,,,,
1676,09/03/2021 09:00:00,23.25,9198.08,,,,
1677,09/03/2021 09:30:00,24.45,8599.04,,,,
1678,09/03/2021 10:00:00,27.28,12641.28,,,,
1679,09/03/2021 10:30:00,27.88,11888.64,,,,
1680,09/03/2021 11:00:00,28.35,12815.36,,,,
1681,09/03/2021 11:30:00,28.53,13178.88,,,,
1682,09/03/2021 12:00:00,28.40,8522.24,,,,
1683,09/03/2021 12:30:00,28.31,11217.92,,,,
1684,09/03/2021 13:00:00,30.97,21975.04,,,,
1685,09/03/2021 13:30:00,33.20,13608.96,,,,
1686,09/03/2021 14:00:00,28.95,9707.52,,,,
1687,09/03/2021 14:30:00,25.31,2988.80,,,,
1688,09/03/2021 15:00:00,25.48,5076.48,,,,
1689,09/03/2021 15:30:00,28.01,10030.08,,,,
1690,09/03/2021 16:00:00,28.14,9425.92,,,,
1691,09/03/2021 16:30:00,31.01,11919.36,,,,
1692,09/03/2021 17:00:00,28.01,5798.40,,,,
1693,09/03/2021 17:30:00,27.11,3855.36,,,,
1694,09/03/2021 18:00:00,26.94,5363.20,,,,
1695,09/03/2021 18:30:00,26.12,3389.44,,,,
1696,09/03/2021 19:00:00,23.72,1164.48,,,,
1697,09/03/2021 19:30:00,22.26,150.48,,,,
1698,09/03/2021 20:00:00,20.93,0.00,,,,
1699,09/03/2021 20:30:00,20.55,0.00,,,,
1700,09/03/2021 21:00:00,21.06,0.00,,,,
1701,09/03/2021 21:30:00,21.62,0.00,,,,
1702,09/03/2021 22:00:00,21.40,0.00,,,,
1703,09/03/2021 22:30:00,21.32,0.00,,,,
1704,09/03/2021 23:00:00,22.22,0.00,,,,
1705,09/03/2021 23:30:00,22.91,0.00,,,,
1706,09/04/2021 00:00:00,23.08,0.00,,,,
1707,09/04/2021 00:30:00,22.61,0.00,,,,
1708,09/04/2021 01:00:00,22.31,0.00,,,,
1709,09/04/2021 01:30:00,22.43,0.00,,,,
1710,09/04/2021 02:00:00,22.35,0.00,,,,
1711,09/04/2021 02:30:00,20.63,0.00,,,,
1712,09/04/2021 03:00:00,20.59,0.00,,,,
1713,09/04/2021 03:30:00,20.68,0.00,,,,
1714,09/04/2021 04:00:00,20.50,0.00,,,,
1715,09/04/2021 04:30:00,20.59,0.00,,,,
1716,09/04/2021 05:00:00,20.63,0.00,,,,
1717,09/04/2021 05:30:00,20.63,0.00,,,,
1718,09/04/2021 06:00:00,20.85,0.00,,,,
1719,09/04/2021 06:30:00,20.85,15.99,,,,
1720,09/04/2021 07:00:00,21.15,504.32,,,,
1721,09/04/2021 07:30:00,21.70,1520.00,,,,
1722,09/04/2021 08:00:00,22.01,708.48,,,,
1723,09/04/2021 08:30:00,22.22,2104.96,,,,
1724,09/04/2021 09:00:00,22.05,1681.28,,,,
1725,09/04/2021 09:30:00,22.69,3539.20,,,,
1726,09/04/2021 10:00:00,22.65,3247.36,,,,
1727,09/04/2021 10:30:00,23.94,6799.36,,,,
1728,09/04/2021 11:00:00,23.94,6466.56,,,,
1729,09/04/2021 11:30:00,23.85,6177.28,,,,
1730,09/04/2021 12:00:00,24.58,6556.16,,,,
1731,09/04/2021 12:30:00,24.24,5637.12,,,,
1732,09/04/2021 13:00:00,24.97,7421.44,,,,
1733,09/04/2021 13:30:00,24.36,5724.16,,,,
1734,09/04/2021 14:00:00,23.89,3557.12,,,,
1735,09/04/2021 14:30:00,25.78,12190.72,,,,
1736,09/04/2021 15:00:00,26.34,15395.84,,,,
1737,09/04/2021 15:30:00,27.28,12881.92,,,,
1738,09/04/2021 16:00:00,26.98,8412.16,,,,
1739,09/04/2021 16:30:00,25.44,4691.20,,,,
1740,09/04/2021 17:00:00,24.15,1085.12,,,,
1741,09/04/2021 17:30:00,23.51,1511.68,,,,
1742,09/04/2021 18:00:00,23.51,2070.40,,,,
1743,09/04/2021 18:30:00,23.72,2552.32,,,,
1744,09/04/2021 19:00:00,23.21,642.72,,,,
1745,09/04/2021 19:30:00,22.91,36.33,,,,
1746,09/04/2021 20:00:00,22.73,0.00,,,,
1747,09/04/2021 20:30:00,22.65,0.00,,,,
1748,09/04/2021 21:00:00,22.13,0.00,,,,
1749,09/04/2021 21:30:00,22.35,0.00,,,,
1750,09/04/2021 22:00:00,22.22,0.00,,,,
1751,09/04/2021 22:30:00,22.13,0.00,,,,
1752,09/04/2021 23:00:00,21.58,0.00,,,,
1753,09/04/2021 23:30:00,21.58,0.00,,,,
1754,09/05/2021 00:00:00,21.49,0.00,,,,
1755,09/05/2021 00:30:00,21.23,0.00,,,,
1756,09/05/2021 01:00:00,21.15,0.00,,,,
1757,09/05/2021 01:30:00,21.10,0.00,,,,
1758,09/05/2021 02:00:00,20.63,0.00,,,,
1759,09/05/2021 02:30:00,20.59,0.00,,,,
1760,09/05/2021 03:00:00,20.42,0.00,,,,
1761,09/05/2021 03:30:00,20.25,0.00,,,,
1762,09/05/2021 04:00:00,19.43,0.00,,,,
1763,09/05/2021 04:30:00,18.83,0.00,,,,
1764,09/05/2021 05:00:00,18.23,0.00,,,,
1765,09/05/2021 05:30:00,17.84,0.00,,,,
1766,09/05/2021 06:00:00,17.33,0.00,,,,
1767,09/05/2021 06:30:00,16.94,63.14,,,,
1768,09/05/2021 07:00:00,17.16,1013.12,,,,
1769,09/05/2021 07:30:00,18.02,2757.12,,,,
1770,09/05/2021 08:00:00,18.79,2460.80,,,,
1771,09/05/2021 08:30:00,19.56,4933.12,,,,
1772,09/05/2021 09:00:00,19.30,2887.68,,,,
1773,09/05/2021 09:30:00,20.76,13849.60,,,,
1774,09/05/2021 10:00:00,20.59,3997.44,,,,
1775,09/05/2021 10:30:00,21.19,4327.68,,,,
1776,09/05/2021 11:00:00,23.81,9886.72,,,,
1777,09/05/2021 11:30:00,35.22,53473.28,,,,
1778,09/05/2021 12:00:00,35.78,55664.64,,,,
1779,09/05/2021 12:30:00,38.78,42147.84,,,,
1780,09/05/2021 13:00:00,44.14,45015.04,,,,
1781,09/05/2021 13:30:00,45.00,57917.44,,,,
1782,09/05/2021 14:00:00,47.57,56995.84,,,,
1783,09/05/2021 14:30:00,47.14,50032.64,,,,
1784,09/05/2021 15:00:00,46.20,49274.88,,,,
1785,09/05/2021 15:30:00,46.03,43397.12,,,,
1786,09/05/2021 16:00:00,45.39,37529.60,,,,
1787,09/05/2021 16:30:00,43.46,31447.04,,,,
1788,09/05/2021 17:00:00,40.62,24616.96,,,,
1789,09/05/2021 17:30:00,31.96,6095.36,,,,
1790,09/05/2021 18:00:00,24.66,3879.68,,,,
1791,09/05/2021 18:30:00,22.52,2229.12,,,,
1792,09/05/2021 19:00:00,20.68,975.04,,,,
1793,09/05/2021 19:30:00,19.13,102.12,,,,
1794,09/05/2021 20:00:00,18.27,0.00,,,,
1795,09/05/2021 20:30:00,17.72,0.00,,,,
1796,09/05/2021 21:00:00,17.16,0.00,,,,
1797,09/05/2021 21:30:00,17.07,0.00,,,,
1798,09/05/2021 22:00:00,16.81,0.00,,,,
1799,09/05/2021 22:30:00,16.69,0.00,,,,
1800,09/05/2021 23:00:00,16.51,0.00,,,,
1801,09/05/2021 23:30:00,16.34,0.00,,,,
1802,09/06/2021 00:00:00,16.00,0.00,,,,
1803,09/06/2021 00:30:00,15.83,0.00,,,,
1804,09/06/2021 01:00:00,15.87,0.00,,,,
1805,09/06/2021 01:30:00,15.96,0.00,,,,
1806,09/06/2021 02:00:00,15.91,0.00,,,,
1807,09/06/2021 02:30:00,15.78,0.00,,,,
1808,09/06/2021 03:00:00,15.96,0.00,,,,
1809,09/06/2021 03:30:00,16.17,0.00,,,,
1810,09/06/2021 04:00:00,16.26,0.00,,,,
1811,09/06/2021 04:30:00,16.08,0.00,,,,
1812,09/06/2021 05:00:00,16.17,0.00,,,,
1813,09/06/2021 05:30:00,16.13,0.00,,,,
1814,09/06/2021 06:00:00,16.04,0.00,,,,
1815,09/06/2021 06:30:00,16.00,64.00,,,,
1816,09/06/2021 07:00:00,16.21,741.76,,,,
1817,09/06/2021 07:30:00,16.51,1432.32,,,,
1818,09/06/2021 08:00:00,17.03,1889.92,,,,
1819,09/06/2021 08:30:00,18.96,7685.12,,,,
1820,09/06/2021 09:00:00,18.92,2887.68,,,,
1821,09/06/2021 09:30:00,20.55,4729.60,,,,
1822,09/06/2021 10:00:00,21.10,3649.28,,,,
1823,09/06/2021 10:30:00,22.43,3834.88,,,,
1824,09/06/2021 11:00:00,24.28,4633.60,,,,
1825,09/06/2021 11:30:00,31.19,15201.28,,,,
1826,09/06/2021 12:00:00,40.28,52633.60,,,,
1827,09/06/2021 12:30:00,45.81,51343.36,,,,
1828,09/06/2021 13:00:00,46.12,52326.40,,,,
1829,09/06/2021 13:30:00,48.69,53125.12,,,,
1830,09/06/2021 14:00:00,48.09,53596.16,,,,
1831,09/06/2021 14:30:00,48.69,52367.36,,,,
1832,09/06/2021 15:00:00,47.75,49889.28,,,,
1833,09/06/2021 15:30:00,47.53,44441.60,,,,
1834,09/06/2021 16:00:00,46.59,38348.80,,,,
1835,09/06/2021 16:30:00,43.88,31795.20,,,,
1836,09/06/2021 17:00:00,42.13,30607.36,,,,
1837,09/06/2021 17:30:00,33.50,3563.52,,,,
1838,09/06/2021 18:00:00,26.47,2758.40,,,,
1839,09/06/2021 18:30:00,24.54,1955.20,,,,
1840,09/06/2021 19:00:00,22.73,944.32,,,,
1841,09/06/2021 19:30:00,21.23,88.24,,,,
1842,09/06/2021 20:00:00,20.42,0.00,,,,
1843,09/06/2021 20:30:00,19.65,0.00,,,,
1844,09/06/2021 21:00:00,19.30,0.00,,,,
1845,09/06/2021 21:30:00,18.83,0.00,,,,
1846,09/06/2021 22:00:00,18.53,0.00,,,,
1847,09/06/2021 22:30:00,18.44,0.00,,,,
1848,09/06/2021 23:00:00,18.23,0.00,,,,
1849,09/06/2021 23:30:00,18.27,0.00,,,,
1850,09/07/2021 00:00:00,18.53,0.00,,,,
1851,09/07/2021 00:30:00,19.00,0.00,,,,
1852,09/07/2021 01:00:00,19.39,0.00,,,,
1853,09/07/2021 01:30:00,19.86,0.00,,,,
1854,09/07/2021 02:00:00,19.30,0.00,,,,
1855,09/07/2021 02:30:00,19.26,0.00,,,,
1856,09/07/2021 03:00:00,19.30,0.00,,,,
1857,09/07/2021 03:30:00,18.19,0.00,,,,
1858,09/07/2021 04:00:00,17.41,0.00,,,,
1859,09/07/2021 04:30:00,16.99,0.00,,,,
1860,09/07/2021 05:00:00,17.29,0.00,,,,
1861,09/07/2021 05:30:00,17.89,0.00,,,,
1862,09/07/2021 06:00:00,18.70,0.00,,,,
1863,09/07/2021 06:30:00,18.79,63.64,,,,
1864,09/07/2021 07:00:00,19.09,796.80,,,,
1865,09/07/2021 07:30:00,19.39,1745.28,,,,
1866,09/07/2021 08:00:00,20.63,2961.92,,,,
1867,09/07/2021 08:30:00,21.96,10956.80,,,,
1868,09/07/2021 09:00:00,21.75,3498.24,,,,
1869,09/07/2021 09:30:00,23.46,4250.88,,,,
1870,09/07/2021 10:00:00,24.41,4736.00,,,,
1871,09/07/2021 10:30:00,25.61,5111.04,,,,
1872,09/07/2021 11:00:00,26.77,5985.28,,,,
1873,09/07/2021 11:30:00,28.44,7326.72,,,,
1874,09/07/2021 12:00:00,45.69,44195.84,,,,
1875,09/07/2021 12:30:00,46.80,60559.36,,,,
1876,09/07/2021 13:00:00,44.83,57507.84,,,,
1877,09/07/2021 13:30:00,49.68,60846.08,,,,
1878,09/07/2021 14:00:00,49.08,56279.04,,,,
1879,09/07/2021 14:30:00,48.77,46264.32,,,,
1880,09/07/2021 15:00:00,45.26,9748.48,,,,
1881,09/07/2021 15:30:00,45.56,38481.92,,,,
1882,09/07/2021 16:00:00,47.14,32071.68,,,,
1883,09/07/2021 16:30:00,44.06,25374.72,,,,
1884,09/07/2021 17:00:00,42.00,25364.48,,,,
1885,09/07/2021 17:30:00,33.46,5153.28,,,,
1886,09/07/2021 18:00:00,30.59,3983.36,,,,
1887,09/07/2021 18:30:00,28.95,2505.60,,,,
1888,09/07/2021 19:00:00,26.42,967.36,,,,
1889,09/07/2021 19:30:00,24.06,68.36,,,,
1890,09/07/2021 20:00:00,24.15,0.00,,,,
1891,09/07/2021 20:30:00,24.58,0.00,,,,
1892,09/07/2021 21:00:00,24.84,0.00,,,,
1893,09/07/2021 21:30:00,24.84,0.00,,,,
1894,09/07/2021 22:00:00,24.32,0.00,,,,
1895,09/07/2021 22:30:00,24.11,0.00,,,,
1896,09/07/2021 23:00:00,23.68,0.00,,,,
1897,09/07/2021 23:30:00,24.41,0.00,,,,
1898,09/08/2021 00:00:00,25.57,0.00,,,,
1899,09/08/2021 00:30:00,25.14,0.00,,,,
1900,09/08/2021 01:00:00,24.45,0.00,,,,
1901,09/08/2021 01:30:00,23.68,0.00,,,,
1902,09/08/2021 02:00:00,23.16,0.00,,,,
1903,09/08/2021 02:30:00,21.40,0.00,,,,
1904,09/08/2021 03:00:00,20.85,0.00,,,,
1905,09/08/2021 03:30:00,19.60,0.00,,,,
1906,09/08/2021 04:00:00,19.26,0.00,,,,
1907,09/08/2021 04:30:00,17.97,0.00,,,,
1908,09/08/2021 05:00:00,17.41,0.00,,,,
1909,09/08/2021 05:30:00,16.56,0.00,,,,
1910,09/08/2021 06:00:00,15.83,0.00,,,,
1911,09/08/2021 06:30:00,15.31,42.78,,,,
1912,09/08/2021 07:00:00,15.23,704.64,,,,
1913,09/08/2021 07:30:00,15.66,1302.08,,,,
1914,09/08/2021 08:00:00,16.86,1671.68,,,,
1915,09/08/2021 08:30:00,19.90,15994.88,,,,
1916,09/08/2021 09:00:00,19.17,2224.00,,,,
1917,09/08/2021 09:30:00,20.42,3097.60,,,,
1918,09/08/2021 10:00:00,21.49,2686.72,,,,
1919,09/08/2021 10:30:00,22.82,2938.88,,,,
1920,09/08/2021 11:00:00,23.98,3212.80,,,,
1921,09/08/2021 11:30:00,25.27,4450.56,,,,
1922,09/08/2021 12:00:00,45.39,55951.36,,,,
1923,09/08/2021 12:30:00,43.71,62074.88,,,,
1924,09/08/2021 13:00:00,42.90,60456.96,,,,
1925,09/08/2021 13:30:00,44.70,56852.48,,,,
1926,09/08/2021 14:00:00,45.13,55336.96,,,,
1927,09/08/2021 14:30:00,45.21,50237.44,,,,
1928,09/08/2021 15:00:00,45.34,45547.52,,,,
1929,09/08/2021 15:30:00,45.51,40519.68,,,,
1930,09/08/2021 16:00:00,43.63,33945.60,,,,
1931,09/08/2021 16:30:00,41.83,28057.60,,,,
1932,09/08/2021 17:00:00,41.22,28344.32,,,,
1933,09/08/2021 17:30:00,29.26,2932.48,,,,
1934,09/08/2021 18:00:00,24.41,2282.24,,,,
1935,09/08/2021 18:30:00,22.73,1607.68,,,,
1936,09/08/2021 19:00:00,20.46,767.04,,,,
1937,09/08/2021 19:30:00,18.74,53.64,,,,
1938,09/08/2021 20:00:00,17.89,0.00,,,,
1939,09/08/2021 20:30:00,17.16,0.00,,,,
1940,09/08/2021 21:00:00,16.43,0.00,,,,
1941,09/08/2021 21:30:00,16.04,0.00,,,,
1942,09/08/2021 22:00:00,15.66,0.00,,,,
1943,09/08/2021 22:30:00,15.27,0.00,,,,
1944,09/08/2021 23:00:00,14.93,0.00,,,,
1945,09/08/2021 23:30:00,14.50,0.00,,,,
1946,09/09/2021 00:00:00,14.11,0.00,,,,
1947,09/09/2021 00:30:00,13.85,0.00,,,,
1948,09/09/2021 01:00:00,13.94,0.00,,,,
1949,09/09/2021 01:30:00,13.94,0.00,,,,
1950,09/09/2021 02:00:00,13.64,0.00,,,,
1951,09/09/2021 02:30:00,13.55,0.00,,,,
1952,09/09/2021 03:00:00,13.64,0.00,,,,
1953,09/09/2021 03:30:00,13.34,0.00,,,,
1954,09/09/2021 04:00:00,13.08,0.00,,,,
1955,09/09/2021 04:30:00,12.82,0.00,,,,
1956,09/09/2021 05:00:00,12.65,0.00,,,,
1957,09/09/2021 05:30:00,12.40,0.00,,,,
1958,09/09/2021 06:00:00,12.35,0.00,,,,
1959,09/09/2021 06:30:00,12.22,39.83,,,,
1960,09/09/2021 07:00:00,12.31,668.80,,,,
1961,09/09/2021 07:30:00,12.87,1239.04,,,,
1962,09/09/2021 08:00:00,13.60,1592.32,,,,
1963,09/09/2021 08:30:00,15.91,10050.56,,,,
1964,09/09/2021 09:00:00,15.91,2097.92,,,,
1965,09/09/2021 09:30:00,17.63,5440.00,,,,
1966,09/09/2021 10:00:00,18.62,2531.84,,,,
1967,09/09/2021 10:30:00,20.25,2782.72,,,,
1968,09/09/2021 11:00:00,22.35,3027.20,,,,
1969,09/09/2021 11:30:00,24.11,3669.76,,,,
1970,09/09/2021 12:00:00,44.48,55255.04,,,,
1971,09/09/2021 12:30:00,45.90,57159.68,,,,
1972,09/09/2021 13:00:00,46.33,57815.04,,,,
1973,09/09/2021 13:30:00,46.76,57733.12,,,,
1974,09/09/2021 14:00:00,46.76,56934.40,,,,
1975,09/09/2021 14:30:00,45.04,49520.64,,,,
1976,09/09/2021 15:00:00,44.48,40755.20,,,,
1977,09/09/2021 15:30:00,39.47,31283.20,,,,
1978,09/09/2021 16:00:00,40.19,27115.52,,,,
1979,09/09/2021 16:30:00,40.50,25374.72,,,,
1980,09/09/2021 17:00:00,37.36,21985.28,,,,
1981,09/09/2021 17:30:00,27.37,6179.84,,,,
1982,09/09/2021 18:00:00,23.89,4536.32,,,,
1983,09/09/2021 18:30:00,21.96,2748.16,,,,
1984,09/09/2021 19:00:00,19.86,860.16,,,,
1985,09/09/2021 19:30:00,17.89,39.77,,,,
1986,09/09/2021 20:00:00,16.86,0.00,,,,
1987,09/09/2021 20:30:00,16.00,0.00,,,,
1988,09/09/2021 21:00:00,15.78,0.00,,,,
1989,09/09/2021 21:30:00,15.53,0.00,,,,
1990,09/09/2021 22:00:00,15.06,0.00,,,,
1991,09/09/2021 22:30:00,14.67,0.00,,,,
1992,09/09/2021 23:00:00,14.41,0.00,,,,
1993,09/09/2021 23:30:00,14.15,0.00,,,,
1994,09/10/2021 00:00:00,13.98,0.00,,,,
1995,09/10/2021 00:30:00,13.68,0.00,,,,
1996,09/10/2021 01:00:00,13.47,0.00,,,,
1997,09/10/2021 01:30:00,13.34,0.00,,,,
1998,09/10/2021 02:00:00,13.17,0.00,,,,
1999,09/10/2021 02:30:00,13.17,0.00,,,,
2000,09/10/2021 03:00:00,12.95,0.00,,,,
2001,09/10/2021 03:30:00,12.95,0.00,,,,
2002,09/10/2021 04:00:00,13.12,0.00,,,,
2003,09/10/2021 04:30:00,13.21,0.00,,,,
2004,09/10/2021 05:00:00,13.12,0.00,,,,
2005,09/10/2021 05:30:00,12.95,0.00,,,,
2006,09/10/2021 06:00:00,12.87,0.00,,,,
2007,09/10/2021 06:30:00,13.60,21.17,,,,
2008,09/10/2021 07:00:00,14.03,522.88,,,,
2009,09/10/2021 07:30:00,14.37,1787.52,,,,
2010,09/10/2021 08:00:00,15.48,3365.12,,,,
2011,09/10/2021 08:30:00,16.64,4595.20,,,,
2012,09/10/2021 09:00:00,17.84,5329.92,,,,
2013,09/10/2021 09:30:00,20.16,9356.80,,,,
2014,09/10/2021 10:00:00,21.45,6965.76,,,,
2015,09/10/2021 10:30:00,23.85,8081.92,,,,
2016,09/10/2021 11:00:00,25.35,9116.16,,,,
2017,09/10/2021 11:30:00,26.81,19712.00,,,,
2018,09/10/2021 12:00:00,42.30,46981.12,,,,
2019,09/10/2021 12:30:00,43.41,48189.44,,,,
2020,09/10/2021 13:00:00,43.97,48926.72,,,,
2021,09/10/2021 13:30:00,44.66,48128.00,,,,
2022,09/10/2021 14:00:00,44.31,46428.16,,,,
2023,09/10/2021 14:30:00,45.04,42844.16,,,,
2024,09/10/2021 15:00:00,45.13,38205.44,,,,
2025,09/10/2021 15:30:00,44.10,32952.32,,,,
2026,09/10/2021 16:00:00,43.37,28088.32,,,,
2027,09/10/2021 16:30:00,41.70,22568.96,,,,
2028,09/10/2021 17:00:00,38.69,19932.16,,,,
2029,09/10/2021 17:30:00,30.24,5169.92,,,,
2030,09/10/2021 18:00:00,26.38,3873.28,,,,
2031,09/10/2021 18:30:00,24.58,2240.64,,,,
2032,09/10/2021 19:00:00,22.99,688.64,,,,
2033,09/10/2021 19:30:00,21.83,22.95,,,,
2034,09/10/2021 20:00:00,21.32,0.00,,,,
2035,09/10/2021 20:30:00,21.45,0.00,,,,
2036,09/10/2021 21:00:00,22.86,0.00,,,,
2037,09/10/2021 21:30:00,22.73,0.00,,,,
2038,09/10/2021 22:00:00,22.95,0.00,,,,
2039,09/10/2021 22:30:00,22.78,0.00,,,,
2040,09/10/2021 23:00:00,22.73,0.00,,,,
2041,09/10/2021 23:30:00,22.01,0.00,,,,
2042,09/11/2021 00:00:00,21.83,0.00,,,,
2043,09/11/2021 00:30:00,21.58,0.00,,,,
2044,09/11/2021 01:00:00,21.49,0.00,,,,
2045,09/11/2021 01:30:00,21.49,0.00,,,,
2046,09/11/2021 02:00:00,21.45,0.00,,,,
2047,09/11/2021 02:30:00,21.06,0.00,,,,
2048,09/11/2021 03:00:00,20.89,0.00,,,,
2049,09/11/2021 03:30:00,20.93,0.00,,,,
2050,09/11/2021 04:00:00,20.93,0.00,,,,
2051,09/11/2021 04:30:00,20.85,0.00,,,,
2052,09/11/2021 05:00:00,20.68,0.00,,,,
2053,09/11/2021 05:30:00,20.80,0.00,,,,
2054,09/11/2021 06:00:00,20.50,0.00,,,,
2055,09/11/2021 06:30:00,20.37,20.31,,,,
2056,09/11/2021 07:00:00,20.63,510.40,,,,
2057,09/11/2021 07:30:00,20.85,1676.80,,,,
2058,09/11/2021 08:00:00,21.32,3132.16,,,,
2059,09/11/2021 08:30:00,22.05,5076.48,,,,
2060,09/11/2021 09:00:00,22.86,6835.20,,,,
2061,09/11/2021 09:30:00,24.45,8750.08,,,,
2062,09/11/2021 10:00:00,25.65,10711.04,,,,
2063,09/11/2021 10:30:00,27.67,13660.16,,,,
2064,09/11/2021 11:00:00,29.13,15554.56,,,,
2065,09/11/2021 11:30:00,30.33,16936.96,,,,
2066,09/11/2021 12:00:00,37.96,28538.88,,,,
2067,09/11/2021 12:30:00,40.28,32634.88,,,,
2068,09/11/2021 13:00:00,40.97,32983.04,,,,
2069,09/11/2021 13:30:00,40.67,35041.28,,,,
2070,09/11/2021 14:00:00,42.55,35000.32,,,,
2071,09/11/2021 14:30:00,42.00,33167.36,,,,
2072,09/11/2021 15:00:00,44.06,29818.88,,,,
2073,09/11/2021 15:30:00,43.41,27504.64,,,,
2074,09/11/2021 16:00:00,42.21,23091.20,,,,
2075,09/11/2021 16:30:00,39.89,18805.76,,,,
2076,09/11/2021 17:00:00,38.01,15349.76,,,,
2077,09/11/2021 17:30:00,31.40,6658.56,,,,
2078,09/11/2021 18:00:00,28.53,4485.12,,,,
2079,09/11/2021 18:30:00,28.01,2328.96,,,,
2080,09/11/2021 19:00:00,25.61,632.48,,,,
2081,09/11/2021 19:30:00,23.59,20.74,,,,
2082,09/11/2021 20:00:00,23.85,0.00,,,,
2083,09/11/2021 20:30:00,24.75,0.00,,,,
2084,09/11/2021 21:00:00,25.05,0.00,,,,
2085,09/11/2021 21:30:00,24.71,0.00,,,,
2086,09/11/2021 22:00:00,24.49,0.00,,,,
2087,09/11/2021 22:30:00,24.11,0.00,,,,
2088,09/11/2021 23:00:00,23.68,0.00,,,,
2089,09/11/2021 23:30:00,23.59,0.00,,,,
2090,09/12/2021 00:00:00,23.46,0.00,,,,
2091,09/12/2021 00:30:00,23.25,0.00,,,,
2092,09/12/2021 01:00:00,23.08,0.00,,,,
2093,09/12/2021 01:30:00,22.86,0.00,,,,
2094,09/12/2021 02:00:00,22.61,0.00,,,,
2095,09/12/2021 02:30:00,22.43,0.00,,,,
2096,09/12/2021 03:00:00,22.13,0.00,,,,
2097,09/12/2021 03:30:00,22.01,0.00,,,,
2098,09/12/2021 04:00:00,21.83,0.00,,,,
2099,09/12/2021 04:30:00,21.70,0.00,,,,
2100,09/12/2021 05:00:00,21.32,0.00,,,,
2101,09/12/2021 05:30:00,21.10,0.00,,,,
2102,09/12/2021 06:00:00,21.02,0.00,,,,
2103,09/12/2021 06:30:00,20.72,24.24,,,,
2104,09/12/2021 07:00:00,20.80,600.16,,,,
2105,09/12/2021 07:30:00,20.89,1831.68,,,,
2106,09/12/2021 08:00:00,21.58,3274.24,,,,
2107,09/12/2021 08:30:00,22.35,4733.44,,,,
2108,09/12/2021 09:00:00,23.29,6085.12,,,,
2109,09/12/2021 09:30:00,24.28,7470.08,,,,
2110,09/12/2021 10:00:00,25.65,13061.12,,,,
2111,09/12/2021 10:30:00,27.07,15098.88,,,,
2112,09/12/2021 11:00:00,28.61,17715.20,,,,
2113,09/12/2021 11:30:00,31.14,29716.48,,,,
2114,09/12/2021 12:00:00,42.43,44871.68,,,,
2115,09/12/2021 12:30:00,44.87,49459.20,,,,
2116,09/12/2021 13:00:00,44.31,49950.72,,,,
2117,09/12/2021 13:30:00,43.80,47759.36,,,,
2118,09/12/2021 14:00:00,44.74,46407.68,,,,
2119,09/12/2021 14:30:00,44.14,43499.52,,,,
2120,09/12/2021 15:00:00,44.40,38144.00,,,,
2121,09/12/2021 15:30:00,42.34,31979.52,,,,
2122,09/12/2021 16:00:00,42.00,26501.12,,,,
2123,09/12/2021 16:30:00,40.62,20106.24,,,,
2124,09/12/2021 17:00:00,38.48,15216.64,,,,
2125,09/12/2021 17:30:00,31.36,6778.88,,,,
2126,09/12/2021 18:00:00,29.34,4448.00,,,,
2127,09/12/2021 18:30:00,27.97,2277.12,,,,
2128,09/12/2021 19:00:00,26.60,602.40,,,,
2129,09/12/2021 19:30:00,25.48,14.05,,,,
2130,09/12/2021 20:00:00,25.05,0.00,,,,
2131,09/12/2021 20:30:00,24.71,0.00,,,,
2132,09/12/2021 21:00:00,24.28,0.00,,,,
2133,09/12/2021 21:30:00,23.76,0.00,,,,
2134,09/12/2021 22:00:00,23.34,0.00,,,,
2135,09/12/2021 22:30:00,22.69,0.00,,,,
2136,09/12/2021 23:00:00,22.31,0.00,,,,
2137,09/12/2021 23:30:00,21.75,0.00,,,,
2138,09/13/2021 00:00:00,21.36,0.00,,,,
2139,09/13/2021 00:30:00,21.19,0.00,,,,
2140,09/13/2021 01:00:00,21.02,0.00,,,,
2141,09/13/2021 01:30:00,19.82,0.00,,,,
2142,09/13/2021 02:00:00,19.17,0.00,,,,
2143,09/13/2021 02:30:00,18.74,0.00,,,,
2144,09/13/2021 03:00:00,18.32,0.00,,,,
2145,09/13/2021 03:30:00,18.23,0.00,,,,
2146,09/13/2021 04:00:00,18.92,0.00,,,,
2147,09/13/2021 04:30:00,19.60,0.00,,,,
2148,09/13/2021 05:00:00,19.47,0.00,,,,
2149,09/13/2021 05:30:00,18.49,0.00,,,,
2150,09/13/2021 06:00:00,17.20,0.00,,,,
2151,09/13/2021 06:30:00,16.94,21.17,,,,
2152,09/13/2021 07:00:00,16.77,589.92,,,,
2153,09/13/2021 07:30:00,17.07,1635.20,,,,
2154,09/13/2021 08:00:00,17.84,2564.48,,,,
2155,09/13/2021 08:30:00,19.22,3422.72,,,,
2156,09/13/2021 09:00:00,20.93,4144.64,,,,
2157,09/13/2021 09:30:00,23.42,4660.48,,,,
2158,09/13/2021 09:40:39,,,Logged,Logged,,
2159,09/13/2021 09:40:40,,,Logged,,,
2160,09/13/2021 09:40:41,,,,Logged,,
2161,09/13/2021 09:40:54,,,,,Logged,Logged
